==27418== NVPROF is profiling process 27418, command: ./cfd_0041 ../../../data/cfd/missile.domn.0.2M
==27418== Profiling application: ./cfd_0041 ../../../data/cfd/missile.domn.0.2M
==27418== Profiling result:
            Type  Time(%)      Time     Calls       Avg       Min       Max  Name
                        %        ms                  ms        ms        ms
 GPU activities:    72.01  460.5364      6000  0.076756  0.070591  3.844649  cuda_compute_flux(int, int*, float*, float*, float*)
                    19.35  123.7481      6000  0.020624  0.019264  0.022496  cuda_time_step(int, int, float*, float*, float*, float*)
                     4.55  29.10223      2000  0.014551  0.013856  0.017120  [CUDA memcpy DtoD]
                     3.69  23.60030      2000  0.011800  0.010464  0.192415  cuda_compute_step_factor(int, float*, float*, float*)
                     0.39  2.510289         3  0.836763  0.737243  0.936667  cuda_initialize_variables(int, float*)
                     0.00  6.78e-03         5  1.36e-03  1.28e-03  1.60e-03  [CUDA memcpy HtoD]
                     0.00  2.34e-03         1  2.34e-03  2.34e-03  2.34e-03  [CUDA memset]
      API calls:    46.31  521.7378      2000  0.260868  0.052895  4.201852  cudaMemcpy
                    36.64  412.8209         5  82.56417  0.012457  412.7696  cudaMemcpyToSymbol
                    12.37  139.4067     14003  9.96e-03  9.13e-03  0.109490  cudaLaunchKernel
                     1.84  20.75871         7  2.965530  0.016556  20.36487  cudaMallocManaged
                     0.96  10.80809       384  0.028146  2.34e-04  1.860776  cuDeviceGetAttribute
                     0.64  7.197498     28003  2.57e-04  2.12e-04  0.090141  cudaGetLastError
                     0.46  5.158985         4  1.289746  1.039122  1.429999  cuDeviceTotalMem
                     0.30  3.402142         1  3.402142  3.402142  3.402142  cudaGetDeviceProperties
                     0.25  2.788649         1  2.788649  2.788649  2.788649  cudaMemset
                     0.13  1.498255        10  0.149825  1.33e-03  0.429312  cudaFree
                     0.06  0.711028         4  0.177757  0.102973  0.212583  cuDeviceGetName
                     0.02  0.252065         2  0.126032  9.99e-03  0.242077  cudaThreadSynchronize
                     0.00  0.015048         4  3.76e-03  1.19e-03  9.51e-03  cuDeviceGetPCIBusId
                     0.00  0.011630         2  5.82e-03  4.31e-03  7.32e-03  cudaMemAdvise
                     0.00  0.010051         1  0.010051  0.010051  0.010051  cudaSetDevice
                     0.00  3.18e-03         8  3.97e-04  3.09e-04  5.74e-04  cuDeviceGet
                     0.00  1.73e-03         1  1.73e-03  1.73e-03  1.73e-03  cudaGetDevice
                     0.00  1.69e-03         3  5.65e-04  3.83e-04  7.81e-04  cuDeviceGetCount

==27418== Unified Memory profiling result:
Device "Tesla V100-SXM2-16GB (0)"
   Count  Avg Size  Min Size  Max Size  Total Size  Total Time  Name
      60  199.47KB  64.000KB  768.00KB  11.68750MB    0.333792ms  Host To Device
      51         -         -         -           -    6.846464ms  Gpu page fault groups
      29  125.79KB  64.000KB  448.00KB  3.562500MB           -  Remote mapping from device
Total CPU Page faults: 178
Total remote mappings to CPU: 29
