==94067== NVPROF is profiling process 94067, command: ./cfd_1530 ../../../data/cfd/missile.domn.0.2M
==94067== Profiling application: ./cfd_1530 ../../../data/cfd/missile.domn.0.2M
==94067== Profiling result:
            Type  Time(%)      Time     Calls       Avg       Min       Max  Name
                        %        ms                  ms        ms        ms
 GPU activities:    67.11  363.3163      6000  0.060552  0.052928  3.647147  cuda_compute_flux(int, int*, float*, float*, float*)
                    22.60  122.3724      6000  0.020395  0.019328  0.022656  cuda_time_step(int, int, float*, float*, float*, float*)
                     5.36  29.02396      2000  0.014511  0.013600  0.016608  [CUDA memcpy DtoD]
                     4.46  24.14463      2000  0.012072  0.010496  0.783003  cuda_compute_step_factor(int, float*, float*, float*)
                     0.47  2.530578         3  0.843526  0.773148  0.924763  cuda_initialize_variables(int, float*)
                     0.00  6.78e-03         5  1.36e-03  1.28e-03  1.57e-03  [CUDA memcpy HtoD]
                     0.00  2.34e-03         1  2.34e-03  2.34e-03  2.34e-03  [CUDA memset]
      API calls:    50.88  422.7789      2000  0.211389  0.051844  4.772181  cudaMemcpy
                    27.14  225.4800         5  45.09600  0.012476  225.4282  cudaMemcpyToSymbol
                    16.80  139.5620     14003  9.97e-03  9.19e-03  0.120270  cudaLaunchKernel
                     2.50  20.79056         7  2.970080  0.016191  20.38591  cudaMallocManaged
                     0.84  6.992471     28003  2.49e-04  2.11e-04  0.096186  cudaGetLastError
                     0.61  5.106754       384  0.013298  2.35e-04  0.538877  cuDeviceGetAttribute
                     0.50  4.138467         4  1.034616  1.029991  1.038934  cuDeviceTotalMem
                     0.34  2.811778         1  2.811778  2.811778  2.811778  cudaMemset
                     0.17  1.393076        10  0.139307  1.29e-03  0.368633  cudaFree
                     0.15  1.217940         1  1.217940  1.217940  1.217940  cudaGetDeviceProperties
                     0.05  0.421905         4  0.105476  0.102727  0.107719  cuDeviceGetName
                     0.02  0.207084         2  0.103542  0.010525  0.196559  cudaThreadSynchronize
                     0.00  0.015054         2  7.53e-03  4.51e-03  0.010546  cudaMemAdvise
                     0.00  0.014782         4  3.69e-03  1.13e-03  9.70e-03  cuDeviceGetPCIBusId
                     0.00  0.013017         1  0.013017  0.013017  0.013017  cudaSetDevice
                     0.00  3.14e-03         8  3.92e-04  3.13e-04  5.62e-04  cuDeviceGet
                     0.00  1.71e-03         1  1.71e-03  1.71e-03  1.71e-03  cudaGetDevice
                     0.00  1.44e-03         3  4.81e-04  4.14e-04  5.96e-04  cuDeviceGetCount

==94067== Unified Memory profiling result:
Device "Tesla V100-SXM2-16GB (0)"
   Count  Avg Size  Min Size  Max Size  Total Size  Total Time  Name
      81  192.00KB  64.000KB  960.00KB  15.18750MB    0.432672ms  Host To Device
      41         -         -         -           -    7.404736ms  Gpu page fault groups
      22  165.82KB  64.000KB  576.00KB  3.562500MB           -  Remote mapping from device
       5  192.00KB  64.000KB  384.00KB  960.0000KB           -  Remote mapping to device
Total CPU Page faults: 90
Total remote mappings from CPU: 5
Total remote mappings to CPU: 22
