==82370== NVPROF is profiling process 82370, command: ./cfd_1333 ../../../data/cfd/fvcorr.domn.193K
==82370== Profiling application: ./cfd_1333 ../../../data/cfd/fvcorr.domn.193K
==82370== Profiling result:
            Type  Time(%)      Time     Calls       Avg       Min       Max  Name
                        %        ms                  ms        ms        ms
 GPU activities:    67.69  298.3276      6000  0.049721  0.047040  3.457517  cuda_compute_flux(int, int*, float*, float*, float*)
                    23.49  103.5418      6000  0.017256  0.016096  0.023040  cuda_time_step(int, int, float*, float*, float*, float*)
                     4.38  19.28383      2000  9.64e-03  8.96e-03  0.012992  [CUDA memcpy DtoD]
                     3.89  17.15665      2000  8.58e-03  8.06e-03  0.021088  cuda_compute_step_factor(int, float*, float*, float*)
                     0.54  2.382323         3  0.794107  0.757980  0.813948  cuda_initialize_variables(int, float*)
                     0.00  6.75e-03         5  1.35e-03  1.28e-03  1.60e-03  [CUDA memcpy HtoD]
                     0.00  1.86e-03         1  1.86e-03  1.86e-03  1.86e-03  [CUDA memset]
      API calls:    44.82  330.7027      2000  0.165351  0.046286  3.579011  cudaMemcpy
                    30.80  227.2912         5  45.45824  0.012246  227.2395  cudaMemcpyToSymbol
                    18.58  137.1094     14003  9.79e-03  9.09e-03  0.093880  cudaLaunchKernel
                     2.80  20.67323         7  2.953318  0.010869  20.28978  cudaMallocManaged
                     0.96  7.104138     28003  2.53e-04  2.10e-04  0.092985  cudaGetLastError
                     0.69  5.116267       384  0.013323  2.36e-04  0.539342  cuDeviceGetAttribute
                     0.56  4.139400         4  1.034850  1.030375  1.039617  cuDeviceTotalMem
                     0.35  2.603092         1  2.603092  2.603092  2.603092  cudaMemset
                     0.18  1.302066        10  0.130206  1.36e-03  0.351623  cudaFree
                     0.16  1.217001         1  1.217001  1.217001  1.217001  cudaGetDeviceProperties
                     0.06  0.422976         4  0.105744  0.102936  0.107904  cuDeviceGetName
                     0.02  0.161637         2  0.080818  9.26e-03  0.152379  cudaThreadSynchronize
                     0.00  0.018688         3  6.23e-03  3.98e-03  0.010275  cudaMemAdvise
                     0.00  0.011364         4  2.84e-03  1.21e-03  6.45e-03  cuDeviceGetPCIBusId
                     0.00  0.010892         1  0.010892  0.010892  0.010892  cudaSetDevice
                     0.00  3.31e-03         8  4.13e-04  2.97e-04  7.09e-04  cuDeviceGet
                     0.00  1.86e-03         1  1.86e-03  1.86e-03  1.86e-03  cudaGetDevice
                     0.00  1.53e-03         3  5.10e-04  4.00e-04  6.52e-04  cuDeviceGetCount

==82370== Unified Memory profiling result:
Device "Tesla V100-SXM2-16GB (0)"
   Count  Avg Size  Min Size  Max Size  Total Size  Total Time  Name
     102  126.74KB  64.000KB  960.00KB  12.62500MB    0.515456ms  Host To Device
      25         -         -         -           -    6.098048ms  Gpu page fault groups
      95  136.08KB  64.000KB  448.00KB  12.62500MB           -  Remote mapping from device
Total CPU Page faults: 84
Total remote mappings to CPU: 95
