==32741== NVPROF is profiling process 32741, command: ./cfd_0132 ../../../data/cfd/missile.domn.0.2M
==32741== Profiling application: ./cfd_0132 ../../../data/cfd/missile.domn.0.2M
==32741== Profiling result:
            Type  Time(%)      Time     Calls       Avg       Min       Max  Name
                        %        ms                  ms        ms        ms
 GPU activities:    73.75  504.3925      6000  0.084065  0.077567  1.017114  cuda_compute_flux(int, int*, float*, float*, float*)
                    18.09  123.6943      6000  0.020615  0.019200  0.022912  cuda_time_step(int, int, float*, float*, float*, float*)
                     4.19  28.62505      2000  0.014312  0.013600  0.017311  [CUDA memcpy DtoD]
                     3.60  24.59850      2000  0.012299  0.010528  0.722524  cuda_compute_step_factor(int, float*, float*, float*)
                     0.37  2.561809         3  0.853936  0.791547  0.967259  cuda_initialize_variables(int, float*)
                     0.00  6.82e-03         5  1.36e-03  1.28e-03  1.60e-03  [CUDA memcpy HtoD]
                     0.00  2.34e-03         1  2.34e-03  2.34e-03  2.34e-03  [CUDA memset]
      API calls:    57.81  566.8468      2000  0.283423  0.050889  2.198397  cudaMemcpy
                    23.57  231.1610         5  46.23220  0.012783  231.1085  cudaMemcpyToSymbol
                    14.16  138.7995     14003  9.91e-03  9.17e-03  0.098844  cudaLaunchKernel
                     2.12  20.79861         7  2.971230  0.016213  20.40741  cudaMallocManaged
                     0.73  7.117404     28003  2.54e-04  2.10e-04  0.102407  cudaGetLastError
                     0.52  5.098876       384  0.013278  2.35e-04  0.533781  cuDeviceGetAttribute
                     0.42  4.137651         4  1.034412  1.030711  1.040714  cuDeviceTotalMem
                     0.29  2.795809         1  2.795809  2.795809  2.795809  cudaMemset
                     0.19  1.830702        10  0.183070  1.28e-03  0.826546  cudaFree
                     0.12  1.223176         1  1.223176  1.223176  1.223176  cudaGetDeviceProperties
                     0.04  0.421386         4  0.105346  0.102125  0.107636  cuDeviceGetName
                     0.03  0.276203         2  0.138101  9.52e-03  0.266678  cudaThreadSynchronize
                     0.00  0.021120         3  7.04e-03  5.49e-03  9.65e-03  cudaMemAdvise
                     0.00  0.013768         4  3.44e-03  1.17e-03  8.86e-03  cuDeviceGetPCIBusId
                     0.00  0.012812         1  0.012812  0.012812  0.012812  cudaSetDevice
                     0.00  3.09e-03         8  3.86e-04  2.98e-04  5.72e-04  cuDeviceGet
                     0.00  1.65e-03         1  1.65e-03  1.65e-03  1.65e-03  cudaGetDevice
                     0.00  1.41e-03         3  4.71e-04  3.87e-04  6.35e-04  cuDeviceGetCount

==32741== Unified Memory profiling result:
Device "Tesla V100-SXM2-16GB (0)"
   Count  Avg Size  Min Size  Max Size  Total Size  Total Time  Name
      27  170.67KB  64.000KB  960.00KB  4.500000MB    0.148448ms  Host To Device
      35         -         -         -           -    4.770176ms  Gpu page fault groups
      22  165.82KB  64.000KB  576.00KB  3.562500MB           -  Remote mapping from device
       6  1.7813MB  704.00KB  2.0000MB  10.68750MB           -  Remote mapping to device
Total CPU Page faults: 41
Total remote mappings from CPU: 6
Total remote mappings to CPU: 22
