==61582== NVPROF is profiling process 61582, command: ./cfd_1014 ../../../data/cfd/fvcorr.domn.097K
==61582== Profiling application: ./cfd_1014 ../../../data/cfd/fvcorr.domn.097K
==61582== Profiling result:
            Type  Time(%)      Time     Calls       Avg       Min       Max  Name
                        %        ms                  ms        ms        ms
 GPU activities:    89.62  496.2448      6000  0.082707  0.080095  1.902581  cuda_compute_flux(int, int*, float*, float*, float*)
                     6.99  38.72108      6000  6.45e-03  5.76e-03  8.54e-03  cuda_time_step(int, int, float*, float*, float*, float*)
                     1.84  10.18369      2000  5.09e-03  4.58e-03  0.010880  [CUDA memcpy DtoD]
                     1.38  7.662041      2000  3.83e-03  3.42e-03  0.550301  cuda_compute_step_factor(int, float*, float*, float*)
                     0.17  0.924059         3  0.308019  0.260319  0.351582  cuda_initialize_variables(int, float*)
                     0.00  6.88e-03         5  1.38e-03  1.28e-03  1.66e-03  [CUDA memcpy HtoD]
                     0.00  2.34e-03         1  2.34e-03  2.34e-03  2.34e-03  [CUDA memset]
      API calls:    52.61  451.7357      2000  0.225867  0.043640  2.584633  cudaMemcpy
                    26.30  225.7775         5  45.15550  0.012039  225.7267  cudaMemcpyToSymbol
                    16.29  139.8383     14003  9.99e-03  9.25e-03  0.142200  cudaLaunchKernel
                     2.42  20.81842         7  2.974060  9.20e-03  20.38808  cudaMallocManaged
                     0.82  7.048476     28003  2.51e-04  2.13e-04  5.45e-03  cudaGetLastError
                     0.60  5.109866       384  0.013306  2.34e-04  0.542218  cuDeviceGetAttribute
                     0.48  4.132321         4  1.033080  1.027717  1.041618  cuDeviceTotalMem
                     0.15  1.267450        10  0.126745  1.31e-03  0.440311  cudaFree
                     0.14  1.214288         1  1.214288  1.214288  1.214288  cudaGetDeviceProperties
                     0.11  0.946962         1  0.946962  0.946962  0.946962  cudaMemset
                     0.05  0.422625         4  0.105656  0.102522  0.107051  cuDeviceGetName
                     0.03  0.229870         2  0.114935  9.96e-03  0.219912  cudaThreadSynchronize
                     0.00  0.016925         2  8.46e-03  6.42e-03  0.010506  cudaMemAdvise
                     0.00  0.014395         4  3.60e-03  1.16e-03  9.50e-03  cuDeviceGetPCIBusId
                     0.00  0.010521         1  0.010521  0.010521  0.010521  cudaSetDevice
                     0.00  3.10e-03         8  3.87e-04  3.08e-04  5.02e-04  cuDeviceGet
                     0.00  1.64e-03         1  1.64e-03  1.64e-03  1.64e-03  cudaGetDevice
                     0.00  1.43e-03         3  4.78e-04  3.73e-04  5.94e-04  cuDeviceGetCount

==61582== Unified Memory profiling result:
Device "Tesla V100-SXM2-16GB (0)"
   Count  Avg Size  Min Size  Max Size  Total Size  Total Time  Name
      13  147.69KB  64.000KB  448.00KB  1.875000MB    0.063584ms  Host To Device
      28         -         -         -           -    3.588352ms  Gpu page fault groups
      44  104.73KB  64.000KB  320.00KB  4.500000MB           -  Remote mapping from device
Total CPU Page faults: 31
Total remote mappings to CPU: 44
