==56594== NVPROF is profiling process 56594, command: ./cfd_0524 ../../../data/cfd/missile.domn.0.2M
==56594== Profiling application: ./cfd_0524 ../../../data/cfd/missile.domn.0.2M
==56594== Profiling result:
            Type  Time(%)      Time     Calls       Avg       Min       Max  Name
                        %        ms                  ms        ms        ms
 GPU activities:    86.47  1.15e+03      6000  0.192031  0.188799  2.854415  cuda_compute_flux(int, int*, float*, float*, float*)
                     9.33  124.3484      6000  0.020724  0.019616  0.022880  cuda_time_step(int, int, float*, float*, float*, float*)
                     2.19  29.16887      2000  0.014584  0.013664  0.017215  [CUDA memcpy DtoD]
                     1.80  24.04620      2000  0.012023  0.010176  0.787388  cuda_compute_step_factor(int, float*, float*, float*)
                     0.20  2.694833         3  0.898277  0.697980  1.049754  cuda_initialize_variables(int, float*)
                     0.00  6.82e-03         5  1.36e-03  1.28e-03  1.60e-03  [CUDA memcpy HtoD]
                     0.00  2.34e-03         1  2.34e-03  2.34e-03  2.34e-03  [CUDA memset]
      API calls:    74.67  1.21e+03      2000  0.605997  0.069904  4.036317  cudaMemcpy
                    13.87  225.0636         5  45.01272  0.012620  225.0123  cudaMemcpyToSymbol
                     8.70  141.2833     14003  0.010089  9.14e-03  0.123172  cudaLaunchKernel
                     1.28  20.78274         7  2.968962  0.016857  20.38764  cudaMallocManaged
                     0.44  7.221937     28003  2.57e-04  2.14e-04  0.109592  cudaGetLastError
                     0.32  5.116726       384  0.013324  2.32e-04  0.539762  cuDeviceGetAttribute
                     0.26  4.144739         4  1.036184  1.030832  1.044269  cuDeviceTotalMem
                     0.18  2.954804         1  2.954804  2.954804  2.954804  cudaMemset
                     0.13  2.187829        10  0.218782  1.21e-03  0.937056  cudaFree
                     0.07  1.217257         1  1.217257  1.217257  1.217257  cudaGetDeviceProperties
                     0.04  0.597088         2  0.298544  9.86e-03  0.587229  cudaThreadSynchronize
                     0.03  0.422279         4  0.105569  0.102908  0.107531  cuDeviceGetName
                     0.00  0.021251         3  7.08e-03  4.60e-03  0.010078  cudaMemAdvise
                     0.00  0.014368         4  3.59e-03  1.14e-03  9.58e-03  cuDeviceGetPCIBusId
                     0.00  0.011285         1  0.011285  0.011285  0.011285  cudaSetDevice
                     0.00  3.03e-03         8  3.79e-04  3.01e-04  5.23e-04  cuDeviceGet
                     0.00  1.88e-03         1  1.88e-03  1.88e-03  1.88e-03  cudaGetDevice
                     0.00  1.42e-03         3  4.72e-04  4.02e-04  5.92e-04  cuDeviceGetCount

==56594== Unified Memory profiling result:
Device "Tesla V100-SXM2-16GB (0)"
   Count  Avg Size  Min Size  Max Size  Total Size  Total Time  Name
       7  137.14KB  64.000KB  256.00KB  960.0000KB    0.031424ms  Host To Device
      53         -         -         -           -    6.539136ms  Gpu page fault groups
      98  111.67KB  64.000KB  448.00KB  10.68750MB           -  Remote mapping from device
       7  658.29KB  64.000KB  2.0000MB  4.500000MB           -  Remote mapping to device
Total CPU Page faults: 13
Total remote mappings from CPU: 7
Total remote mappings to CPU: 98
