==23563== NVPROF is profiling process 23563, command: ./cfd_0003 ../../../data/cfd/fvcorr.domn.097K
==23563== Profiling application: ./cfd_0003 ../../../data/cfd/fvcorr.domn.097K
==23563== Profiling result:
            Type  Time(%)      Time     Calls       Avg       Min       Max  Name
                        %        ms                  ms        ms        ms
 GPU activities:    73.47  172.2303      6000  0.028705  0.026816  1.271320  cuda_compute_flux(int, int*, float*, float*, float*)
                    18.70  43.84550      6000  7.31e-03  6.37e-03  8.83e-03  cuda_time_step(int, int, float*, float*, float*, float*)
                     4.06  9.513854      2000  4.76e-03  4.58e-03  0.011616  [CUDA memcpy DtoD]
                     3.25  7.610363      2000  3.81e-03  3.42e-03  0.381470  cuda_compute_step_factor(int, float*, float*, float*)
                     0.51  1.205529         3  0.401843  0.337086  0.509949  cuda_initialize_variables(int, float*)
                     0.00  6.78e-03         5  1.36e-03  1.28e-03  1.60e-03  [CUDA memcpy HtoD]
                     0.00  2.34e-03         1  2.34e-03  2.34e-03  2.34e-03  [CUDA memset]
      API calls:    41.90  224.6038         5  44.92075  0.012418  224.5524  cudaMemcpyToSymbol
                    25.72  137.8686     14003  9.84e-03  9.04e-03  0.096577  cudaLaunchKernel
                    24.74  132.6107      2000  0.066305  0.030630  2.011316  cudaMemcpy
                     3.88  20.78648         7  2.969497  9.21e-03  20.36454  cudaMallocManaged
                     1.29  6.910900     28003  2.46e-04  2.08e-04  0.088421  cudaGetLastError
                     0.96  5.127662       384  0.013353  2.34e-04  0.535362  cuDeviceGetAttribute
                     0.78  4.194208         4  1.048552  1.034193  1.087582  cuDeviceTotalMem
                     0.23  1.222534         1  1.222534  1.222534  1.222534  cudaMemset
                     0.23  1.217347         1  1.217347  1.217347  1.217347  cudaGetDeviceProperties
                     0.17  0.916582        10  0.091658  1.41e-03  0.244813  cudaFree
                     0.08  0.424292         4  0.106073  0.103280  0.107760  cuDeviceGetName
                     0.01  0.070726         2  0.035363  9.50e-03  0.061222  cudaThreadSynchronize
                     0.00  0.015019         1  0.015019  0.015019  0.015019  cudaSetDevice
                     0.00  0.012826         4  3.21e-03  1.15e-03  7.87e-03  cuDeviceGetPCIBusId
                     0.00  6.49e-03         1  6.49e-03  6.49e-03  6.49e-03  cudaMemAdvise
                     0.00  3.29e-03         8  4.11e-04  3.05e-04  5.47e-04  cuDeviceGet
                     0.00  1.76e-03         1  1.76e-03  1.76e-03  1.76e-03  cudaGetDevice
                     0.00  1.46e-03         3  4.85e-04  4.18e-04  6.21e-04  cuDeviceGetCount

==23563== Unified Memory profiling result:
Device "Tesla V100-SXM2-16GB (0)"
   Count  Avg Size  Min Size  Max Size  Total Size  Total Time  Name
      42  158.48KB  64.000KB  896.00KB  6.500000MB    0.209984ms  Host To Device
      21         -         -         -           -    3.338208ms  Gpu page fault groups
      45  102.40KB  64.000KB  256.00KB  4.500000MB           -  Remote mapping from device
Total CPU Page faults: 46
Total remote mappings to CPU: 45
