==31923== NVPROF is profiling process 31923, command: ./cfd_0124 ../../../data/cfd/fvcorr.domn.193K
==31923== Profiling application: ./cfd_0124 ../../../data/cfd/fvcorr.domn.193K
==31923== Profiling result:
            Type  Time(%)      Time     Calls       Avg       Min       Max  Name
                        %        ms                  ms        ms        ms
 GPU activities:    86.88  960.5575      6000  0.160092  0.156927  2.157683  cuda_compute_flux(int, int*, float*, float*, float*)
                     9.55  105.6295      6000  0.017604  0.016128  0.020288  cuda_time_step(int, int, float*, float*, float*, float*)
                     1.77  19.54649      2000  9.77e-03  9.12e-03  0.013248  [CUDA memcpy DtoD]
                     1.58  17.48965      2000  8.74e-03  7.94e-03  0.518845  cuda_compute_step_factor(int, float*, float*, float*)
                     0.21  2.353618         3  0.784539  0.751612  0.808443  cuda_initialize_variables(int, float*)
                     0.00  6.82e-03         5  1.36e-03  1.28e-03  1.63e-03  [CUDA memcpy HtoD]
                     0.00  1.86e-03         1  1.86e-03  1.86e-03  1.86e-03  [CUDA memset]
      API calls:    70.31  992.0415      2000  0.496020  0.046790  2.995946  cudaMemcpy
                    16.66  235.0723         5  47.01445  0.012531  235.0203  cudaMemcpyToSymbol
                     9.92  140.0090     14003  1.00e-02  9.21e-03  0.103060  cudaLaunchKernel
                     1.47  20.78877         7  2.969824  0.011042  20.40520  cudaMallocManaged
                     0.50  7.124818     28003  2.54e-04  2.09e-04  0.103100  cudaGetLastError
                     0.36  5.112754       384  0.013314  2.34e-04  0.542127  cuDeviceGetAttribute
                     0.29  4.135938         4  1.033984  1.031369  1.037696  cuDeviceTotalMem
                     0.18  2.606359         1  2.606359  2.606359  2.606359  cudaMemset
                     0.13  1.897468        10  0.189746  1.27e-03  0.777902  cudaFree
                     0.09  1.216135         1  1.216135  1.216135  1.216135  cudaGetDeviceProperties
                     0.04  0.499230         2  0.249615  0.013310  0.485920  cudaThreadSynchronize
                     0.03  0.424854         4  0.106213  0.102969  0.108826  cuDeviceGetName
                     0.00  0.020426         3  6.81e-03  4.39e-03  9.55e-03  cudaMemAdvise
                     0.00  0.013121         1  0.013121  0.013121  0.013121  cudaSetDevice
                     0.00  0.013103         4  3.27e-03  1.23e-03  8.18e-03  cuDeviceGetPCIBusId
                     0.00  3.18e-03         8  3.96e-04  3.10e-04  5.32e-04  cuDeviceGet
                     0.00  1.72e-03         1  1.72e-03  1.72e-03  1.72e-03  cudaGetDevice
                     0.00  1.58e-03         3  5.27e-04  4.37e-04  6.43e-04  cuDeviceGetCount

==31923== Unified Memory profiling result:
Device "Tesla V100-SXM2-16GB (0)"
   Count  Avg Size  Min Size  Max Size  Total Size  Total Time  Name
       5  153.60KB  64.000KB  256.00KB  768.0000KB    0.023904ms  Host To Device
      43         -         -         -           -    5.316832ms  Gpu page fault groups
      91  99.867KB  64.000KB  256.00KB  8.875000MB           -  Remote mapping from device
       2  1.5000MB  1.0000MB  2.0000MB  3.000000MB           -  Remote mapping to device
Total CPU Page faults: 19
Total remote mappings from CPU: 2
Total remote mappings to CPU: 91
