==31248== NVPROF is profiling process 31248, command: ./cfd_0120 ../../../data/cfd/fvcorr.domn.097K
==31248== Profiling application: ./cfd_0120 ../../../data/cfd/fvcorr.domn.097K
==31248== Profiling result:
            Type  Time(%)      Time     Calls       Avg       Min       Max  Name
                        %        ms                  ms        ms        ms
 GPU activities:    74.59  179.5109      6000  0.029918  0.028032  1.723318  cuda_compute_flux(int, int*, float*, float*, float*)
                    17.84  42.92564      6000  7.15e-03  6.30e-03  8.83e-03  cuda_time_step(int, int, float*, float*, float*, float*)
                     3.95  9.513612      2000  4.76e-03  4.67e-03  0.011200  [CUDA memcpy DtoD]
                     3.16  7.610569      2000  3.81e-03  3.39e-03  0.394910  cuda_compute_step_factor(int, float*, float*, float*)
                     0.45  1.091994         3  0.363998  0.352382  0.374238  cuda_initialize_variables(int, float*)
                     0.00  6.82e-03         5  1.36e-03  1.28e-03  1.60e-03  [CUDA memcpy HtoD]
                     0.00  2.34e-03         1  2.34e-03  2.34e-03  2.34e-03  [CUDA memset]
      API calls:    41.52  226.2218         5  45.24436  0.012744  226.1691  cudaMemcpyToSymbol
                    25.49  138.9109      2000  0.069455  0.030833  2.116291  cudaMemcpy
                    25.46  138.7166     14003  9.91e-03  9.12e-03  0.174788  cudaLaunchKernel
                     3.84  20.91493         7  2.987846  9.68e-03  20.39098  cudaMallocManaged
                     1.28  6.950658     28003  2.48e-04  2.09e-04  0.098307  cudaGetLastError
                     0.94  5.105306       384  0.013295  2.33e-04  0.532571  cuDeviceGetAttribute
                     0.76  4.143379         4  1.035844  1.035217  1.036630  cuDeviceTotalMem
                     0.22  1.224967         1  1.224967  1.224967  1.224967  cudaGetDeviceProperties
                     0.20  1.103238        10  0.110323  1.38e-03  0.350763  cudaFree
                     0.19  1.029365         1  1.029365  1.029365  1.029365  cudaMemset
                     0.08  0.422688         4  0.105672  0.102857  0.107941  cuDeviceGetName
                     0.01  0.073792         2  0.036896  9.73e-03  0.064066  cudaThreadSynchronize
                     0.00  0.019474         2  9.74e-03  9.60e-03  9.88e-03  cudaMemAdvise
                     0.00  0.014979         4  3.74e-03  1.17e-03  0.010213  cuDeviceGetPCIBusId
                     0.00  0.014371         1  0.014371  0.014371  0.014371  cudaSetDevice
                     0.00  3.14e-03         8  3.92e-04  3.06e-04  5.37e-04  cuDeviceGet
                     0.00  1.90e-03         1  1.90e-03  1.90e-03  1.90e-03  cudaGetDevice
                     0.00  1.39e-03         3  4.62e-04  3.91e-04  5.91e-04  cuDeviceGetCount

==31248== Unified Memory profiling result:
Device "Tesla V100-SXM2-16GB (0)"
   Count  Avg Size  Min Size  Max Size  Total Size  Total Time  Name
      36  138.67KB  64.000KB  704.00KB  4.875000MB    0.178016ms  Host To Device
      24         -         -         -           -    3.421312ms  Gpu page fault groups
       1  1.5000MB  1.5000MB  1.5000MB  1.500000MB           -  Remote mapping to device
Total CPU Page faults: 40
Total remote mappings from CPU: 1
