==37692== NVPROF is profiling process 37692, command: ./cfd_0221 ../../../data/cfd/missile.domn.0.2M
==37692== Profiling application: ./cfd_0221 ../../../data/cfd/missile.domn.0.2M
==37692== Profiling result:
            Type  Time(%)      Time     Calls       Avg       Min       Max  Name
                        %        ms                  ms        ms        ms
 GPU activities:    67.85  377.5295      6000  0.062921  0.054240  3.292333  cuda_compute_flux(int, int*, float*, float*, float*)
                    22.23  123.6793      6000  0.020613  0.019264  0.023424  cuda_time_step(int, int, float*, float*, float*, float*)
                     5.10  28.38664      2000  0.014193  0.013408  0.016480  [CUDA memcpy DtoD]
                     4.33  24.07352      2000  0.012036  0.010912  0.012768  cuda_compute_step_factor(int, float*, float*, float*)
                     0.49  2.745456         3  0.915152  0.868539  0.945274  cuda_initialize_variables(int, float*)
                     0.00  6.82e-03         5  1.36e-03  1.28e-03  1.60e-03  [CUDA memcpy HtoD]
                     0.00  2.34e-03         1  2.34e-03  2.34e-03  2.34e-03  [CUDA memset]
      API calls:    51.88  439.8814      2000  0.219940  0.065617  3.437712  cudaMemcpy
                    26.72  226.5659         5  45.31319  0.012199  226.5152  cudaMemcpyToSymbol
                    16.26  137.8385     14003  9.84e-03  9.09e-03  0.104555  cudaLaunchKernel
                     2.45  20.76414         7  2.966305  0.016197  20.37819  cudaMallocManaged
                     0.83  7.073240     28003  2.52e-04  2.11e-04  0.104156  cudaGetLastError
                     0.60  5.111339       384  0.013310  2.32e-04  0.532084  cuDeviceGetAttribute
                     0.49  4.145761         4  1.036440  1.031883  1.039369  cuDeviceTotalMem
                     0.35  2.995454         1  2.995454  2.995454  2.995454  cudaMemset
                     0.19  1.613789        10  0.161378  1.30e-03  0.438685  cudaFree
                     0.14  1.217236         1  1.217236  1.217236  1.217236  cudaGetDeviceProperties
                     0.05  0.422145         4  0.105536  0.102829  0.107544  cuDeviceGetName
                     0.03  0.212940         2  0.106470  9.60e-03  0.203341  cudaThreadSynchronize
                     0.00  0.020128         3  6.71e-03  4.22e-03  0.011341  cudaMemAdvise
                     0.00  0.011720         4  2.93e-03  1.11e-03  7.53e-03  cuDeviceGetPCIBusId
                     0.00  9.54e-03         1  9.54e-03  9.54e-03  9.54e-03  cudaSetDevice
                     0.00  3.08e-03         8  3.84e-04  3.12e-04  5.08e-04  cuDeviceGet
                     0.00  1.48e-03         1  1.48e-03  1.48e-03  1.48e-03  cudaGetDevice
                     0.00  1.44e-03         3  4.79e-04  3.71e-04  5.76e-04  cuDeviceGetCount

==37692== Unified Memory profiling result:
Device "Tesla V100-SXM2-16GB (0)"
   Count  Avg Size  Min Size  Max Size  Total Size  Total Time  Name
      54  202.67KB  64.000KB  768.00KB  10.68750MB    0.304320ms  Host To Device
      40         -         -         -           -    6.273888ms  Gpu page fault groups
       3  1.5000MB  960.00KB  2.0000MB  4.500000MB           -  Remote mapping to device
Total CPU Page faults: 174
Total remote mappings from CPU: 3
