==90935== NVPROF is profiling process 90935, command: ./cfd_1500 ../../../data/cfd/fvcorr.domn.193K
==90935== Profiling application: ./cfd_1500 ../../../data/cfd/fvcorr.domn.193K
==90935== Profiling result:
            Type  Time(%)      Time     Calls       Avg       Min       Max  Name
                        %        ms                  ms        ms        ms
 GPU activities:    66.91  296.5131      6000  0.049418  0.047168  3.024431  cuda_compute_flux(int, int*, float*, float*, float*)
                    24.20  107.2605      6000  0.017876  0.016192  0.019840  cuda_time_step(int, int, float*, float*, float*, float*)
                     4.40  19.51506      2000  9.76e-03  9.09e-03  0.013632  [CUDA memcpy DtoD]
                     3.99  17.67650      2000  8.84e-03  7.97e-03  0.535228  cuda_compute_step_factor(int, float*, float*, float*)
                     0.50  2.194548         3  0.731516  0.634589  0.853883  cuda_initialize_variables(int, float*)
                     0.00  6.82e-03         5  1.36e-03  1.28e-03  1.60e-03  [CUDA memcpy HtoD]
                     0.00  1.86e-03         1  1.86e-03  1.86e-03  1.86e-03  [CUDA memset]
      API calls:    44.91  331.0392      2000  0.165519  0.047214  3.667155  cudaMemcpy
                    30.57  225.3711         5  45.07422  0.012214  225.3188  cudaMemcpyToSymbol
                    18.75  138.2219     14003  9.87e-03  9.18e-03  0.049502  cudaLaunchKernel
                     2.81  20.75168         7  2.964526  0.011279  20.36670  cudaMallocManaged
                     0.94  6.939351     28003  2.47e-04  2.09e-04  0.089456  cudaGetLastError
                     0.69  5.122860       384  0.013340  2.34e-04  0.535614  cuDeviceGetAttribute
                     0.56  4.141255         4  1.035313  1.033756  1.036454  cuDeviceTotalMem
                     0.33  2.464052         1  2.464052  2.464052  2.464052  cudaMemset
                     0.18  1.293269        10  0.129326  1.29e-03  0.315332  cudaFree
                     0.17  1.218351         1  1.218351  1.218351  1.218351  cudaGetDeviceProperties
                     0.06  0.423187         4  0.105796  0.103283  0.107818  cuDeviceGetName
                     0.02  0.163746         2  0.081873  9.82e-03  0.153926  cudaThreadSynchronize
                     0.00  0.015092         4  3.77e-03  1.15e-03  0.010060  cuDeviceGetPCIBusId
                     0.00  0.012457         1  0.012457  0.012457  0.012457  cudaSetDevice
                     0.00  0.010232         1  0.010232  0.010232  0.010232  cudaMemAdvise
                     0.00  3.13e-03         8  3.91e-04  3.03e-04  5.20e-04  cuDeviceGet
                     0.00  1.67e-03         1  1.67e-03  1.67e-03  1.67e-03  cudaGetDevice
                     0.00  1.43e-03         3  4.76e-04  3.71e-04  6.17e-04  cuDeviceGetCount

==90935== Unified Memory profiling result:
Device "Tesla V100-SXM2-16GB (0)"
   Count  Avg Size  Min Size  Max Size  Total Size  Total Time  Name
      76  170.10KB  64.000KB  896.00KB  12.62500MB    0.390816ms  Host To Device
      32         -         -         -           -    6.043744ms  Gpu page fault groups
       4  192.00KB  64.000KB  448.00KB  768.0000KB           -  Remote mapping to device
Total CPU Page faults: 84
Total remote mappings from CPU: 4
