==43994== NVPROF is profiling process 43994, command: ./cfd_0322 ../../../data/cfd/fvcorr.domn.097K
==43994== Profiling application: ./cfd_0322 ../../../data/cfd/fvcorr.domn.097K
==43994== Profiling result:
            Type  Time(%)      Time     Calls       Avg       Min       Max  Name
                        %        ms                  ms        ms        ms
 GPU activities:    86.29  372.7040      6000  0.062117  0.059648  0.556893  cuda_compute_flux(int, int*, float*, float*, float*)
                     9.44  40.78112      6000  6.80e-03  6.08e-03  8.03e-03  cuda_time_step(int, int, float*, float*, float*, float*)
                     2.20  9.492549      2000  4.75e-03  4.58e-03  0.010848  [CUDA memcpy DtoD]
                     1.84  7.947630      2000  3.97e-03  3.87e-03  0.013664  cuda_compute_step_factor(int, float*, float*, float*)
                     0.22  0.961339         3  0.320446  0.244575  0.441310  cuda_initialize_variables(int, float*)
                     0.00  6.98e-03         5  1.40e-03  1.28e-03  1.76e-03  [CUDA memcpy HtoD]
                     0.00  2.34e-03         1  2.34e-03  2.34e-03  2.34e-03  [CUDA memset]
      API calls:    44.93  330.4958      2000  0.165247  0.044292  0.662240  cudaMemcpy
                    30.63  225.3642         5  45.07285  0.012084  225.3134  cudaMemcpyToSymbol
                    18.77  138.0665     14003  9.86e-03  8.72e-03  0.117906  cudaLaunchKernel
                     2.83  20.82444         7  2.974919  9.22e-03  20.38824  cudaMallocManaged
                     0.98  7.198738     28003  2.57e-04  2.08e-04  0.114728  cudaGetLastError
                     0.72  5.327714       384  0.013874  2.34e-04  0.536628  cuDeviceGetAttribute
                     0.57  4.224523         4  1.056130  1.031623  1.072615  cuDeviceTotalMem
                     0.17  1.270566        10  0.127056  1.28e-03  0.412198  cudaFree
                     0.17  1.229694         1  1.229694  1.229694  1.229694  cudaGetDeviceProperties
                     0.13  0.987598         1  0.987598  0.987598  0.987598  cudaMemset
                     0.06  0.427235         4  0.106808  0.102909  0.111497  cuDeviceGetName
                     0.02  0.167902         2  0.083951  0.010060  0.157842  cudaThreadSynchronize
                     0.00  0.024466         3  8.15e-03  4.49e-03  0.010668  cudaMemAdvise
                     0.00  0.014515         4  3.63e-03  1.12e-03  9.59e-03  cuDeviceGetPCIBusId
                     0.00  0.013953         1  0.013953  0.013953  0.013953  cudaSetDevice
                     0.00  3.09e-03         8  3.85e-04  3.01e-04  5.94e-04  cuDeviceGet
                     0.00  1.51e-03         1  1.51e-03  1.51e-03  1.51e-03  cudaGetDevice
                     0.00  1.43e-03         3  4.77e-04  4.16e-04  5.96e-04  cuDeviceGetCount

==43994== Unified Memory profiling result:
Device "Tesla V100-SXM2-16GB (0)"
   Count  Avg Size  Min Size  Max Size  Total Size  Total Time  Name
       4  80.000KB  64.000KB  128.00KB  320.0000KB    0.015360ms  Host To Device
      16         -         -         -           -    1.728448ms  Gpu page fault groups
       3  106.67KB  64.000KB  192.00KB  320.0000KB           -  Remote mapping from device
       5  1.2125MB  64.000KB  2.0000MB  6.062500MB           -  Remote mapping to device
Total CPU Page faults: 8
Total remote mappings from CPU: 5
Total remote mappings to CPU: 3
