==31344== NVPROF is profiling process 31344, command: ./cfd_0120 ../../../data/cfd/missile.domn.0.2M
==31344== Profiling application: ./cfd_0120 ../../../data/cfd/missile.domn.0.2M
==31344== Profiling result:
            Type  Time(%)      Time     Calls       Avg       Min       Max  Name
                        %        ms                  ms        ms        ms
 GPU activities:    68.05  377.1318      6000  0.062855  0.054752  3.532876  cuda_compute_flux(int, int*, float*, float*, float*)
                    21.88  121.2682      6000  0.020211  0.019008  0.022272  cuda_time_step(int, int, float*, float*, float*, float*)
                     5.17  28.62978      2000  0.014314  0.013408  0.017023  [CUDA memcpy DtoD]
                     4.39  24.32198      2000  0.012160  0.010400  0.689052  cuda_compute_step_factor(int, float*, float*, float*)
                     0.52  2.866895         3  0.955631  0.833659  1.034937  cuda_initialize_variables(int, float*)
                     0.00  6.82e-03         5  1.36e-03  1.28e-03  1.60e-03  [CUDA memcpy HtoD]
                     0.00  2.34e-03         1  2.34e-03  2.34e-03  2.34e-03  [CUDA memset]
      API calls:    51.17  436.1959      2000  0.218097  0.051023  4.354382  cudaMemcpy
                    27.51  234.5092         5  46.90185  0.012357  234.4582  cudaMemcpyToSymbol
                    16.20  138.0534     14003  9.86e-03  9.15e-03  0.114935  cudaLaunchKernel
                     2.44  20.78004         7  2.968577  0.015985  20.39632  cudaMallocManaged
                     0.81  6.915124     28003  2.46e-04  2.10e-04  0.080595  cudaGetLastError
                     0.62  5.244682       384  0.013658  2.34e-04  0.537033  cuDeviceGetAttribute
                     0.49  4.154692         4  1.038673  1.031900  1.050870  cuDeviceTotalMem
                     0.37  3.177571         1  3.177571  3.177571  3.177571  cudaMemset
                     0.18  1.509613        10  0.150961  1.30e-03  0.416752  cudaFree
                     0.14  1.220368         1  1.220368  1.220368  1.220368  cudaGetDeviceProperties
                     0.05  0.424369         4  0.106092  0.104302  0.108535  cuDeviceGetName
                     0.02  0.211532         2  0.105766  0.010637  0.200895  cudaThreadSynchronize
                     0.00  0.016394         2  8.20e-03  6.57e-03  9.83e-03  cudaMemAdvise
                     0.00  0.011880         4  2.97e-03  1.10e-03  7.35e-03  cuDeviceGetPCIBusId
                     0.00  0.010033         1  0.010033  0.010033  0.010033  cudaSetDevice
                     0.00  3.19e-03         8  3.98e-04  3.16e-04  5.50e-04  cuDeviceGet
                     0.00  1.75e-03         1  1.75e-03  1.75e-03  1.75e-03  cudaGetDevice
                     0.00  1.44e-03         3  4.79e-04  4.08e-04  5.94e-04  cuDeviceGetCount

==31344== Unified Memory profiling result:
Device "Tesla V100-SXM2-16GB (0)"
   Count  Avg Size  Min Size  Max Size  Total Size  Total Time  Name
      65  183.14KB  64.000KB  768.00KB  11.62500MB    0.346400ms  Host To Device
      45         -         -         -           -    7.364704ms  Gpu page fault groups
       2  1.7813MB  1.5625MB  2.0000MB  3.562500MB           -  Remote mapping to device
Total CPU Page faults: 82
Total remote mappings from CPU: 2
