==94547== NVPROF is profiling process 94547, command: ./cfd_1533 ../../../data/cfd/missile.domn.0.2M
==94547== Profiling application: ./cfd_1533 ../../../data/cfd/missile.domn.0.2M
==94547== Profiling result:
            Type  Time(%)      Time     Calls       Avg       Min       Max  Name
                        %        ms                  ms        ms        ms
 GPU activities:    66.96  363.4314      6000  0.060571  0.052480  3.651595  cuda_compute_flux(int, int*, float*, float*, float*)
                    22.80  123.7359      6000  0.020622  0.019392  0.022304  cuda_time_step(int, int, float*, float*, float*, float*)
                     5.30  28.76206      2000  0.014381  0.013600  0.017504  [CUDA memcpy DtoD]
                     4.48  24.32242      2000  0.012161  0.010495  0.582620  cuda_compute_step_factor(int, float*, float*, float*)
                     0.46  2.475570         3  0.825190  0.680669  0.964986  cuda_initialize_variables(int, float*)
                     0.00  6.85e-03         5  1.37e-03  1.28e-03  1.63e-03  [CUDA memcpy HtoD]
                     0.00  2.34e-03         1  2.34e-03  2.34e-03  2.34e-03  [CUDA memset]
      API calls:    51.05  425.6750      2000  0.212837  0.051672  4.874108  cudaMemcpy
                    27.16  226.4770         5  45.29540  0.012533  226.4254  cudaMemcpyToSymbol
                    16.61  138.4472     14003  9.89e-03  9.02e-03  0.106754  cudaLaunchKernel
                     2.49  20.79335         7  2.970478  0.017443  20.40200  cudaMallocManaged
                     0.85  7.080686     28003  2.52e-04  2.11e-04  1.81e-03  cudaGetLastError
                     0.61  5.113937       384  0.013317  2.34e-04  0.531915  cuDeviceGetAttribute
                     0.50  4.141461         4  1.035365  1.031182  1.044130  cuDeviceTotalMem
                     0.33  2.722638         1  2.722638  2.722638  2.722638  cudaMemset
                     0.17  1.412857        10  0.141285  1.33e-03  0.397841  cudaFree
                     0.15  1.215554         1  1.215554  1.215554  1.215554  cudaGetDeviceProperties
                     0.05  0.423563         4  0.105890  0.102826  0.107633  cuDeviceGetName
                     0.02  0.205834         2  0.102917  9.50e-03  0.196337  cudaThreadSynchronize
                     0.00  0.019245         3  6.41e-03  4.06e-03  0.010797  cudaMemAdvise
                     0.00  0.014041         1  0.014041  0.014041  0.014041  cudaSetDevice
                     0.00  0.012601         4  3.15e-03  1.16e-03  7.96e-03  cuDeviceGetPCIBusId
                     0.00  3.19e-03         8  3.98e-04  3.06e-04  6.35e-04  cuDeviceGet
                     0.00  1.66e-03         1  1.66e-03  1.66e-03  1.66e-03  cudaGetDevice
                     0.00  1.51e-03         3  5.04e-04  4.40e-04  6.25e-04  cuDeviceGetCount

==94547== Unified Memory profiling result:
Device "Tesla V100-SXM2-16GB (0)"
   Count  Avg Size  Min Size  Max Size  Total Size  Total Time  Name
     107  145.35KB  64.000KB  896.00KB  15.18750MB    0.522400ms  Host To Device
      31         -         -         -           -    7.293728ms  Gpu page fault groups
      97  150.43KB  64.000KB  576.00KB  14.25000MB           -  Remote mapping from device
       4  240.00KB  64.000KB  640.00KB  960.0000KB           -  Remote mapping to device
Total CPU Page faults: 90
Total remote mappings from CPU: 4
Total remote mappings to CPU: 97
