==47880== NVPROF is profiling process 47880, command: ./cfd_0401 ../../../data/cfd/missile.domn.0.2M
==47880== Profiling application: ./cfd_0401 ../../../data/cfd/missile.domn.0.2M
==47880== Profiling result:
            Type  Time(%)      Time     Calls       Avg       Min       Max  Name
                        %        ms                  ms        ms        ms
 GPU activities:    63.19  363.0966      6000  0.060516  0.052896  3.856010  cuda_compute_flux(int, int*, float*, float*, float*)
                    24.22  139.1605      6000  0.023193  0.021600  0.025504  cuda_time_step(int, int, float*, float*, float*, float*)
                     7.17  41.22446      2000  0.020612  0.019584  0.592701  cuda_compute_step_factor(int, float*, float*, float*)
                     4.98  28.63670      2000  0.014318  0.013600  0.017120  [CUDA memcpy DtoD]
                     0.44  2.521265         3  0.840421  0.697403  0.948891  cuda_initialize_variables(int, float*)
                     0.00  6.78e-03         5  1.36e-03  1.28e-03  1.60e-03  [CUDA memcpy HtoD]
                     0.00  1.86e-03         1  1.86e-03  1.86e-03  1.86e-03  [CUDA memset]
      API calls:    52.88  456.8416      2000  0.228420  0.051334  4.584704  cudaMemcpy
                    26.04  224.9084         5  44.98168  0.012226  224.8577  cudaMemcpyToSymbol
                    16.06  138.7691     14003  9.91e-03  9.17e-03  0.086289  cudaLaunchKernel
                     2.40  20.77562         7  2.967946  0.016298  20.38850  cudaMallocManaged
                     0.83  7.186583     28003  2.56e-04  2.12e-04  0.091846  cudaGetLastError
                     0.59  5.124726       384  0.013345  2.34e-04  0.534485  cuDeviceGetAttribute
                     0.48  4.139517         4  1.034879  1.032789  1.040247  cuDeviceTotalMem
                     0.32  2.758496         1  2.758496  2.758496  2.758496  cudaMemset
                     0.17  1.432748        10  0.143274  1.29e-03  0.407731  cudaFree
                     0.14  1.217088         1  1.217088  1.217088  1.217088  cudaGetDeviceProperties
                     0.05  0.424105         4  0.106026  0.103070  0.108160  cuDeviceGetName
                     0.03  0.222389         2  0.111194  9.67e-03  0.212721  cudaThreadSynchronize
                     0.00  0.017362         4  4.34e-03  1.17e-03  0.012597  cuDeviceGetPCIBusId
                     0.00  0.015379         2  7.69e-03  4.48e-03  0.010895  cudaMemAdvise
                     0.00  0.012047         1  0.012047  0.012047  0.012047  cudaSetDevice
                     0.00  3.20e-03         8  3.99e-04  3.08e-04  5.86e-04  cuDeviceGet
                     0.00  2.01e-03         1  2.01e-03  2.01e-03  2.01e-03  cudaGetDevice
                     0.00  1.34e-03         3  4.48e-04  3.95e-04  5.31e-04  cuDeviceGetCount

==47880== Unified Memory profiling result:
Device "Tesla V100-SXM2-16GB (0)"
   Count  Avg Size  Min Size  Max Size  Total Size  Total Time  Name
      69  211.48KB  64.000KB  832.00KB  14.25000MB    0.401440ms  Host To Device
      42         -         -         -           -    7.208224ms  Gpu page fault groups
       6  160.00KB  64.000KB  256.00KB  960.0000KB           -  Remote mapping from device
Total CPU Page faults: 192
Total remote mappings to CPU: 6
