==77595== NVPROF is profiling process 77595, command: ./cfd_1245 ../../../data/cfd/fvcorr.domn.097K
==77595== Profiling application: ./cfd_1245 ../../../data/cfd/fvcorr.domn.097K
==77595== Profiling result:
            Type  Time(%)      Time     Calls       Avg       Min       Max  Name
                        %        ms                  ms        ms        ms
 GPU activities:    77.58  248.3877      6000  0.041397  0.038047  2.219156  cuda_compute_flux(int, int*, float*, float*, float*)
                    13.37  42.82170      6000  7.14e-03  6.27e-03  8.83e-03  cuda_time_step(int, int, float*, float*, float*, float*)
                     5.80  18.58596      2000  9.29e-03  9.06e-03  0.303678  cuda_compute_step_factor(int, float*, float*, float*)
                     2.92  9.353615      2000  4.68e-03  4.45e-03  0.043711  [CUDA memcpy DtoD]
                     0.32  1.031962         3  0.343987  0.281983  0.395581  cuda_initialize_variables(int, float*)
                     0.00  6.82e-03         5  1.36e-03  1.28e-03  1.60e-03  [CUDA memcpy HtoD]
                     0.00  2.34e-03         1  2.34e-03  2.34e-03  2.34e-03  [CUDA memset]
      API calls:    36.82  226.2220         5  45.24440  0.012630  226.1693  cudaMemcpyToSymbol
                    33.87  208.0699      2000  0.104034  0.028926  2.574745  cudaMemcpy
                    22.58  138.7118     14003  9.90e-03  9.02e-03  0.096694  cudaLaunchKernel
                     3.39  20.82777         7  2.975395  9.19e-03  20.39382  cudaMallocManaged
                     1.19  7.291156     28003  2.60e-04  2.12e-04  0.094737  cudaGetLastError
                     0.83  5.120865       384  0.013335  2.33e-04  0.537371  cuDeviceGetAttribute
                     0.67  4.130188         4  1.032547  1.027111  1.037275  cuDeviceTotalMem
                     0.20  1.219322         1  1.219322  1.219322  1.219322  cudaGetDeviceProperties
                     0.18  1.086318        10  0.108631  1.25e-03  0.352831  cudaFree
                     0.17  1.052837         1  1.052837  1.052837  1.052837  cudaMemset
                     0.07  0.421972         4  0.105493  0.102776  0.107498  cuDeviceGetName
                     0.02  0.107270         2  0.053635  0.010420  0.096850  cudaThreadSynchronize
                     0.00  0.024253         3  8.08e-03  4.66e-03  0.011437  cudaMemAdvise
                     0.00  0.013125         1  0.013125  0.013125  0.013125  cudaSetDevice
                     0.00  0.012638         4  3.16e-03  1.22e-03  7.72e-03  cuDeviceGetPCIBusId
                     0.00  3.21e-03         8  4.00e-04  3.09e-04  5.05e-04  cuDeviceGet
                     0.00  1.81e-03         1  1.81e-03  1.81e-03  1.81e-03  cudaGetDevice
                     0.00  1.44e-03         3  4.78e-04  4.01e-04  6.29e-04  cuDeviceGetCount

==77595== Unified Memory profiling result:
Device "Tesla V100-SXM2-16GB (0)"
   Count  Avg Size  Min Size  Max Size  Total Size  Total Time  Name
      28  164.57KB  64.000KB  768.00KB  4.500000MB    0.143424ms  Host To Device
      26         -         -         -           -    3.771648ms  Gpu page fault groups
      15  106.67KB  64.000KB  320.00KB  1.562500MB           -  Remote mapping from device
      18  273.78KB  64.000KB  960.00KB  4.812500MB           -  Remote mapping to device
Total CPU Page faults: 36
Total remote mappings from CPU: 18
Total remote mappings to CPU: 15
