==43020== NVPROF is profiling process 43020, command: ./cfd_0313 ../../../data/cfd/fvcorr.domn.097K
==43020== Profiling application: ./cfd_0313 ../../../data/cfd/fvcorr.domn.097K
==43020== Profiling result:
            Type  Time(%)      Time     Calls       Avg       Min       Max  Name
                        %        ms                  ms        ms        ms
 GPU activities:    74.38  173.2220      6000  0.028870  0.027040  1.138074  cuda_compute_flux(int, int*, float*, float*, float*)
                    18.09  42.12226      6000  7.02e-03  6.21e-03  8.42e-03  cuda_time_step(int, int, float*, float*, float*, float*)
                     4.00  9.324513      2000  4.66e-03  4.58e-03  0.015679  [CUDA memcpy DtoD]
                     3.08  7.163546      2000  3.58e-03  3.33e-03  0.195455  cuda_compute_step_factor(int, float*, float*, float*)
                     0.45  1.045851         3  0.348617  0.290015  0.416766  cuda_initialize_variables(int, float*)
                     0.00  6.78e-03         5  1.36e-03  1.28e-03  1.60e-03  [CUDA memcpy HtoD]
                     0.00  2.34e-03         1  2.34e-03  2.34e-03  2.34e-03  [CUDA memset]
      API calls:    41.81  224.2273         5  44.84546  0.012221  224.1756  cudaMemcpyToSymbol
                    25.76  138.1336     14003  9.86e-03  9.21e-03  0.096311  cudaLaunchKernel
                    24.73  132.6074      2000  0.066303  0.028827  2.271271  cudaMemcpy
                     3.86  20.68170         7  2.954528  9.39e-03  20.35438  cudaMallocManaged
                     1.35  7.243813     28003  2.58e-04  2.12e-04  0.096856  cudaGetLastError
                     0.96  5.148908       384  0.013408  2.35e-04  0.542531  cuDeviceGetAttribute
                     0.78  4.190742         4  1.047685  1.032035  1.091001  cuDeviceTotalMem
                     0.23  1.219637         1  1.219637  1.219637  1.219637  cudaGetDeviceProperties
                     0.23  1.210438         1  1.210438  1.210438  1.210438  cudaMemset
                     0.20  1.053583        10  0.105358  1.36e-03  0.268781  cudaFree
                     0.08  0.423428         4  0.105857  0.103139  0.107524  cuDeviceGetName
                     0.01  0.070304         2  0.035152  0.010242  0.060062  cudaThreadSynchronize
                     0.00  0.021947         3  7.32e-03  4.29e-03  0.010078  cudaMemAdvise
                     0.00  0.013491         4  3.37e-03  1.18e-03  8.85e-03  cuDeviceGetPCIBusId
                     0.00  0.010746         1  0.010746  0.010746  0.010746  cudaSetDevice
                     0.00  3.29e-03         8  4.11e-04  3.04e-04  5.66e-04  cuDeviceGet
                     0.00  1.60e-03         1  1.60e-03  1.60e-03  1.60e-03  cudaGetDevice
                     0.00  1.41e-03         3  4.69e-04  3.96e-04  5.98e-04  cuDeviceGetCount

==43020== Unified Memory profiling result:
Device "Tesla V100-SXM2-16GB (0)"
   Count  Avg Size  Min Size  Max Size  Total Size  Total Time  Name
      44  148.36KB  64.000KB  960.00KB  6.375000MB    0.238848ms  Host To Device
      21         -         -         -           -    3.412544ms  Gpu page fault groups
      48  102.67KB  64.000KB  256.00KB  4.812500MB           -  Remote mapping from device
Total CPU Page faults: 61
Total remote mappings to CPU: 48
