==32408== NVPROF is profiling process 32408, command: ./cfd_0130 ../../../data/cfd/missile.domn.0.2M
==32408== Profiling application: ./cfd_0130 ../../../data/cfd/missile.domn.0.2M
==32408== Profiling result:
            Type  Time(%)      Time     Calls       Avg       Min       Max  Name
                        %        ms                  ms        ms        ms
 GPU activities:    67.12  363.7600      6000  0.060626  0.053087  3.528747  cuda_compute_flux(int, int*, float*, float*, float*)
                    22.62  122.5961      6000  0.020432  0.019328  0.024608  cuda_time_step(int, int, float*, float*, float*, float*)
                     5.34  28.94855      2000  0.014474  0.013760  0.017088  [CUDA memcpy DtoD]
                     4.45  24.10453      2000  0.012052  0.010528  0.720668  cuda_compute_step_factor(int, float*, float*, float*)
                     0.47  2.534385         3  0.844795  0.722300  0.939482  cuda_initialize_variables(int, float*)
                     0.00  6.72e-03         5  1.34e-03  1.28e-03  1.60e-03  [CUDA memcpy HtoD]
                     0.00  1.86e-03         1  1.86e-03  1.86e-03  1.86e-03  [CUDA memset]
      API calls:    50.42  423.0875      2000  0.211543  0.051398  4.568139  cudaMemcpy
                    27.85  233.7154         5  46.74308  0.011935  233.6644  cudaMemcpyToSymbol
                    16.60  139.2677     14003  9.94e-03  9.22e-03  0.097776  cudaLaunchKernel
                     2.47  20.74478         7  2.963539  0.015843  20.35776  cudaMallocManaged
                     0.84  7.047080     28003  2.51e-04  2.10e-04  0.096549  cudaGetLastError
                     0.61  5.124994       384  0.013346  2.34e-04  0.536004  cuDeviceGetAttribute
                     0.50  4.167248         4  1.041812  1.032565  1.061502  cuDeviceTotalMem
                     0.33  2.797928         1  2.797928  2.797928  2.797928  cudaMemset
                     0.16  1.348841        10  0.134884  1.20e-03  0.370315  cudaFree
                     0.15  1.218315         1  1.218315  1.218315  1.218315  cudaGetDeviceProperties
                     0.05  0.422089         4  0.105522  0.102901  0.108061  cuDeviceGetName
                     0.02  0.204555         2  0.102277  0.010521  0.194034  cudaThreadSynchronize
                     0.00  0.017013         4  4.25e-03  1.21e-03  0.011932  cuDeviceGetPCIBusId
                     0.00  0.015535         2  7.77e-03  5.61e-03  9.92e-03  cudaMemAdvise
                     0.00  0.012037         1  0.012037  0.012037  0.012037  cudaSetDevice
                     0.00  3.14e-03         8  3.92e-04  3.01e-04  5.83e-04  cuDeviceGet
                     0.00  1.84e-03         1  1.84e-03  1.84e-03  1.84e-03  cudaGetDevice
                     0.00  1.36e-03         3  4.52e-04  3.73e-04  5.84e-04  cuDeviceGetCount

==32408== Unified Memory profiling result:
Device "Tesla V100-SXM2-16GB (0)"
   Count  Avg Size  Min Size  Max Size  Total Size  Total Time  Name
      77  201.97KB  64.000KB  768.00KB  15.18750MB    0.424160ms  Host To Device
      41         -         -         -           -    7.227008ms  Gpu page fault groups
      22  165.82KB  64.000KB  576.00KB  3.562500MB           -  Remote mapping from device
Total CPU Page faults: 100
Total remote mappings to CPU: 22
