==88873== NVPROF is profiling process 88873, command: ./cfd_1440 ../../../data/cfd/fvcorr.domn.097K
==88873== Profiling application: ./cfd_1440 ../../../data/cfd/fvcorr.domn.097K
==88873== Profiling result:
            Type  Time(%)      Time     Calls       Avg       Min       Max  Name
                        %        ms                  ms        ms        ms
 GPU activities:    77.17  248.4943      6000  0.041415  0.037856  2.095668  cuda_compute_flux(int, int*, float*, float*, float*)
                    12.86  41.41385      6000  6.90e-03  5.95e-03  8.83e-03  cuda_time_step(int, int, float*, float*, float*, float*)
                     6.76  21.75595      2000  0.010877  0.010655  0.316510  cuda_compute_step_factor(int, float*, float*, float*)
                     2.89  9.316759      2000  4.66e-03  4.35e-03  0.010880  [CUDA memcpy DtoD]
                     0.31  1.009755         3  0.336585  0.250110  0.411326  cuda_initialize_variables(int, float*)
                     0.00  6.82e-03         5  1.36e-03  1.28e-03  1.60e-03  [CUDA memcpy HtoD]
                     0.00  2.34e-03         1  2.34e-03  2.34e-03  2.34e-03  [CUDA memset]
      API calls:    37.32  230.7003         5  46.14007  0.012446  230.6493  cudaMemcpyToSymbol
                    33.25  205.5241      2000  0.102762  0.028971  2.465426  cudaMemcpy
                    22.74  140.5632     14003  0.010038  9.14e-03  0.094243  cudaLaunchKernel
                     3.35  20.73490         7  2.962129  9.71e-03  20.31628  cudaMallocManaged
                     1.13  6.958316     28003  2.48e-04  2.09e-04  0.080909  cudaGetLastError
                     0.88  5.410447       384  0.014089  2.36e-04  0.598033  cuDeviceGetAttribute
                     0.70  4.297510         4  1.074377  1.040278  1.164601  cuDeviceTotalMem
                     0.20  1.240275         1  1.240275  1.240275  1.240275  cudaGetDeviceProperties
                     0.17  1.041253        10  0.104125  1.28e-03  0.310534  cudaFree
                     0.17  1.039933         1  1.039933  1.039933  1.039933  cudaMemset
                     0.07  0.436107         4  0.109026  0.106738  0.112533  cuDeviceGetName
                     0.02  0.106403         2  0.053201  9.12e-03  0.097284  cudaThreadSynchronize
                     0.00  0.018445         2  9.22e-03  6.67e-03  0.011777  cudaMemAdvise
                     0.00  0.015990         4  4.00e-03  1.11e-03  0.011021  cuDeviceGetPCIBusId
                     0.00  0.012962         1  0.012962  0.012962  0.012962  cudaSetDevice
                     0.00  3.18e-03         8  3.98e-04  2.95e-04  5.30e-04  cuDeviceGet
                     0.00  1.52e-03         1  1.52e-03  1.52e-03  1.52e-03  cudaGetDevice
                     0.00  1.41e-03         3  4.69e-04  3.51e-04  6.44e-04  cuDeviceGetCount

==88873== Unified Memory profiling result:
Device "Tesla V100-SXM2-16GB (0)"
   Count  Avg Size  Min Size  Max Size  Total Size  Total Time  Name
      24  192.00KB  64.000KB  832.00KB  4.500000MB    0.131904ms  Host To Device
      26         -         -         -           -    3.624896ms  Gpu page fault groups
      12  160.00KB  64.000KB  320.00KB  1.875000MB           -  Remote mapping from device
Total CPU Page faults: 35
Total remote mappings to CPU: 12
