==44189== NVPROF is profiling process 44189, command: ./hotspot_010 1024 2 2 ../../../data/hotspot/temp_1024 ../../../data/hotspot/power_1024 output-adapt.out
==44189== Profiling application: ./hotspot_010 1024 2 2 ../../../data/hotspot/temp_1024 ../../../data/hotspot/power_1024 output-adapt.out
==44189== Profiling result:
            Type  Time(%)      Time     Calls       Avg       Min       Max  Name
                        %        ms                  ms        ms        ms
 GPU activities:   100.00  40.05928         1  40.05928  40.05928  40.05928  calculate_temp(int, float*, float*, float*, int, int, int, int, float, float, float, float, float, float)
      API calls:    98.10  245.1809         3  81.72697  0.025372  245.1292  cudaMallocManaged
                     0.90  2.253325         2  1.126662  1.117060  1.136265  cuDeviceTotalMem
                     0.48  1.207903         4  0.301975  2.51e-03  0.518090  cudaFree
                     0.39  0.984645       194  5.07e-03  1.09e-04  0.202049  cuDeviceGetAttribute
                     0.07  0.172980         2  0.086490  2.56e-03  0.170419  cudaMemAdvise
                     0.03  0.082690         2  0.041345  0.039103  0.043587  cuDeviceGetName
                     0.02  0.047324         1  0.047324  0.047324  0.047324  cudaLaunchKernel
                     0.00  6.04e-03         2  3.02e-03  1.54e-03  4.50e-03  cuDeviceGetPCIBusId
                     0.00  1.47e-03         4  3.68e-04  1.57e-04  6.17e-04  cuDeviceGet
                     0.00  1.28e-03         3  4.26e-04  2.07e-04  7.07e-04  cuDeviceGetCount
                     0.00  4.04e-04         2  2.02e-04  1.68e-04  2.36e-04  cuDeviceGetUuid

==44189== Unified Memory profiling result:
Device "Tesla V100-PCIE-32GB (0)"
   Count  Avg Size  Min Size  Max Size  Total Size  Total Time  Name
      58  141.24KB  4.0000KB  0.9922MB  8.000000MB    0.806144ms  Host To Device
      24  170.67KB  4.0000KB  0.9961MB  4.000000MB    0.351872ms  Device To Host
     311         -         -         -           -   39.804256ms  Gpu page fault groups
Total CPU Page faults: 36
