==33261== NVPROF is profiling process 33261, command: ./hotspot_132 512 2 2 ../../../data/hotspot/temp_512 ../../../data/hotspot/power_512 output-adapt.out
==33261== Profiling application: ./hotspot_132 512 2 2 ../../../data/hotspot/temp_512 ../../../data/hotspot/power_512 output-adapt.out
==33261== Profiling result:
            Type  Time(%)      Time     Calls       Avg       Min       Max  Name
                        %        ms                  ms        ms        ms
 GPU activities:   100.00  1.520244         1  1.520244  1.520244  1.520244  calculate_temp(int, float*, float*, float*, int, int, int, int, float, float, float, float, float, float)
      API calls:    98.36  245.4430         3  81.81434  0.012919  245.4044  cudaMallocManaged
                     0.94  2.350498         2  1.175249  1.135848  1.214650  cuDeviceTotalMem
                     0.42  1.045632       194  5.39e-03  1.10e-04  0.225465  cuDeviceGetAttribute
                     0.16  0.398251         4  0.099562  2.06e-03  0.235024  cudaFree
                     0.06  0.144675         3  0.048225  4.18e-03  0.132643  cudaMemAdvise
                     0.04  0.095929         2  0.047964  0.046746  0.049183  cuDeviceGetName
                     0.02  0.044077         1  0.044077  0.044077  0.044077  cudaLaunchKernel
                     0.00  7.96e-03         2  3.98e-03  2.24e-03  5.71e-03  cuDeviceGetPCIBusId
                     0.00  1.54e-03         4  3.84e-04  1.61e-04  7.57e-04  cuDeviceGet
                     0.00  1.53e-03         3  5.09e-04  2.02e-04  8.40e-04  cuDeviceGetCount
                     0.00  3.93e-04         2  1.96e-04  1.77e-04  2.16e-04  cuDeviceGetUuid

==33261== Unified Memory profiling result:
Device "Tesla V100-PCIE-32GB (0)"
   Count  Avg Size  Min Size  Max Size  Total Size  Total Time  Name
      20  51.199KB  4.0000KB  460.00KB  1.000000MB    0.118432ms  Host To Device
      10  102.40KB  4.0000KB  508.00KB  1.000000MB    0.087392ms  Device To Host
       7         -         -         -           -    1.327328ms  Gpu page fault groups
       6  341.33KB  64.000KB  1.0000MB  2.000000MB           -  Remote mapping from device
Total CPU Page faults: 11
Total remote mappings to CPU: 6
