==32391== NVPROF is profiling process 32391, command: ./hotspot_145 128 2 2 ../../../data/hotspot/temp_128 ../../../data/hotspot/power_128 output-adapt.out
==32391== Profiling application: ./hotspot_145 128 2 2 ../../../data/hotspot/temp_128 ../../../data/hotspot/power_128 output-adapt.out
==32391== Profiling result:
            Type  Time(%)      Time     Calls       Avg       Min       Max  Name
                        %        ms                  ms        ms        ms
 GPU activities:   100.00  0.695644         1  0.695644  0.695644  0.695644  calculate_temp(int, float*, float*, float*, int, int, int, int, float, float, float, float, float, float)
      API calls:    98.54  245.6514         3  81.88381  0.013161  245.6086  cudaMallocManaged
                     0.90  2.242876         2  1.121438  1.116513  1.126363  cuDeviceTotalMem
                     0.40  0.984813       194  5.08e-03  1.07e-04  0.209883  cuDeviceGetAttribute
                     0.09  0.223743         4  0.055935  2.81e-03  0.121148  cudaFree
                     0.03  0.082489         2  0.041244  0.039055  0.043434  cuDeviceGetName
                     0.02  0.052073         1  0.052073  0.052073  0.052073  cudaLaunchKernel
                     0.01  0.030884         3  0.010294  4.93e-03  0.018551  cudaMemAdvise
                     0.01  0.017000         2  8.50e-03  1.52e-03  0.015483  cuDeviceGetPCIBusId
                     0.00  1.41e-03         4  3.53e-04  1.57e-04  7.31e-04  cuDeviceGet
                     0.00  1.24e-03         3  4.14e-04  1.27e-04  7.20e-04  cuDeviceGetCount
                     0.00  4.12e-04         2  2.06e-04  1.88e-04  2.24e-04  cuDeviceGetUuid

==32391== Unified Memory profiling result:
Device "Tesla V100-PCIE-32GB (0)"
   Count  Avg Size  Min Size  Max Size  Total Size  Total Time  Name
       3  21.333KB  4.0000KB  44.000KB  64.00000KB    0.012448ms  Host To Device
       3         -         -         -           -    0.686688ms  Gpu page fault groups
       6  21.333KB  4.0000KB  64.000KB  128.0000KB           -  Remote mapping from device
Total CPU Page faults: 3
Total remote mappings to CPU: 6
