==39533== NVPROF is profiling process 39533, command: ./hotspot_020 256 2 2 ../../../data/hotspot/temp_256 ../../../data/hotspot/power_256 output-adapt.out
==39533== Profiling application: ./hotspot_020 256 2 2 ../../../data/hotspot/temp_256 ../../../data/hotspot/power_256 output-adapt.out
==39533== Profiling result:
            Type  Time(%)      Time     Calls       Avg       Min       Max  Name
                        %        ms                  ms        ms        ms
 GPU activities:   100.00  0.733403         1  0.733403  0.733403  0.733403  calculate_temp(int, float*, float*, float*, int, int, int, int, float, float, float, float, float, float)
      API calls:    98.46  241.9547         3  80.65157  0.013553  241.9115  cudaMallocManaged
                     0.91  2.245907         2  1.122953  1.101980  1.143927  cuDeviceTotalMem
                     0.43  1.067682       194  5.50e-03  1.10e-04  0.237978  cuDeviceGetAttribute
                     0.12  0.284024         4  0.071006  3.42e-03  0.152366  cudaFree
                     0.04  0.097452         2  0.048726  0.046479  0.050973  cuDeviceGetName
                     0.02  0.041850         1  0.041850  0.041850  0.041850  cudaLaunchKernel
                     0.01  0.025304         2  0.012652  7.18e-03  0.018122  cudaMemAdvise
                     0.00  7.04e-03         2  3.52e-03  2.36e-03  4.68e-03  cuDeviceGetPCIBusId
                     0.00  1.42e-03         3  4.73e-04  2.34e-04  7.92e-04  cuDeviceGetCount
                     0.00  1.33e-03         4  3.32e-04  1.71e-04  6.09e-04  cuDeviceGet
                     0.00  4.72e-04         2  2.36e-04  2.09e-04  2.63e-04  cuDeviceGetUuid

==39533== Unified Memory profiling result:
Device "Tesla V100-PCIE-32GB (0)"
   Count  Avg Size  Min Size  Max Size  Total Size  Total Time  Name
      34  15.059KB  4.0000KB  64.000KB  512.0000KB    0.101376ms  Host To Device
       6  42.666KB  4.0000KB  124.00KB  256.0000KB    0.024544ms  Device To Host
       4         -         -         -           -    0.720448ms  Gpu page fault groups
Total CPU Page faults: 7
