==44964== NVPROF is profiling process 44964, command: ./hotspot_041 1024 2 2 ../../../data/hotspot/temp_1024 ../../../data/hotspot/power_1024 output-adapt.out
==44964== Profiling application: ./hotspot_041 1024 2 2 ../../../data/hotspot/temp_1024 ../../../data/hotspot/power_1024 output-adapt.out
==44964== Profiling result:
            Type  Time(%)      Time     Calls       Avg       Min       Max  Name
                        %        ms                  ms        ms        ms
 GPU activities:   100.00  11.89933         1  11.89933  11.89933  11.89933  calculate_temp(int, float*, float*, float*, int, int, int, int, float, float, float, float, float, float)
      API calls:    97.99  244.8849         3  81.62831  0.025473  244.8314  cudaMallocManaged
                     0.91  2.279101         2  1.139550  1.126907  1.152194  cuDeviceTotalMem
                     0.50  1.257433         4  0.314358  2.24e-03  0.471604  cudaFree
                     0.46  1.150340       194  5.93e-03  1.09e-04  0.256606  cuDeviceGetAttribute
                     0.08  0.194171         3  0.064723  1.84e-03  0.168005  cudaMemAdvise
                     0.03  0.086004         2  0.043002  0.039996  0.046008  cuDeviceGetName
                     0.02  0.045517         1  0.045517  0.045517  0.045517  cudaLaunchKernel
                     0.00  7.13e-03         2  3.56e-03  2.08e-03  5.05e-03  cuDeviceGetPCIBusId
                     0.00  1.52e-03         4  3.80e-04  1.56e-04  7.92e-04  cuDeviceGet
                     0.00  1.20e-03         3  3.99e-04  1.32e-04  7.48e-04  cuDeviceGetCount
                     0.00  3.86e-04         2  1.93e-04  1.84e-04  2.02e-04  cuDeviceGetUuid

==44964== Unified Memory profiling result:
Device "Tesla V100-PCIE-32GB (0)"
   Count  Avg Size  Min Size  Max Size  Total Size  Total Time  Name
      34  120.47KB  4.0000KB  984.00KB  4.000000MB    0.422080ms  Host To Device
      66         -         -         -           -   12.549056ms  Gpu page fault groups
     156  52.513KB  4.0000KB  2.0000MB  8.000000MB           -  Remote mapping from device
Total CPU Page faults: 26
Total remote mappings to CPU: 156
