==24769== NVPROF is profiling process 24769, command: ./hotspot_125 8192 2 2 ../../../data/hotspot/temp_8192 ../../../data/hotspot/power_8192 output-adapt.out
==24769== Profiling application: ./hotspot_125 8192 2 2 ../../../data/hotspot/temp_8192 ../../../data/hotspot/power_8192 output-adapt.out
==24769== Profiling result:
            Type  Time(%)      Time     Calls       Avg       Min       Max  Name
                        %        ms                  ms        ms        ms
 GPU activities:   100.00  158.9766         1  158.9766  158.9766  158.9766  calculate_temp(int, float*, float*, float*, int, int, int, int, float, float, float, float, float, float)
      API calls:    79.80  245.7302         3  81.91008  0.034568  245.5041  cudaMallocManaged
                    16.66  51.28931         4  12.82233  2.23e-03  18.43842  cudaFree
                     2.08  6.402835         3  2.134278  3.34e-03  4.120401  cudaMemAdvise
                     0.73  2.259227         2  1.129613  1.118711  1.140516  cuDeviceTotalMem
                     0.66  2.040738       194  0.010519  1.08e-04  1.007767  cuDeviceGetAttribute
                     0.04  0.113219         1  0.113219  0.113219  0.113219  cudaLaunchKernel
                     0.03  0.085216         2  0.042608  0.039952  0.045264  cuDeviceGetName
                     0.00  7.34e-03         2  3.67e-03  2.26e-03  5.08e-03  cuDeviceGetPCIBusId
                     0.00  1.61e-03         4  4.02e-04  1.56e-04  7.62e-04  cuDeviceGet
                     0.00  1.40e-03         3  4.67e-04  1.93e-04  7.59e-04  cuDeviceGetCount
                     0.00  4.74e-04         2  2.37e-04  2.25e-04  2.49e-04  cuDeviceGetUuid

==24769== Unified Memory profiling result:
Device "Tesla V100-PCIE-32GB (0)"
   Count  Avg Size  Min Size  Max Size  Total Size  Total Time  Name
   10747  40.459KB  4.0000KB  988.00KB  424.6289MB   56.864096ms  Host To Device
    1534  170.85KB  4.0000KB  0.9961MB  255.9375MB   22.346496ms  Device To Host
     185         -         -         -           -   48.271040ms  Gpu page fault groups
Total CPU Page faults: 2304
