==36274== NVPROF is profiling process 36274, command: ./hotspot_141 4096 2 2 ../../../data/hotspot/temp_4096 ../../../data/hotspot/power_4096 output-adapt.out
==36274== Profiling application: ./hotspot_141 4096 2 2 ../../../data/hotspot/temp_4096 ../../../data/hotspot/power_4096 output-adapt.out
==36274== Profiling result:
            Type  Time(%)      Time     Calls       Avg       Min       Max  Name
                        %        ms                  ms        ms        ms
 GPU activities:   100.00  162.3835         1  162.3835  162.3835  162.3835  calculate_temp(int, float*, float*, float*, int, int, int, int, float, float, float, float, float, float)
      API calls:    91.49  244.8807         3  81.62690  0.032390  244.6282  cudaMallocManaged
                     5.95  15.92624         4  3.981560  2.26e-03  5.743142  cudaFree
                     1.26  3.362363         3  1.120787  2.69e-03  2.745691  cudaMemAdvise
                     0.83  2.233909         2  1.116954  1.107016  1.126893  cuDeviceTotalMem
                     0.38  1.006920       194  5.19e-03  1.10e-04  0.210761  cuDeviceGetAttribute
                     0.06  0.147469         1  0.147469  0.147469  0.147469  cudaLaunchKernel
                     0.03  0.088295         2  0.044147  0.039538  0.048757  cuDeviceGetName
                     0.00  6.34e-03         2  3.17e-03  1.52e-03  4.82e-03  cuDeviceGetPCIBusId
                     0.00  1.31e-03         4  3.28e-04  1.80e-04  4.92e-04  cuDeviceGet
                     0.00  1.26e-03         3  4.20e-04  1.39e-04  7.59e-04  cuDeviceGetCount
                     0.00  4.50e-04         2  2.25e-04  1.92e-04  2.58e-04  cuDeviceGetUuid

==36274== Unified Memory profiling result:
Device "Tesla V100-PCIE-32GB (0)"
   Count  Avg Size  Min Size  Max Size  Total Size  Total Time  Name
    1685  38.894KB  4.0000KB  0.9805MB  64.00000MB    8.748960ms  Host To Device
     842         -         -         -           -  150.929184ms  Gpu page fault groups
   10207  10.608KB  4.0000KB  2.0000MB  105.7500MB           -  Remote mapping from device
Total CPU Page faults: 416
Total remote mappings to CPU: 10207
