==42114== NVPROF is profiling process 42114, command: ./hotspot_031 512 2 2 ../../../data/hotspot/temp_512 ../../../data/hotspot/power_512 output-adapt.out
==42114== Profiling application: ./hotspot_031 512 2 2 ../../../data/hotspot/temp_512 ../../../data/hotspot/power_512 output-adapt.out
==42114== Profiling result:
            Type  Time(%)      Time     Calls       Avg       Min       Max  Name
                        %        ms                  ms        ms        ms
 GPU activities:   100.00  1.505109         1  1.505109  1.505109  1.505109  calculate_temp(int, float*, float*, float*, int, int, int, int, float, float, float, float, float, float)
      API calls:    98.40  241.0913         3  80.36378  0.023648  241.0380  cudaMallocManaged
                     0.90  2.201617         2  1.100808  1.097623  1.103994  cuDeviceTotalMem
                     0.41  1.003629       194  5.17e-03  1.10e-04  0.214089  cuDeviceGetAttribute
                     0.16  0.396023         4  0.099005  1.93e-03  0.235342  cudaFree
                     0.08  0.184929         3  0.061643  3.71e-03  0.133527  cudaMemAdvise
                     0.04  0.089252         2  0.044626  0.042492  0.046760  cuDeviceGetName
                     0.02  0.043742         1  0.043742  0.043742  0.043742  cudaLaunchKernel
                     0.00  7.01e-03         2  3.51e-03  2.25e-03  4.76e-03  cuDeviceGetPCIBusId
                     0.00  1.47e-03         4  3.67e-04  1.63e-04  6.45e-04  cuDeviceGet
                     0.00  1.38e-03         3  4.60e-04  1.33e-04  6.88e-04  cuDeviceGetCount
                     0.00  4.22e-04         2  2.11e-04  1.69e-04  2.53e-04  cuDeviceGetUuid

==42114== Unified Memory profiling result:
Device "Tesla V100-PCIE-32GB (0)"
   Count  Avg Size  Min Size  Max Size  Total Size  Total Time  Name
      22  46.545KB  4.0000KB  444.00KB  1.000000MB    0.123616ms  Host To Device
      10  102.40KB  4.0000KB  508.00KB  1.000000MB    0.087232ms  Device To Host
       8         -         -         -           -    1.353376ms  Gpu page fault groups
       6  341.33KB  64.000KB  1.0000MB  2.000000MB           -  Remote mapping from device
Total CPU Page faults: 11
Total remote mappings to CPU: 6
