==36189== NVPROF is profiling process 36189, command: ./hotspot_125 64 2 2 ../../../data/hotspot/temp_64 ../../../data/hotspot/power_64 output-adapt.out
==36189== Profiling application: ./hotspot_125 64 2 2 ../../../data/hotspot/temp_64 ../../../data/hotspot/power_64 output-adapt.out
==36189== Profiling result:
            Type  Time(%)      Time     Calls       Avg       Min       Max  Name
                        %        ms                  ms        ms        ms
 GPU activities:   100.00  0.428478         1  0.428478  0.428478  0.428478  calculate_temp(int, float*, float*, float*, int, int, int, int, float, float, float, float, float, float)
      API calls:    98.56  243.0360         3  81.01200  0.013739  242.9929  cudaMallocManaged
                     0.90  2.218381         2  1.109190  1.104129  1.114252  cuDeviceTotalMem
                     0.42  1.029458       194  5.31e-03  1.10e-04  0.216109  cuDeviceGetAttribute
                     0.06  0.141399         4  0.035349  1.10e-03  0.100403  cudaFree
                     0.04  0.091212         2  0.045606  0.043678  0.047534  cuDeviceGetName
                     0.02  0.042699         1  0.042699  0.042699  0.042699  cudaLaunchKernel
                     0.01  0.028284         3  9.43e-03  3.98e-03  0.017154  cudaMemAdvise
                     0.00  7.61e-03         2  3.80e-03  2.43e-03  5.17e-03  cuDeviceGetPCIBusId
                     0.00  1.54e-03         3  5.12e-04  2.25e-04  7.96e-04  cuDeviceGetCount
                     0.00  1.34e-03         4  3.33e-04  1.64e-04  6.24e-04  cuDeviceGet
                     0.00  4.45e-04         2  2.22e-04  1.71e-04  2.74e-04  cuDeviceGetUuid

==36189== Unified Memory profiling result:
Device "Tesla V100-PCIE-32GB (0)"
   Count  Avg Size  Min Size  Max Size  Total Size  Total Time  Name
       3  16.000KB  16.000KB  16.000KB  48.00000KB  8.8320e-03ms  Host To Device
       2  8.0000KB  4.0000KB  12.000KB  16.00000KB  2.9440e-03ms  Device To Host
       2         -         -         -           -    0.419520ms  Gpu page fault groups
Total CPU Page faults: 2
