==42082== NVPROF is profiling process 42082, command: ./hotspot_030 512 2 2 ../../../data/hotspot/temp_512 ../../../data/hotspot/power_512 output-adapt.out
==42082== Profiling application: ./hotspot_030 512 2 2 ../../../data/hotspot/temp_512 ../../../data/hotspot/power_512 output-adapt.out
==42082== Profiling result:
            Type  Time(%)      Time     Calls       Avg       Min       Max  Name
                        %        ms                  ms        ms        ms
 GPU activities:   100.00  1.581044         1  1.581044  1.581044  1.581044  calculate_temp(int, float*, float*, float*, int, int, int, int, float, float, float, float, float, float)
      API calls:    98.35  241.1954         3  80.39846  0.012417  241.1583  cudaMallocManaged
                     0.96  2.353234         2  1.176617  1.107300  1.245934  cuDeviceTotalMem
                     0.41  1.014298       194  5.23e-03  1.10e-04  0.230379  cuDeviceGetAttribute
                     0.16  0.396639         4  0.099159  1.86e-03  0.230163  cudaFree
                     0.06  0.145315         2  0.072657  4.00e-03  0.141312  cudaMemAdvise
                     0.04  0.091651         2  0.045825  0.039358  0.052293  cuDeviceGetName
                     0.02  0.043679         1  0.043679  0.043679  0.043679  cudaLaunchKernel
                     0.00  6.65e-03         2  3.32e-03  1.70e-03  4.94e-03  cuDeviceGetPCIBusId
                     0.00  2.50e-03         3  8.34e-04  3.25e-04  1.84e-03  cuDeviceGetCount
                     0.00  1.57e-03         4  3.93e-04  1.56e-04  8.55e-04  cuDeviceGet
                     0.00  4.15e-04         2  2.07e-04  1.90e-04  2.25e-04  cuDeviceGetUuid

==42082== Unified Memory profiling result:
Device "Tesla V100-PCIE-32GB (0)"
   Count  Avg Size  Min Size  Max Size  Total Size  Total Time  Name
      16  64.000KB  4.0000KB  448.00KB  1.000000MB    0.119008ms  Host To Device
      10  102.40KB  4.0000KB  508.00KB  1.000000MB    0.087200ms  Device To Host
       7         -         -         -           -    1.441152ms  Gpu page fault groups
       6  341.33KB  64.000KB  1.0000MB  2.000000MB           -  Remote mapping from device
Total CPU Page faults: 11
Total remote mappings to CPU: 6
