==40890== NVPROF is profiling process 40890, command: ./hotspot_140 8192 2 2 ../../../data/hotspot/temp_8192 ../../../data/hotspot/power_8192 output-adapt.out
==40890== Profiling application: ./hotspot_140 8192 2 2 ../../../data/hotspot/temp_8192 ../../../data/hotspot/power_8192 output-adapt.out
==40890== Profiling result:
            Type  Time(%)      Time     Calls       Avg       Min       Max  Name
                        %        ms                  ms        ms        ms
 GPU activities:   100.00  609.3790         1  609.3790  609.3790  609.3790  calculate_temp(int, float*, float*, float*, int, int, int, int, float, float, float, float, float, float)
      API calls:    79.04  244.9959         3  81.66531  0.037001  244.7766  cudaMallocManaged
                    19.10  59.20834         4  14.80209  4.28e-03  23.97563  cudaFree
                     0.75  2.314277         2  1.157138  1.137660  1.176617  cuDeviceTotalMem
                     0.67  2.091643         2  1.045821  3.05e-03  2.088590  cudaMemAdvise
                     0.36  1.122927       194  5.79e-03  1.07e-04  0.253958  cuDeviceGetAttribute
                     0.04  0.111850         1  0.111850  0.111850  0.111850  cudaLaunchKernel
                     0.03  0.090455         2  0.045227  0.044752  0.045703  cuDeviceGetName
                     0.00  7.29e-03         2  3.65e-03  2.20e-03  5.09e-03  cuDeviceGetPCIBusId
                     0.00  1.35e-03         4  3.36e-04  1.43e-04  6.71e-04  cuDeviceGet
                     0.00  1.27e-03         3  4.22e-04  1.25e-04  7.17e-04  cuDeviceGetCount
                     0.00  4.27e-04         2  2.13e-04  1.64e-04  2.63e-04  cuDeviceGetUuid

==40890== Unified Memory profiling result:
Device "Tesla V100-PCIE-32GB (0)"
   Count  Avg Size  Min Size  Max Size  Total Size  Total Time  Name
    4996  43.728KB  4.0000KB  988.00KB  213.3438MB   27.655808ms  Host To Device
    3973         -         -         -           -  621.805664ms  Gpu page fault groups
   44314  10.648KB  4.0000KB  2.0000MB  460.8203MB           -  Remote mapping from device
Total CPU Page faults: 1664
Total remote mappings to CPU: 44314
