==39914== NVPROF is profiling process 39914, command: ./hotspot_040 256 2 2 ../../../data/hotspot/temp_256 ../../../data/hotspot/power_256 output-adapt.out
==39914== Profiling application: ./hotspot_040 256 2 2 ../../../data/hotspot/temp_256 ../../../data/hotspot/power_256 output-adapt.out
==39914== Profiling result:
            Type  Time(%)      Time     Calls       Avg       Min       Max  Name
                        %        ms                  ms        ms        ms
 GPU activities:   100.00  1.189817         1  1.189817  1.189817  1.189817  calculate_temp(int, float*, float*, float*, int, int, int, int, float, float, float, float, float, float)
      API calls:    98.44  242.2580         3  80.75268  0.014012  242.2135  cudaMallocManaged
                     0.99  2.440469         2  1.220234  1.124839  1.315630  cuDeviceTotalMem
                     0.40  0.977786       194  5.04e-03  1.07e-04  0.204484  cuDeviceGetAttribute
                     0.10  0.245821         4  0.061455  2.66e-03  0.151075  cudaFree
                     0.04  0.094801         2  0.047400  0.039923  0.054878  cuDeviceGetName
                     0.02  0.041988         1  0.041988  0.041988  0.041988  cudaLaunchKernel
                     0.01  0.025070         2  0.012535  7.21e-03  0.017857  cudaMemAdvise
                     0.00  7.08e-03         2  3.54e-03  1.95e-03  5.13e-03  cuDeviceGetPCIBusId
                     0.00  1.55e-03         3  5.17e-04  2.22e-04  7.60e-04  cuDeviceGetCount
                     0.00  1.42e-03         4  3.55e-04  1.65e-04  5.53e-04  cuDeviceGet
                     0.00  4.09e-04         2  2.04e-04  1.68e-04  2.41e-04  cuDeviceGetUuid

==39914== Unified Memory profiling result:
Device "Tesla V100-PCIE-32GB (0)"
   Count  Avg Size  Min Size  Max Size  Total Size  Total Time  Name
      15  17.066KB  4.0000KB  48.000KB  256.0000KB    0.047872ms  Host To Device
       7         -         -         -           -    1.203424ms  Gpu page fault groups
      22  23.273KB  4.0000KB  256.00KB  512.0000KB           -  Remote mapping from device
Total CPU Page faults: 5
Total remote mappings to CPU: 22
