==56380== NVPROF is profiling process 56380, command: ./hotspot_045 4096 2 2 ../../../data/hotspot/temp_4096 ../../../data/hotspot/power_4096 output-adapt.out
==56380== Profiling application: ./hotspot_045 4096 2 2 ../../../data/hotspot/temp_4096 ../../../data/hotspot/power_4096 output-adapt.out
==56380== Profiling result:
            Type  Time(%)      Time     Calls       Avg       Min       Max  Name
                        %        ms                  ms        ms        ms
 GPU activities:   100.00  164.6731         1  164.6731  164.6731  164.6731  calculate_temp(int, float*, float*, float*, int, int, int, int, float, float, float, float, float, float)
      API calls:    92.17  239.4335         3  79.81118  0.041147  239.1620  cudaMallocManaged
                     5.82  15.12611         4  3.781526  2.29e-03  5.768143  cudaFree
                     0.87  2.262638         2  1.131319  1.102998  1.159640  cuDeviceTotalMem
                     0.62  1.618618         3  0.539539  2.78e-03  1.029538  cudaMemAdvise
                     0.42  1.097678       194  5.66e-03  1.09e-04  0.253438  cuDeviceGetAttribute
                     0.06  0.143504         1  0.143504  0.143504  0.143504  cudaLaunchKernel
                     0.03  0.083196         2  0.041598  0.039160  0.044036  cuDeviceGetName
                     0.00  6.17e-03         2  3.09e-03  1.51e-03  4.66e-03  cuDeviceGetPCIBusId
                     0.00  1.64e-03         4  4.08e-04  1.52e-04  7.90e-04  cuDeviceGet
                     0.00  1.23e-03         3  4.09e-04  1.22e-04  7.44e-04  cuDeviceGetCount
                     0.00  4.14e-04         2  2.07e-04  1.70e-04  2.44e-04  cuDeviceGetUuid

==56380== Unified Memory profiling result:
Device "Tesla V100-PCIE-32GB (0)"
   Count  Avg Size  Min Size  Max Size  Total Size  Total Time  Name
    1688  38.824KB  4.0000KB  0.9805MB  64.00000MB    8.745056ms  Host To Device
     971         -         -         -           -  179.549984ms  Gpu page fault groups
   11586  10.760KB  4.0000KB  2.0000MB  121.7500MB           -  Remote mapping from device
Total CPU Page faults: 416
Total remote mappings to CPU: 11586
