==35099== NVPROF is profiling process 35099, command: ./hotspot_031 64 2 2 ../../../data/hotspot/temp_64 ../../../data/hotspot/power_64 output-adapt.out
==35099== Profiling application: ./hotspot_031 64 2 2 ../../../data/hotspot/temp_64 ../../../data/hotspot/power_64 output-adapt.out
==35099== Profiling result:
            Type  Time(%)      Time     Calls       Avg       Min       Max  Name
                        %        ms                  ms        ms        ms
 GPU activities:   100.00  0.349343         1  0.349343  0.349343  0.349343  calculate_temp(int, float*, float*, float*, int, int, int, int, float, float, float, float, float, float)
      API calls:    98.45  241.5233         3  80.50777  0.012811  241.4939  cudaMallocManaged
                     0.94  2.308623         2  1.154311  1.106673  1.201950  cuDeviceTotalMem
                     0.41  0.994909       194  5.13e-03  1.10e-04  0.216886  cuDeviceGetAttribute
                     0.10  0.248689         4  0.062172  3.00e-03  0.150085  cudaFree
                     0.04  0.093574         3  0.031191  9.43e-03  0.051047  cudaMemAdvise
                     0.04  0.091390         2  0.045695  0.039318  0.052072  cuDeviceGetName
                     0.02  0.048564         1  0.048564  0.048564  0.048564  cudaLaunchKernel
                     0.00  6.66e-03         2  3.33e-03  1.56e-03  5.11e-03  cuDeviceGetPCIBusId
                     0.00  1.60e-03         3  5.34e-04  1.29e-04  8.39e-04  cuDeviceGetCount
                     0.00  1.47e-03         4  3.68e-04  1.47e-04  8.48e-04  cuDeviceGet
                     0.00  4.12e-04         2  2.06e-04  1.66e-04  2.46e-04  cuDeviceGetUuid

==35099== Unified Memory profiling result:
Device "Tesla V100-PCIE-32GB (0)"
   Count  Avg Size  Min Size  Max Size  Total Size  Total Time  Name
       1  16.000KB  16.000KB  16.000KB  16.00000KB  2.9440e-03ms  Host To Device
       1         -         -         -           -    0.334816ms  Gpu page fault groups
       2  16.000KB  16.000KB  16.000KB  32.00000KB           -  Remote mapping from device
Total CPU Page faults: 1
Total remote mappings to CPU: 2
