==93207== NVPROF is profiling process 93207, command: ./lassen-executable/hotspot_04 2048 2 2 ../../data/hotspot/temp_2048 ../../data/hotspot/power_2048 output-adapt.out
==93207== Profiling application: ./lassen-executable/hotspot_04 2048 2 2 ../../data/hotspot/temp_2048 ../../data/hotspot/power_2048 output-adapt.out
==93207== Profiling result:
            Type  Time(%)      Time     Calls       Avg       Min       Max  Name
                        %        ms                  ms        ms        ms
 GPU activities:    46.12  1.996692         1  1.996692  1.996692  1.996692  [CUDA memcpy DtoH]
                    31.99  1.384920         1  1.384920  1.384920  1.384920  [CUDA memcpy HtoD]
                    21.88  0.947354         1  0.947354  0.947354  0.947354  calculate_temp(int, float*, float*, float*, int, int, int, int, float, float, float, float, float, float)
      API calls:    93.22  271.2489         1  271.2489  271.2489  271.2489  cudaMallocManaged
                     1.95  5.663678       388  0.014597  2.68e-04  0.587927  cuDeviceGetAttribute
                     1.68  4.899722         2  2.449861  1.674139  3.225583  cudaMemcpy
                     1.59  4.625704         4  1.156426  1.146691  1.172555  cuDeviceTotalMem
                     0.70  2.038565         3  0.679521  0.442789  1.021137  cudaFree
                     0.54  1.575941         2  0.787970  0.634184  0.941757  cudaMalloc
                     0.16  0.467904         4  0.116976  0.113677  0.119716  cuDeviceGetName
                     0.10  0.295435         1  0.295435  0.295435  0.295435  cudaMemAdvise
                     0.05  0.150714         1  0.150714  0.150714  0.150714  cudaLaunchKernel
                     0.01  0.018813         4  4.70e-03  1.44e-03  0.010363  cuDeviceGetPCIBusId
                     0.00  3.50e-03         8  4.37e-04  3.53e-04  5.90e-04  cuDeviceGet
                     0.00  1.78e-03         3  5.92e-04  4.59e-04  7.95e-04  cuDeviceGetCount
                     0.00  1.59e-03         4  3.98e-04  3.75e-04  4.35e-04  cuDeviceGetUuid

==93207== Unified Memory profiling result:
Device "Tesla V100-SXM2-16GB (0)"
   Count  Avg Size  Min Size  Max Size  Total Size  Total Time  Name
      82  199.81KB  64.000KB  960.00KB  16.00000MB    0.561920ms  Host To Device
       8  2.0000MB  2.0000MB  2.0000MB  16.00000MB           -  Remote mapping from device
Total CPU Page faults: 48
Total remote mappings to CPU: 8
