==87287== NVPROF is profiling process 87287, command: ./lassen-executable/hotspot_30 128 2 2 ../../data/hotspot/temp_128 ../../data/hotspot/power_128 output-adapt.out
==87287== Profiling application: ./lassen-executable/hotspot_30 128 2 2 ../../data/hotspot/temp_128 ../../data/hotspot/power_128 output-adapt.out
==87287== Profiling result:
            Type  Time(%)      Time     Calls       Avg       Min       Max  Name
                        %        ms                  ms        ms        ms
 GPU activities:    96.89  0.272959         1  0.272959  0.272959  0.272959  calculate_temp(int, float*, float*, float*, int, int, int, int, float, float, float, float, float, float)
                     3.11  8.77e-03         1  8.77e-03  8.77e-03  8.77e-03  [CUDA memcpy HtoD]
      API calls:    95.47  271.0048         2  135.5024  0.015757  270.9890  cudaMallocManaged
                     2.10  5.954297       388  0.015346  2.95e-04  0.615937  cuDeviceGetAttribute
                     1.77  5.034472         4  1.258618  1.247900  1.282299  cuDeviceTotalMem
                     0.21  0.596049         4  0.149012  2.10e-03  0.380156  cudaFree
                     0.19  0.526983         1  0.526983  0.526983  0.526983  cudaMalloc
                     0.17  0.493185         4  0.123296  0.120695  0.124888  cuDeviceGetName
                     0.04  0.106082         1  0.106082  0.106082  0.106082  cudaLaunchKernel
                     0.03  0.071226         1  0.071226  0.071226  0.071226  cudaMemcpy
                     0.02  0.061316         2  0.030658  0.014300  0.047016  cudaMemAdvise
                     0.00  0.013922         4  3.48e-03  1.72e-03  7.67e-03  cuDeviceGetPCIBusId
                     0.00  5.21e-03         8  6.50e-04  3.85e-04  1.76e-03  cuDeviceGet
                     0.00  1.99e-03         3  6.64e-04  5.49e-04  8.29e-04  cuDeviceGetCount
                     0.00  1.73e-03         4  4.33e-04  3.89e-04  4.57e-04  cuDeviceGetUuid

==87287== Unified Memory profiling result:
Device "Tesla V100-SXM2-16GB (0)"
   Count  Avg Size  Min Size  Max Size  Total Size  Total Time  Name
       1         -         -         -           -    0.257568ms  Gpu page fault groups
       1  64.000KB  64.000KB  64.000KB  64.00000KB           -  Remote mapping to device
Total CPU Page faults: 2
Total remote mappings from CPU: 1
