==86989== NVPROF is profiling process 86989, command: ./lassen-executable/hotspot_13 128 2 2 ../../data/hotspot/temp_128 ../../data/hotspot/power_128 output-adapt.out
==86989== Profiling application: ./lassen-executable/hotspot_13 128 2 2 ../../data/hotspot/temp_128 ../../data/hotspot/power_128 output-adapt.out
==86989== Profiling result:
            Type  Time(%)      Time     Calls       Avg       Min       Max  Name
                        %        ms                  ms        ms        ms
 GPU activities:   100.00  0.291646         1  0.291646  0.291646  0.291646  calculate_temp(int, float*, float*, float*, int, int, int, int, float, float, float, float, float, float)
      API calls:    95.96  271.4819         3  90.49398  0.013432  271.4530  cudaMallocManaged
                     2.03  5.745244       388  0.014807  2.73e-04  0.620026  cuDeviceGetAttribute
                     1.68  4.760586         4  1.190146  1.175642  1.199580  cuDeviceTotalMem
                     0.17  0.476717         4  0.119179  0.117025  0.121609  cuDeviceGetName
                     0.10  0.271995         4  0.067998  1.92e-03  0.177909  cudaFree
                     0.04  0.108546         1  0.108546  0.108546  0.108546  cudaLaunchKernel
                     0.02  0.053617         1  0.053617  0.053617  0.053617  cudaMemAdvise
                     0.00  0.014138         4  3.53e-03  1.57e-03  6.78e-03  cuDeviceGetPCIBusId
                     0.00  3.98e-03         8  4.98e-04  3.59e-04  6.64e-04  cuDeviceGet
                     0.00  1.82e-03         3  6.06e-04  4.14e-04  8.08e-04  cuDeviceGetCount
                     0.00  1.55e-03         4  3.88e-04  3.48e-04  4.20e-04  cuDeviceGetUuid

==86989== Unified Memory profiling result:
Device "Tesla V100-SXM2-16GB (0)"
   Count  Avg Size  Min Size  Max Size  Total Size  Total Time  Name
       1  64.000KB  64.000KB  64.000KB  64.00000KB  3.0720e-03ms  Device To Host
       1         -         -         -           -    0.268576ms  Gpu page fault groups
Total CPU Page faults: 3
