==92543== NVPROF is profiling process 92543, command: ./lassen-executable/hotspot_60 1024 2 2 ../../data/hotspot/temp_1024 ../../data/hotspot/power_1024 output-adapt.out
==92543== Profiling application: ./lassen-executable/hotspot_60 1024 2 2 ../../data/hotspot/temp_1024 ../../data/hotspot/power_1024 output-adapt.out
==92543== Profiling result:
            Type  Time(%)      Time     Calls       Avg       Min       Max  Name
                        %        ms                  ms        ms        ms
 GPU activities:    91.22  3.487724         1  3.487724  3.487724  3.487724  calculate_temp(int, float*, float*, float*, int, int, int, int, float, float, float, float, float, float)
                     8.78  0.335646         1  0.335646  0.335646  0.335646  [CUDA memcpy HtoD]
      API calls:    95.06  271.4342         2  135.7171  0.181204  271.2530  cudaMallocManaged
                     2.10  5.988979       388  0.015435  2.98e-04  0.650821  cuDeviceGetAttribute
                     1.76  5.026748         4  1.256687  1.248863  1.272528  cuDeviceTotalMem
                     0.41  1.160747         4  0.290186  3.38e-03  0.635397  cudaFree
                     0.22  0.628653         1  0.628653  0.628653  0.628653  cudaMemcpy
                     0.22  0.617942         1  0.617942  0.617942  0.617942  cudaMalloc
                     0.17  0.493094         4  0.123273  0.120657  0.124443  cuDeviceGetName
                     0.05  0.128558         1  0.128558  0.128558  0.128558  cudaLaunchKernel
                     0.01  0.037835         2  0.018917  3.68e-03  0.034156  cudaMemAdvise
                     0.01  0.015144         4  3.79e-03  1.75e-03  7.96e-03  cuDeviceGetPCIBusId
                     0.00  5.13e-03         8  6.40e-04  3.95e-04  1.53e-03  cuDeviceGet
                     0.00  1.95e-03         3  6.49e-04  5.37e-04  8.58e-04  cuDeviceGetCount
                     0.00  1.74e-03         4  4.35e-04  3.85e-04  4.61e-04  cuDeviceGetUuid

==92543== Unified Memory profiling result:
Device "Tesla V100-SXM2-16GB (0)"
   Count  Avg Size  Min Size  Max Size  Total Size  Total Time  Name
      18  227.56KB  64.000KB  960.00KB  4.000000MB    0.112256ms  Host To Device
      18         -         -         -           -    3.420512ms  Gpu page fault groups
      20  409.60KB  64.000KB  1.0000MB  8.000000MB           -  Remote mapping to device
Total CPU Page faults: 12
Total remote mappings from CPU: 20
