==99281== NVPROF is profiling process 99281, command: ./lassen-executable/hotspot_10 4096 2 2 ../../data/hotspot/temp_4096 ../../data/hotspot/power_4096 output-adapt.out
==99281== Profiling application: ./lassen-executable/hotspot_10 4096 2 2 ../../data/hotspot/temp_4096 ../../data/hotspot/power_4096 output-adapt.out
==99281== Profiling result:
            Type  Time(%)      Time     Calls       Avg       Min       Max  Name
                        %        ms                  ms        ms        ms
 GPU activities:    87.81  39.54751         1  39.54751  39.54751  39.54751  calculate_temp(int, float*, float*, float*, int, int, int, int, float, float, float, float, float, float)
                    12.19  5.491456         1  5.491456  5.491456  5.491456  [CUDA memcpy HtoD]
      API calls:    91.93  271.3744         2  135.6872  0.205758  271.1687  cudaMallocManaged
                     1.96  5.795797         1  5.795797  5.795797  5.795797  cudaMemcpy
                     1.92  5.661580       388  0.014591  2.73e-04  0.586467  cuDeviceGetAttribute
                     1.78  5.255540         4  1.313885  5.46e-03  2.217603  cudaFree
                     1.57  4.627382         4  1.156845  1.148402  1.175754  cuDeviceTotalMem
                     0.62  1.828917         1  1.828917  1.828917  1.828917  cudaMalloc
                     0.16  0.467986         4  0.116996  0.113467  0.120195  cuDeviceGetName
                     0.05  0.149979         1  0.149979  0.149979  0.149979  cudaLaunchKernel
                     0.00  0.012919         4  3.23e-03  1.42e-03  6.47e-03  cuDeviceGetPCIBusId
                     0.00  3.78e-03         8  4.72e-04  3.48e-04  6.53e-04  cuDeviceGet
                     0.00  1.70e-03         3  5.66e-04  4.61e-04  7.42e-04  cuDeviceGetCount
                     0.00  1.60e-03         4  4.01e-04  3.89e-04  4.08e-04  cuDeviceGetUuid

==99281== Unified Memory profiling result:
Device "Tesla V100-SXM2-16GB (0)"
   Count  Avg Size  Min Size  Max Size  Total Size  Total Time  Name
     253  259.04KB  64.000KB  960.00KB  64.00000MB    1.669504ms  Host To Device
     320  204.80KB  64.000KB  960.00KB  64.00000MB    1.789440ms  Device To Host
     241         -         -         -           -   38.584096ms  Gpu page fault groups
Total CPU Page faults: 384
