==88465== NVPROF is profiling process 88465, command: ./lassen-executable/hotspot_26 256 2 2 ../../data/hotspot/temp_256 ../../data/hotspot/power_256 output-adapt.out
==88465== Profiling application: ./lassen-executable/hotspot_26 256 2 2 ../../data/hotspot/temp_256 ../../data/hotspot/power_256 output-adapt.out
==88465== Profiling result:
            Type  Time(%)      Time     Calls       Avg       Min       Max  Name
                        %        ms                  ms        ms        ms
 GPU activities:   100.00  1.530554         1  1.530554  1.530554  1.530554  calculate_temp(int, float*, float*, float*, int, int, int, int, float, float, float, float, float, float)
      API calls:    95.83  271.1024         3  90.36747  0.010617  271.0719  cudaMallocManaged
                     2.07  5.863138       388  0.015111  2.65e-04  0.644420  cuDeviceGetAttribute
                     1.70  4.821988         4  1.205497  1.150732  1.225496  cuDeviceTotalMem
                     0.17  0.481049         4  0.120262  0.116054  0.123857  cuDeviceGetName
                     0.14  0.383664         4  0.095916  1.81e-03  0.254989  cudaFree
                     0.04  0.121869         1  0.121869  0.121869  0.121869  cudaLaunchKernel
                     0.04  0.101901         3  0.033967  0.010488  0.077093  cudaMemAdvise
                     0.01  0.014626         4  3.66e-03  1.19e-03  9.70e-03  cuDeviceGetPCIBusId
                     0.00  3.99e-03         8  4.98e-04  3.49e-04  7.48e-04  cuDeviceGet
                     0.00  1.74e-03         3  5.78e-04  4.69e-04  7.52e-04  cuDeviceGetCount
                     0.00  1.68e-03         4  4.19e-04  3.81e-04  4.53e-04  cuDeviceGetUuid

==88465== Unified Memory profiling result:
Device "Tesla V100-SXM2-16GB (0)"
   Count  Avg Size  Min Size  Max Size  Total Size  Total Time  Name
       2  64.000KB  64.000KB  64.000KB  128.0000KB  7.9680e-03ms  Host To Device
       4  64.000KB  64.000KB  64.000KB  256.0000KB    0.012288ms  Device To Host
      14         -         -         -           -    1.472512ms  Gpu page fault groups
       1  64.000KB  64.000KB  64.000KB  64.00000KB           -  Remote mapping to device
Total CPU Page faults: 7
Total remote mappings from CPU: 1
