==104993== NVPROF is profiling process 104993, command: ./lassen-executable/hotspot_32 4096 2 2 ../../data/hotspot/temp_4096 ../../data/hotspot/power_4096 output-adapt.out
==104993== Profiling application: ./lassen-executable/hotspot_32 4096 2 2 ../../data/hotspot/temp_4096 ../../data/hotspot/power_4096 output-adapt.out
==104993== Profiling result:
            Type  Time(%)      Time     Calls       Avg       Min       Max  Name
                        %        ms                  ms        ms        ms
 GPU activities:   100.00  37.58401         1  37.58401  37.58401  37.58401  calculate_temp(int, float*, float*, float*, int, int, int, int, float, float, float, float, float, float)
      API calls:    92.89  271.3441         3  90.44803  0.032766  271.0950  cudaMallocManaged
                     2.10  6.141709       388  0.015829  3.01e-04  0.773605  cuDeviceGetAttribute
                     1.98  5.789543         4  1.447385  5.09e-03  2.578192  cudaFree
                     1.72  5.028172         4  1.257043  1.243924  1.276112  cuDeviceTotalMem
                     1.05  3.068855         3  1.022951  4.47e-03  2.914290  cudaMemAdvise
                     0.17  0.492873         4  0.123218  0.120160  0.124650  cuDeviceGetName
                     0.08  0.220593         1  0.220593  0.220593  0.220593  cudaLaunchKernel
                     0.01  0.016737         4  4.18e-03  1.60e-03  0.010253  cuDeviceGetPCIBusId
                     0.00  5.35e-03         8  6.68e-04  3.77e-04  1.54e-03  cuDeviceGet
                     0.00  2.90e-03         3  9.67e-04  5.16e-04  1.58e-03  cuDeviceGetCount
                     0.00  1.74e-03         4  4.34e-04  3.93e-04  4.77e-04  cuDeviceGetUuid

==104993== Unified Memory profiling result:
Device "Tesla V100-SXM2-16GB (0)"
   Count  Avg Size  Min Size  Max Size  Total Size  Total Time  Name
     502  261.10KB  64.000KB  960.00KB  128.0000MB    3.386688ms  Host To Device
     175         -         -         -           -   36.769568ms  Gpu page fault groups
      32  2.0000MB  2.0000MB  2.0000MB  64.00000MB           -  Remote mapping to device
Total CPU Page faults: 416
Total remote mappings from CPU: 32
