==86901== NVPROF is profiling process 86901, command: ./lassen-executable/hotspot_10 128 2 2 ../../data/hotspot/temp_128 ../../data/hotspot/power_128 output-adapt.out
==86901== Profiling application: ./lassen-executable/hotspot_10 128 2 2 ../../data/hotspot/temp_128 ../../data/hotspot/power_128 output-adapt.out
==86901== Profiling result:
            Type  Time(%)      Time     Calls       Avg       Min       Max  Name
                        %        ms                  ms        ms        ms
 GPU activities:    97.89  0.407647         1  0.407647  0.407647  0.407647  calculate_temp(int, float*, float*, float*, int, int, int, int, float, float, float, float, float, float)
                     2.11  8.80e-03         1  8.80e-03  8.80e-03  8.80e-03  [CUDA memcpy HtoD]
      API calls:    95.64  270.1434         2  135.0717  0.017231  270.1262  cudaMallocManaged
                     2.03  5.744105       388  0.014804  2.77e-04  0.596963  cuDeviceGetAttribute
                     1.69  4.763631         4  1.190907  1.184428  1.205318  cuDeviceTotalMem
                     0.20  0.566602         4  0.141650  1.85e-03  0.381408  cudaFree
                     0.20  0.556537         1  0.556537  0.556537  0.556537  cudaMalloc
                     0.17  0.477712         4  0.119428  0.115824  0.122273  cuDeviceGetName
                     0.04  0.110569         1  0.110569  0.110569  0.110569  cudaLaunchKernel
                     0.03  0.071500         1  0.071500  0.071500  0.071500  cudaMemcpy
                     0.01  0.015249         4  3.81e-03  1.69e-03  8.21e-03  cuDeviceGetPCIBusId
                     0.00  3.85e-03         8  4.81e-04  3.68e-04  7.73e-04  cuDeviceGet
                     0.00  1.84e-03         3  6.13e-04  5.17e-04  7.77e-04  cuDeviceGetCount
                     0.00  1.60e-03         4  4.01e-04  3.71e-04  4.26e-04  cuDeviceGetUuid

==86901== Unified Memory profiling result:
Device "Tesla V100-SXM2-16GB (0)"
   Count  Avg Size  Min Size  Max Size  Total Size  Total Time  Name
       1  64.000KB  64.000KB  64.000KB  64.00000KB  5.9840e-03ms  Host To Device
       1  64.000KB  64.000KB  64.000KB  64.00000KB  3.1040e-03ms  Device To Host
       2         -         -         -           -    0.395968ms  Gpu page fault groups
Total CPU Page faults: 2
