==95015== NVPROF is profiling process 95015, command: ./lassen-executable/hotspot_31 2048 2 2 ../../data/hotspot/temp_2048 ../../data/hotspot/power_2048 output-adapt.out
==95015== Profiling application: ./lassen-executable/hotspot_31 2048 2 2 ../../data/hotspot/temp_2048 ../../data/hotspot/power_2048 output-adapt.out
==95015== Profiling result:
            Type  Time(%)      Time     Calls       Avg       Min       Max  Name
                        %        ms                  ms        ms        ms
 GPU activities:   100.00  12.99010         1  12.99010  12.99010  12.99010  calculate_temp(int, float*, float*, float*, int, int, int, int, float, float, float, float, float, float)
      API calls:    95.19  270.3617         3  90.12056  0.040637  270.1258  cudaMallocManaged
                     2.09  5.934961       388  0.015296  2.97e-04  0.615550  cuDeviceGetAttribute
                     1.79  5.092976         4  1.273244  1.249494  1.313646  cuDeviceTotalMem
                     0.66  1.867575         4  0.466893  4.18e-03  0.854213  cudaFree
                     0.17  0.492713         4  0.123178  0.119844  0.124980  cuDeviceGetName
                     0.07  0.194472         1  0.194472  0.194472  0.194472  cudaLaunchKernel
                     0.02  0.061336         2  0.030668  4.10e-03  0.057235  cudaMemAdvise
                     0.01  0.016119         4  4.03e-03  1.67e-03  8.63e-03  cuDeviceGetPCIBusId
                     0.00  4.05e-03         8  5.06e-04  3.81e-04  7.29e-04  cuDeviceGet
                     0.00  1.99e-03         3  6.62e-04  5.00e-04  9.11e-04  cuDeviceGetCount
                     0.00  1.68e-03         4  4.21e-04  3.79e-04  4.61e-04  cuDeviceGetUuid

==95015== Unified Memory profiling result:
Device "Tesla V100-SXM2-16GB (0)"
   Count  Avg Size  Min Size  Max Size  Total Size  Total Time  Name
     143  229.15KB  64.000KB  960.00KB  32.00000MB    0.859488ms  Host To Device
      44         -         -         -           -   12.772000ms  Gpu page fault groups
       8  2.0000MB  2.0000MB  2.0000MB  16.00000MB           -  Remote mapping to device
Total CPU Page faults: 104
Total remote mappings from CPU: 8
