==131271== NVPROF is profiling process 131271, command: ./bfs_161 ../../../data/bfs/graph1MW_6.txt
==131271== Profiling application: ./bfs_161 ../../../data/bfs/graph1MW_6.txt
==131271== Profiling result:
            Type  Time(%)      Time     Calls       Avg       Min       Max  Name
                        %        ms                  ms        ms        ms
 GPU activities:    99.96  1.02e+03        12  84.75620  6.46e-03  520.8872  Kernel(Node*, int*, bool*, bool*, bool*, int*, int)
                     0.04  0.407934        12  0.033994  5.44e-03  0.118144  Kernel2(bool*, bool*, bool*, bool*, int)
      API calls:    79.75  1.02e+03        12  84.78756  0.124162  520.9301  cudaDeviceSynchronize
                    19.34  246.7855         7  35.25508  0.011388  246.4331  cudaMallocManaged
                     0.40  5.125164       384  0.013346  2.34e-04  0.535799  cuDeviceGetAttribute
                     0.31  3.979803         4  0.994950  0.989193  0.997883  cuDeviceTotalMem
                     0.11  1.356779         6  0.226129  0.029835  0.609761  cudaFree
                     0.03  0.423938         4  0.105984  0.103156  0.108187  cuDeviceGetName
                     0.03  0.339211        24  0.014133  0.010429  0.049076  cudaLaunchKernel
                     0.02  0.315473         7  0.045067  1.25e-03  0.303015  cudaMemAdvise
                     0.00  0.011280         4  2.82e-03  1.19e-03  6.71e-03  cuDeviceGetPCIBusId
                     0.00  3.12e-03         8  3.89e-04  3.13e-04  5.58e-04  cuDeviceGet
                     0.00  1.42e-03         3  4.73e-04  3.65e-04  6.39e-04  cuDeviceGetCount

==131271== Unified Memory profiling result:
Device "Tesla V100-SXM2-16GB (0)"
   Count  Avg Size  Min Size  Max Size  Total Size  Total Time  Name
     415  94.226KB  64.000KB  704.00KB  38.18750MB    1.801088ms  Host To Device
      31  150.71KB  64.000KB  960.00KB  4.562500MB    0.137856ms  Device To Host
    8147         -         -         -           -  1.0047e+03ms  Gpu page fault groups
       1  64.000KB  64.000KB  64.000KB  64.00000KB           -  Memory thrashes
       1  64.000KB  64.000KB  64.000KB  64.00000KB           -  Remote mapping to device
Total CPU Page faults: 146
Total CPU thrashes: 1
Total remote mappings from CPU: 1
