==122415== NVPROF is profiling process 122415, command: ./bfs_000 ../../../data/bfs/graph65536.txt
==122415== Profiling application: ./bfs_000 ../../../data/bfs/graph65536.txt
==122415== Profiling result:
            Type  Time(%)      Time     Calls       Avg       Min       Max  Name
                        %        ms                  ms        ms        ms
 GPU activities:    83.38  1.385081        10  0.138508  2.18e-03  0.643388  Kernel(Node*, int*, bool*, bool*, bool*, int*, int)
                    16.62  0.276063        10  0.027606  1.44e-03  0.088064  Kernel2(bool*, bool*, bool*, bool*, int)
      API calls:    95.43  246.3044         7  35.18634  6.74e-03  246.2056  cudaMallocManaged
                     1.99  5.124891       384  0.013346  2.36e-04  0.537646  cuDeviceGetAttribute
                     1.56  4.026385         4  1.006596  0.999392  1.015055  cuDeviceTotalMem
                     0.64  1.646263        10  0.164626  7.88e-03  0.718329  cudaDeviceSynchronize
                     0.16  0.423689         4  0.105922  0.102488  0.108314  cuDeviceGetName
                     0.11  0.288182         6  0.048030  0.026897  0.131315  cudaFree
                     0.10  0.249577        20  0.012478  9.67e-03  0.035094  cudaLaunchKernel
                     0.00  0.012236         4  3.06e-03  1.47e-03  6.67e-03  cuDeviceGetPCIBusId
                     0.00  9.39e-03         6  1.57e-03  1.16e-03  3.22e-03  cudaMemAdvise
                     0.00  3.33e-03         8  4.16e-04  3.01e-04  6.27e-04  cuDeviceGet
                     0.00  1.44e-03         3  4.81e-04  4.39e-04  5.51e-04  cuDeviceGetCount

==122415== Unified Memory profiling result:
Device "Tesla V100-SXM2-16GB (0)"
   Count  Avg Size  Min Size  Max Size  Total Size  Total Time  Name
      34  139.29KB  64.000KB  512.00KB  4.625000MB    0.193920ms  Host To Device
      15  128.00KB  64.000KB  384.00KB  1.875000MB    0.069440ms  Device To Host
      15         -         -         -           -    1.550016ms  Gpu page fault groups
       1  64.000KB  64.000KB  64.000KB  64.00000KB           -  Memory thrashes
       1  64.000KB  64.000KB  64.000KB  64.00000KB           -  Remote mapping to device
Total CPU Page faults: 20
Total CPU thrashes: 1
Total remote mappings from CPU: 1
