==128476== NVPROF is profiling process 128476, command: ./bfs_115 ../../../data/bfs/graph65536.txt
==128476== Profiling application: ./bfs_115 ../../../data/bfs/graph65536.txt
==128476== Profiling result:
            Type  Time(%)      Time     Calls       Avg       Min       Max  Name
                        %        ms                  ms        ms        ms
 GPU activities:    82.01  1.488472        10  0.148847  2.08e-03  0.722716  Kernel(Node*, int*, bool*, bool*, bool*, int*, int)
                    17.99  0.326589        10  0.032658  1.44e-03  0.104031  Kernel2(bool*, bool*, bool*, bool*, int)
      API calls:    95.37  247.0811         7  35.29731  6.55e-03  246.9864  cudaMallocManaged
                     1.98  5.136982       384  0.013377  2.34e-04  0.535938  cuDeviceGetAttribute
                     1.54  3.982146         4  0.995536  0.989745  1.002344  cuDeviceTotalMem
                     0.70  1.800685        10  0.180068  7.73e-03  0.814112  cudaDeviceSynchronize
                     0.16  0.424768         4  0.106192  0.103773  0.108080  cuDeviceGetName
                     0.13  0.348862         6  0.058143  0.026921  0.191933  cudaFree
                     0.10  0.247854        20  0.012392  9.54e-03  0.035540  cudaLaunchKernel
                     0.01  0.031334         7  4.48e-03  1.10e-03  0.022146  cudaMemAdvise
                     0.00  0.010969         4  2.74e-03  1.17e-03  6.06e-03  cuDeviceGetPCIBusId
                     0.00  3.02e-03         8  3.77e-04  3.12e-04  5.43e-04  cuDeviceGet
                     0.00  1.42e-03         3  4.73e-04  4.01e-04  6.10e-04  cuDeviceGetCount

==128476== Unified Memory profiling result:
Device "Tesla V100-SXM2-16GB (0)"
   Count  Avg Size  Min Size  Max Size  Total Size  Total Time  Name
      33  135.76KB  64.000KB  512.00KB  4.375000MB    0.183104ms  Host To Device
      15  128.00KB  64.000KB  384.00KB  1.875000MB    0.069088ms  Device To Host
      15         -         -         -           -    1.702080ms  Gpu page fault groups
       1  64.000KB  64.000KB  64.000KB  64.00000KB           -  Memory thrashes
       3  192.00KB  64.000KB  448.00KB  576.0000KB           -  Remote mapping to device
Total CPU Page faults: 20
Total CPU thrashes: 1
Total remote mappings from CPU: 3
