==130918== NVPROF is profiling process 130918, command: ./bfs_153 ../../../data/bfs/graph65536.txt
==130918== Profiling application: ./bfs_153 ../../../data/bfs/graph65536.txt
==130918== Profiling result:
            Type  Time(%)      Time     Calls       Avg       Min       Max  Name
                        %        ms                  ms        ms        ms
 GPU activities:    79.56  1.449367        10  0.144936  2.08e-03  0.632989  Kernel(Node*, int*, bool*, bool*, bool*, int*, int)
                    20.44  0.372447        10  0.037244  1.41e-03  0.130560  Kernel2(bool*, bool*, bool*, bool*, int)
      API calls:    95.39  248.9319         7  35.56170  6.57e-03  248.8261  cudaMallocManaged
                     1.97  5.130421       384  0.013360  2.36e-04  0.535594  cuDeviceGetAttribute
                     1.53  3.980639         4  0.995159  0.992286  0.997874  cuDeviceTotalMem
                     0.69  1.807473        10  0.180747  7.99e-03  0.733461  cudaDeviceSynchronize
                     0.16  0.426973         4  0.106743  0.103475  0.110044  cuDeviceGetName
                     0.14  0.355077         6  0.059179  0.027706  0.198484  cudaFree
                     0.09  0.245575        20  0.012278  9.41e-03  0.036139  cudaLaunchKernel
                     0.02  0.064513         7  9.22e-03  1.15e-03  0.055545  cudaMemAdvise
                     0.00  0.012054         4  3.01e-03  1.13e-03  7.27e-03  cuDeviceGetPCIBusId
                     0.00  3.16e-03         8  3.94e-04  3.01e-04  5.85e-04  cuDeviceGet
                     0.00  1.34e-03         3  4.45e-04  3.83e-04  5.62e-04  cuDeviceGetCount

==130918== Unified Memory profiling result:
Device "Tesla V100-SXM2-16GB (0)"
   Count  Avg Size  Min Size  Max Size  Total Size  Total Time  Name
      32  138.00KB  64.000KB  512.00KB  4.312500MB    0.181024ms  Host To Device
      15  128.00KB  64.000KB  384.00KB  1.875000MB    0.069280ms  Device To Host
      14         -         -         -           -    1.684640ms  Gpu page fault groups
       1  64.000KB  64.000KB  64.000KB  64.00000KB           -  Memory thrashes
       1  64.000KB  64.000KB  64.000KB  64.00000KB           -  Remote mapping from device
       1  64.000KB  64.000KB  64.000KB  64.00000KB           -  Remote mapping to device
Total CPU Page faults: 20
Total CPU thrashes: 1
Total remote mappings from CPU: 1
Total remote mappings to CPU: 1
