==131321== NVPROF is profiling process 131321, command: ./bfs_161 ../../../data/bfs/graph4096.txt
==131321== Profiling application: ./bfs_161 ../../../data/bfs/graph4096.txt
==131321== Profiling result:
            Type  Time(%)      Time     Calls       Avg       Min       Max  Name
                        %        ms                  ms        ms        ms
 GPU activities:    50.23  0.147775         8  0.018471  4.16e-03  0.031680  Kernel2(bool*, bool*, bool*, bool*, int)
                    49.77  0.146400         8  0.018300  5.92e-03  0.051520  Kernel(Node*, int*, bool*, bool*, bool*, int*, int)
      API calls:    96.02  247.2515         7  35.32164  6.97e-03  247.1998  cudaMallocManaged
                     1.99  5.134116       384  0.013370  2.36e-04  0.535356  cuDeviceGetAttribute
                     1.54  3.977976         4  0.994494  0.989631  0.998610  cuDeviceTotalMem
                     0.17  0.425094         4  0.106273  0.103086  0.108478  cuDeviceGetName
                     0.10  0.264885         8  0.033110  9.50e-03  0.078841  cudaDeviceSynchronize
                     0.07  0.193019        16  0.012063  9.31e-03  0.034504  cudaLaunchKernel
                     0.07  0.180100         6  0.030016  0.027488  0.038918  cudaFree
                     0.03  0.068690         7  9.81e-03  1.12e-03  0.060066  cudaMemAdvise
                     0.00  0.011367         4  2.84e-03  1.19e-03  6.65e-03  cuDeviceGetPCIBusId
                     0.00  3.29e-03         8  4.11e-04  3.14e-04  6.09e-04  cuDeviceGet
                     0.00  1.36e-03         3  4.51e-04  3.59e-04  5.66e-04  cuDeviceGetCount

==131321== Unified Memory profiling result:
Total CPU Page faults: 4
