==125977== NVPROF is profiling process 125977, command: ./bfs_052 ../../../data/bfs/graph65536.txt
==125977== Profiling application: ./bfs_052 ../../../data/bfs/graph65536.txt
==125977== Profiling result:
            Type  Time(%)      Time     Calls       Avg       Min       Max  Name
                        %        ms                  ms        ms        ms
 GPU activities:    81.19  1.432951        10  0.143295  2.08e-03  0.672156  Kernel(Node*, int*, bool*, bool*, bool*, int*, int)
                    18.81  0.331902        10  0.033190  1.41e-03  0.104159  Kernel2(bool*, bool*, bool*, bool*, int)
      API calls:    94.93  249.4314         7  35.63306  6.82e-03  249.3361  cudaMallocManaged
                     2.48  6.517222       384  0.016971  2.34e-04  1.220863  cuDeviceGetAttribute
                     1.52  4.001894         4  1.000473  0.994006  1.004956  cuDeviceTotalMem
                     0.67  1.752838        10  0.175283  7.69e-03  0.768282  cudaDeviceSynchronize
                     0.16  0.427511         4  0.106877  0.104962  0.108367  cuDeviceGetName
                     0.13  0.337135         6  0.056189  0.027255  0.180686  cudaFree
                     0.09  0.241214        20  0.012060  9.13e-03  0.034655  cudaLaunchKernel
                     0.01  0.035323         7  5.05e-03  1.18e-03  0.024968  cudaMemAdvise
                     0.00  0.011733         4  2.93e-03  1.07e-03  6.47e-03  cuDeviceGetPCIBusId
                     0.00  3.22e-03         8  4.02e-04  2.99e-04  6.21e-04  cuDeviceGet
                     0.00  1.31e-03         3  4.36e-04  3.75e-04  5.56e-04  cuDeviceGetCount

==125977== Unified Memory profiling result:
Device "Tesla V100-SXM2-16GB (0)"
   Count  Avg Size  Min Size  Max Size  Total Size  Total Time  Name
      32  138.00KB  64.000KB  512.00KB  4.312500MB    0.183136ms  Host To Device
      15  128.00KB  64.000KB  384.00KB  1.875000MB    0.068992ms  Device To Host
      15         -         -         -           -    1.653440ms  Gpu page fault groups
       1  64.000KB  64.000KB  64.000KB  64.00000KB           -  Memory thrashes
       1  64.000KB  64.000KB  64.000KB  64.00000KB           -  Remote mapping to device
Total CPU Page faults: 20
Total CPU thrashes: 1
Total remote mappings from CPU: 1
