==28437== NVPROF is profiling process 28437, command: ./ip-128-115-246-7-executable/cfd_565 ../../data/cfd/fvcorr.domn.193K
==28437== Profiling application: ./ip-128-115-246-7-executable/cfd_565 ../../data/cfd/fvcorr.domn.193K
==28437== Profiling result:
            Type  Time(%)      Time     Calls       Avg       Min       Max  Name
                        %        ms                  ms        ms        ms
 GPU activities:    94.98  5.28e+03      6000  0.880808  0.847260  8.679036  cuda_compute_flux(int, int*, float*, float*, float*)
                     2.82  157.1606      2000  0.078580  0.074464  1.315002  cuda_compute_step_factor(int, float*, float*, float*)
                     1.85  102.9034      6000  0.017150  0.016160  0.019776  cuda_time_step(int, int, float*, float*, float*, float*)
                     0.34  19.06491      2000  9.53e-03  9.02e-03  0.012576  [CUDA memcpy DtoD]
                     0.00  0.023808         3  7.94e-03  5.63e-03  0.012256  cuda_initialize_variables(int, float*)
                     0.00  7.87e-03         5  1.57e-03  1.50e-03  1.86e-03  [CUDA memcpy HtoD]
                     0.00  3.01e-03         1  3.01e-03  3.01e-03  3.01e-03  [CUDA memset]
      API calls:    60.58  3.50e+03     14003  0.249751  5.50e-03  1.666828  cudaLaunchKernel
                    28.34  1.64e+03      2000  0.818001  8.83e-03  1.672898  cudaMemcpy
                     6.61  381.7800         2  190.8900  0.013243  381.7668  cudaThreadSynchronize
                     3.64  210.1682         5  42.03365  8.59e-03  210.1314  cudaMemcpyToSymbol
                     0.39  22.78459     28003  8.13e-04  6.67e-04  0.631349  cudaGetLastError
                     0.36  20.54255         3  6.847516  0.023792  20.46106  cudaMallocManaged
                     0.03  1.992005         7  0.284572  0.159746  0.832294  cudaFree
                     0.01  0.727446         4  0.181861  0.133308  0.273292  cudaMalloc
                     0.01  0.710089         1  0.710089  0.710089  0.710089  cuDeviceTotalMem
                     0.01  0.298142        97  3.07e-03  7.62e-04  0.077395  cuDeviceGetAttribute
                     0.00  0.207302         1  0.207302  0.207302  0.207302  cudaGetDeviceProperties
                     0.00  0.040446         3  0.013482  3.97e-03  0.031299  cudaMemAdvise
                     0.00  0.022086         1  0.022086  0.022086  0.022086  cuDeviceGetName
                     0.00  0.019807         1  0.019807  0.019807  0.019807  cudaMemset
                     0.00  3.88e-03         3  1.29e-03  8.50e-04  1.96e-03  cuDeviceGetCount
                     0.00  3.83e-03         1  3.83e-03  3.83e-03  3.83e-03  cudaSetDevice
                     0.00  3.70e-03         1  3.70e-03  3.70e-03  3.70e-03  cuDeviceGetPCIBusId
                     0.00  2.58e-03         2  1.29e-03  8.67e-04  1.72e-03  cuDeviceGet
                     0.00  1.94e-03         1  1.94e-03  1.94e-03  1.94e-03  cudaGetDevice
                     0.00  1.04e-03         1  1.04e-03  1.04e-03  1.04e-03  cuDeviceGetUuid

==28437== Unified Memory profiling result:
Device "Tesla V100-SXM2-16GB (0)"
   Count  Avg Size  Min Size  Max Size  Total Size  Total Time  Name
      79  38.278KB  4.0000KB  476.00KB  2.953125MB    0.506272ms  Host To Device
      48         -         -         -           -   12.085600ms  Gpu page fault groups
    1782  5.5147KB  4.0000KB  64.000KB  9.597656MB           -  Remote mapping from device
Total CPU Page faults: 26
Total remote mappings to CPU: 1782
