==12083== NVPROF is profiling process 12083, command: ./ip-128-115-246-7-executable/cfd_202 ../../data/cfd/fvcorr.domn.097K
==12083== Profiling application: ./ip-128-115-246-7-executable/cfd_202 ../../data/cfd/fvcorr.domn.097K
==12083== Profiling result:
            Type  Time(%)      Time     Calls       Avg       Min       Max  Name
                        %        ms                  ms        ms        ms
 GPU activities:    74.80  190.9979      6000  0.031832  0.028704  1.806230  cuda_compute_flux(int, int*, float*, float*, float*)
                    17.43  44.49967      6000  7.42e-03  6.62e-03  0.011455  cuda_time_step(int, int, float*, float*, float*, float*)
                     4.23  10.80714      2000  5.40e-03  4.93e-03  0.010496  [CUDA memcpy DtoD]
                     3.48  8.880556      2000  4.44e-03  3.71e-03  0.749115  cuda_compute_step_factor(int, float*, float*, float*)
                     0.06  0.153567         6  0.025594  1.47e-03  0.145727  [CUDA memcpy HtoD]
                     0.01  0.017472         3  5.82e-03  3.71e-03  8.13e-03  cuda_initialize_variables(int, float*)
                     0.00  2.08e-03         1  2.08e-03  2.08e-03  2.08e-03  [CUDA memset]
      API calls:    45.95  218.6890         5  43.73780  8.72e-03  218.6522  cudaMemcpyToSymbol
                    26.74  127.2642     14003  9.09e-03  5.18e-03  0.619340  cudaLaunchKernel
                    14.63  69.60971      2001  0.034787  0.012791  0.656837  cudaMemcpy
                     4.59  21.83172     28003  7.79e-04  6.17e-04  0.611011  cudaGetLastError
                     4.32  20.55141         2  10.27570  0.062739  20.48867  cudaMallocManaged
                     3.10  14.77560         2  7.387798  9.90e-03  14.76570  cudaThreadSynchronize
                     0.24  1.142580         7  0.163225  0.012800  0.456926  cudaFree
                     0.15  0.724065         1  0.724065  0.724065  0.724065  cuDeviceTotalMem
                     0.15  0.711093         5  0.142218  9.31e-03  0.262138  cudaMalloc
                     0.06  0.304754        97  3.14e-03  7.67e-04  0.081786  cuDeviceGetAttribute
                     0.04  0.210068         1  0.210068  0.210068  0.210068  cudaGetDeviceProperties
                     0.01  0.025177         2  0.012588  3.43e-03  0.021743  cudaMemAdvise
                     0.01  0.023862         1  0.023862  0.023862  0.023862  cuDeviceGetName
                     0.00  0.016759         1  0.016759  0.016759  0.016759  cudaMemset
                     0.00  4.46e-03         3  1.49e-03  8.29e-04  2.39e-03  cuDeviceGetCount
                     0.00  4.12e-03         1  4.12e-03  4.12e-03  4.12e-03  cudaSetDevice
                     0.00  3.68e-03         1  3.68e-03  3.68e-03  3.68e-03  cuDeviceGetPCIBusId
                     0.00  2.26e-03         2  1.13e-03  8.04e-04  1.46e-03  cuDeviceGet
                     0.00  1.93e-03         1  1.93e-03  1.93e-03  1.93e-03  cudaGetDevice
                     0.00  9.64e-04         1  9.64e-04  9.64e-04  9.64e-04  cuDeviceGetUuid

==12083== Unified Memory profiling result:
Device "Tesla V100-SXM2-16GB (0)"
   Count  Avg Size  Min Size  Max Size  Total Size  Total Time  Name
     137  36.028KB  4.0000KB  800.00KB  4.820313MB    0.802752ms  Host To Device
       8         -         -         -           -    2.883680ms  Gpu page fault groups
Total CPU Page faults: 1234
