==23597== NVPROF is profiling process 23597, command: ./ip-128-115-246-7-executable/cfd_502 ../../data/cfd/fvcorr.domn.097K
==23597== Profiling application: ./ip-128-115-246-7-executable/cfd_502 ../../data/cfd/fvcorr.domn.097K
==23597== Profiling result:
            Type  Time(%)      Time     Calls       Avg       Min       Max  Name
                        %        ms                  ms        ms        ms
 GPU activities:    56.79  189.4801      6000  0.031580  0.028063  1.876864  cuda_compute_flux(int, int*, float*, float*, float*)
                    26.73  89.18008      2000  0.044590  0.039615  0.821202  cuda_compute_step_factor(int, float*, float*, float*)
                    13.23  44.13001      6000  7.36e-03  6.62e-03  0.010848  cuda_time_step(int, int, float*, float*, float*, float*)
                     3.20  10.66077      2000  5.33e-03  4.67e-03  0.012160  [CUDA memcpy DtoD]
                     0.05  0.168062         6  0.028010  1.50e-03  0.159870  [CUDA memcpy HtoD]
                     0.01  0.017087         3  5.69e-03  3.52e-03  7.81e-03  cuda_initialize_variables(int, float*)
                     0.00  2.08e-03         1  2.08e-03  2.08e-03  2.08e-03  [CUDA memset]
      API calls:    39.33  216.8685         5  43.37370  8.18e-03  216.8323  cudaMemcpyToSymbol
                    36.19  199.5784     14003  0.014252  5.30e-03  0.678237  cudaLaunchKernel
                    12.87  70.97860      2001  0.035471  0.012610  0.685975  cudaMemcpy
                     4.01  22.09727     28003  7.89e-04  7.20e-04  0.616077  cudaGetLastError
                     3.72  20.49681         2  10.24840  0.043087  20.45372  cudaMallocManaged
                     3.32  18.32561         2  9.162804  9.40e-03  18.31620  cudaThreadSynchronize
                     0.19  1.065920         7  0.152274  0.017333  0.399504  cudaFree
                     0.13  0.724369         1  0.724369  0.724369  0.724369  cuDeviceTotalMem
                     0.12  0.679746         5  0.135949  8.76e-03  0.255204  cudaMalloc
                     0.06  0.303334        97  3.13e-03  7.65e-04  0.080219  cuDeviceGetAttribute
                     0.04  0.210517         1  0.210517  0.210517  0.210517  cudaGetDeviceProperties
                     0.00  0.026658         2  0.013329  4.08e-03  0.022581  cudaMemAdvise
                     0.00  0.023738         1  0.023738  0.023738  0.023738  cuDeviceGetName
                     0.00  0.017695         1  0.017695  0.017695  0.017695  cudaMemset
                     0.00  4.72e-03         3  1.57e-03  8.17e-04  2.58e-03  cuDeviceGetCount
                     0.00  4.58e-03         1  4.58e-03  4.58e-03  4.58e-03  cudaSetDevice
                     0.00  3.85e-03         1  3.85e-03  3.85e-03  3.85e-03  cuDeviceGetPCIBusId
                     0.00  2.46e-03         1  2.46e-03  2.46e-03  2.46e-03  cudaGetDevice
                     0.00  2.28e-03         2  1.14e-03  8.38e-04  1.44e-03  cuDeviceGet
                     0.00  1.07e-03         1  1.07e-03  1.07e-03  1.07e-03  cuDeviceGetUuid

==23597== Unified Memory profiling result:
Device "Tesla V100-SXM2-16GB (0)"
   Count  Avg Size  Min Size  Max Size  Total Size  Total Time  Name
      91  50.065KB  4.0000KB  900.00KB  4.449219MB    0.703552ms  Host To Device
      12         -         -         -           -    2.670784ms  Gpu page fault groups
      23  16.522KB  4.0000KB  64.000KB  380.0000KB           -  Remote mapping from device
Total CPU Page faults: 1140
Total remote mappings to CPU: 23
