==21139== NVPROF is profiling process 21139, command: ./ip-128-115-246-7-executable/cfd_425 ../../data/cfd/fvcorr.domn.193K
==21139== Profiling application: ./ip-128-115-246-7-executable/cfd_425 ../../data/cfd/fvcorr.domn.193K
==21139== Profiling result:
            Type  Time(%)      Time     Calls       Avg       Min       Max  Name
                        %        ms                  ms        ms        ms
 GPU activities:    95.00  5.27e+03      6000  0.878624  0.847198  8.512334  cuda_compute_flux(int, int*, float*, float*, float*)
                     2.80  155.5879      2000  0.077793  0.074368  0.147039  cuda_compute_step_factor(int, float*, float*, float*)
                     1.85  102.9203      6000  0.017153  0.015872  0.019648  cuda_time_step(int, int, float*, float*, float*, float*)
                     0.34  19.06923      2000  9.53e-03  9.02e-03  0.012448  [CUDA memcpy DtoD]
                     0.00  0.023616         3  7.87e-03  5.63e-03  0.012032  cuda_initialize_variables(int, float*)
                     0.00  7.94e-03         5  1.59e-03  1.50e-03  1.89e-03  [CUDA memcpy HtoD]
                     0.00  2.69e-03         1  2.69e-03  2.69e-03  2.69e-03  [CUDA memset]
      API calls:    60.95  3.51e+03     14003  0.250847  5.29e-03  1.669143  cudaLaunchKernel
                    28.51  1.64e+03      2000  0.821549  8.96e-03  1.667025  cudaMemcpy
                     6.01  346.2054         2  173.1027  0.013656  346.1918  cudaThreadSynchronize
                     3.71  214.0131         5  42.80263  8.30e-03  213.9761  cudaMemcpyToSymbol
                     0.38  22.02970     28003  7.86e-04  5.56e-04  0.027543  cudaGetLastError
                     0.36  20.61293         3  6.870976  0.024529  20.52640  cudaMallocManaged
                     0.03  1.997946         7  0.285420  0.158628  0.820251  cudaFree
                     0.01  0.726922         4  0.181730  0.131447  0.271959  cudaMalloc
                     0.01  0.721748         1  0.721748  0.721748  0.721748  cuDeviceTotalMem
                     0.01  0.303773        97  3.13e-03  7.71e-04  0.079908  cuDeviceGetAttribute
                     0.00  0.208107         1  0.208107  0.208107  0.208107  cudaGetDeviceProperties
                     0.00  0.040812         3  0.013604  4.14e-03  0.031278  cudaMemAdvise
                     0.00  0.024508         1  0.024508  0.024508  0.024508  cuDeviceGetName
                     0.00  0.020964         1  0.020964  0.020964  0.020964  cudaMemset
                     0.00  5.11e-03         3  1.70e-03  8.14e-04  2.89e-03  cuDeviceGetCount
                     0.00  4.72e-03         1  4.72e-03  4.72e-03  4.72e-03  cudaSetDevice
                     0.00  4.47e-03         1  4.47e-03  4.47e-03  4.47e-03  cuDeviceGetPCIBusId
                     0.00  2.44e-03         2  1.22e-03  8.64e-04  1.58e-03  cuDeviceGet
                     0.00  2.16e-03         1  2.16e-03  2.16e-03  2.16e-03  cudaGetDevice
                     0.00  1.11e-03         1  1.11e-03  1.11e-03  1.11e-03  cuDeviceGetUuid

==21139== Unified Memory profiling result:
Device "Tesla V100-SXM2-16GB (0)"
   Count  Avg Size  Min Size  Max Size  Total Size  Total Time  Name
      58  52.138KB  4.0000KB  456.00KB  2.953125MB    0.427456ms  Host To Device
      39         -         -         -           -    9.651584ms  Gpu page fault groups
    1726  5.6934KB  4.0000KB  256.00KB  9.597656MB           -  Remote mapping from device
Total CPU Page faults: 766
Total remote mappings to CPU: 1726
