==9789== NVPROF is profiling process 9789, command: ./ip-128-115-246-7-executable/cfd_130 ../../data/cfd/fvcorr.domn.193K
==9789== Profiling application: ./ip-128-115-246-7-executable/cfd_130 ../../data/cfd/fvcorr.domn.193K
==9789== Profiling result:
            Type  Time(%)      Time     Calls       Avg       Min       Max  Name
                        %        ms                  ms        ms        ms
 GPU activities:    67.51  309.6449      6000  0.051607  0.047616  1.236030  cuda_compute_flux(int, int*, float*, float*, float*)
                    23.93  109.7575      6000  0.018292  0.016864  0.019872  cuda_time_step(int, int, float*, float*, float*, float*)
                     4.17  19.13139      2000  9.57e-03  8.96e-03  0.012320  [CUDA memcpy DtoD]
                     4.14  18.97934      2000  9.49e-03  8.22e-03  1.126270  cuda_compute_step_factor(int, float*, float*, float*)
                     0.25  1.128734         6  0.188122  1.50e-03  1.120862  [CUDA memcpy HtoD]
                     0.01  0.025184         3  8.39e-03  5.86e-03  0.012992  cuda_initialize_variables(int, float*)
                     0.00  2.43e-03         1  2.43e-03  2.43e-03  2.43e-03  [CUDA memset]
      API calls:    43.38  292.1425     14003  0.020862  5.32e-03  0.671646  cudaLaunchKernel
                    31.83  214.3745         5  42.87489  9.11e-03  214.3367  cudaMemcpyToSymbol
                    13.61  91.64463      2001  0.045799  8.81e-03  1.212545  cudaMemcpy
                     4.33  29.16320         2  14.58160  9.35e-03  29.15385  cudaThreadSynchronize
                     3.26  21.97205     28003  7.84e-04  5.68e-04  0.013463  cudaGetLastError
                     3.04  20.46878         2  10.23439  0.040869  20.42791  cudaMallocManaged
                     0.22  1.466554         7  0.209507  0.159332  0.322065  cudaFree
                     0.13  0.864195         5  0.172839  0.126396  0.296263  cudaMalloc
                     0.11  0.713216         1  0.713216  0.713216  0.713216  cuDeviceTotalMem
                     0.04  0.302021        97  3.11e-03  7.69e-04  0.079574  cuDeviceGetAttribute
                     0.03  0.226414         1  0.226414  0.226414  0.226414  cudaGetDeviceProperties
                     0.00  0.022781         1  0.022781  0.022781  0.022781  cuDeviceGetName
                     0.00  0.017659         1  0.017659  0.017659  0.017659  cudaMemset
                     0.00  8.87e-03         1  8.87e-03  8.87e-03  8.87e-03  cudaMemAdvise
                     0.00  4.51e-03         3  1.50e-03  8.16e-04  2.34e-03  cuDeviceGetCount
                     0.00  4.23e-03         1  4.23e-03  4.23e-03  4.23e-03  cudaSetDevice
                     0.00  3.48e-03         1  3.48e-03  3.48e-03  3.48e-03  cuDeviceGetPCIBusId
                     0.00  2.48e-03         2  1.24e-03  8.35e-04  1.64e-03  cuDeviceGet
                     0.00  2.35e-03         1  2.35e-03  2.35e-03  2.35e-03  cudaGetDevice
                     0.00  1.05e-03         1  1.05e-03  1.05e-03  1.05e-03  cuDeviceGetUuid

==9789== Unified Memory profiling result:
Device "Tesla V100-SXM2-16GB (0)"
   Count  Avg Size  Min Size  Max Size  Total Size  Total Time  Name
      97  41.731KB  4.0000KB  992.00KB  3.953125MB    0.620192ms  Host To Device
      11         -         -         -           -    2.536096ms  Gpu page fault groups
Total CPU Page faults: 25
