==14043== NVPROF is profiling process 14043, command: ./ip-128-115-246-7-executable/cfd_236 ../../data/cfd/missile.domn.0.2M
==14043== Profiling application: ./ip-128-115-246-7-executable/cfd_236 ../../data/cfd/missile.domn.0.2M
==14043== Profiling result:
            Type  Time(%)      Time     Calls       Avg       Min       Max  Name
                        %        ms                  ms        ms        ms
 GPU activities:    69.76  409.9809      6000  0.068330  0.061568  4.882422  cuda_compute_flux(int, int*, float*, float*, float*)
                    20.93  123.0098      6000  0.020501  0.018879  0.023008  cuda_time_step(int, int, float*, float*, float*, float*)
                     4.92  28.90909      2000  0.014454  0.013472  0.017376  [CUDA memcpy DtoD]
                     4.38  25.73946      2000  0.012869  0.011136  1.003255  cuda_compute_step_factor(int, float*, float*, float*)
                     0.00  0.027008         3  9.00e-03  6.53e-03  0.012960  cuda_initialize_variables(int, float*)
                     0.00  7.84e-03         5  1.57e-03  1.47e-03  1.86e-03  [CUDA memcpy HtoD]
                     0.00  2.40e-03         1  2.40e-03  2.40e-03  2.40e-03  [CUDA memset]
      API calls:    43.07  345.0695     14003  0.024642  5.35e-03  0.644624  cudaLaunchKernel
                    26.48  212.1716         5  42.43433  8.65e-03  212.1352  cudaMemcpyToSymbol
                    20.53  164.4377      2000  0.082218  0.012918  0.709385  cudaMemcpy
                     4.11  32.91400         2  16.45700  0.013331  32.90067  cudaThreadSynchronize
                     2.72  21.78082     28003  7.77e-04  7.09e-04  0.015125  cudaGetLastError
                     2.56  20.51091         3  6.836969  0.023172  20.44539  cudaMallocManaged
                     0.28  2.215681         7  0.316525  0.174257  0.859867  cudaFree
                     0.09  0.718370         1  0.718370  0.718370  0.718370  cuDeviceTotalMem
                     0.09  0.704837         4  0.176209  0.130588  0.260219  cudaMalloc
                     0.04  0.303620        97  3.13e-03  7.52e-04  0.079257  cuDeviceGetAttribute
                     0.03  0.208831         1  0.208831  0.208831  0.208831  cudaGetDeviceProperties
                     0.00  0.026978         3  8.99e-03  4.73e-03  0.014975  cudaMemAdvise
                     0.00  0.024751         1  0.024751  0.024751  0.024751  cuDeviceGetName
                     0.00  0.020172         1  0.020172  0.020172  0.020172  cudaMemset
                     0.00  5.61e-03         3  1.87e-03  8.64e-04  3.47e-03  cuDeviceGetCount
                     0.00  4.63e-03         1  4.63e-03  4.63e-03  4.63e-03  cudaSetDevice
                     0.00  4.17e-03         1  4.17e-03  4.17e-03  4.17e-03  cuDeviceGetPCIBusId
                     0.00  2.19e-03         2  1.09e-03  7.98e-04  1.39e-03  cuDeviceGet
                     0.00  1.95e-03         1  1.95e-03  1.95e-03  1.95e-03  cudaGetDevice
                     0.00  1.17e-03         1  1.17e-03  1.17e-03  1.17e-03  cuDeviceGetUuid

==14043== Unified Memory profiling result:
Device "Tesla V100-SXM2-16GB (0)"
   Count  Avg Size  Min Size  Max Size  Total Size  Total Time  Name
     376  41.106KB  4.0000KB  944.00KB  15.09375MB    2.387584ms  Host To Device
      18         -         -         -           -    6.283648ms  Gpu page fault groups
Total CPU Page faults: 313
