==30358== NVPROF is profiling process 30358, command: ./ip-128-115-246-7-executable/cfd_632 ../../data/cfd/fvcorr.domn.193K
==30358== Profiling application: ./ip-128-115-246-7-executable/cfd_632 ../../data/cfd/fvcorr.domn.193K
==30358== Profiling result:
            Type  Time(%)      Time     Calls       Avg       Min       Max  Name
                        %        ms                  ms        ms        ms
 GPU activities:    68.21  312.4962      6000  0.052082  0.047840  4.205228  cuda_compute_flux(int, int*, float*, float*, float*)
                    23.47  107.5151      6000  0.017919  0.016352  0.019616  cuda_time_step(int, int, float*, float*, float*, float*)
                     4.19  19.21422      2000  9.61e-03  8.96e-03  0.013344  [CUDA memcpy DtoD]
                     4.12  18.89799      2000  9.45e-03  8.26e-03  0.996796  cuda_compute_step_factor(int, float*, float*, float*)
                     0.01  0.023488         3  7.83e-03  5.70e-03  0.011872  cuda_initialize_variables(int, float*)
                     0.00  8.06e-03         5  1.61e-03  1.47e-03  2.05e-03  [CUDA memcpy HtoD]
                     0.00  2.66e-03         1  2.66e-03  2.66e-03  2.66e-03  [CUDA memset]
      API calls:    43.23  290.8450     14003  0.020770  5.20e-03  0.633196  cudaLaunchKernel
                    31.70  213.2628         5  42.65256  8.73e-03  213.2254  cudaMemcpyToSymbol
                    13.62  91.60937      2000  0.045804  8.71e-03  0.072734  cudaMemcpy
                     4.32  29.03015         2  14.51508  0.013233  29.01692  cudaThreadSynchronize
                     3.50  23.51296     28003  8.39e-04  7.23e-04  0.640688  cudaGetLastError
                     3.06  20.55587         3  6.851957  0.022959  20.48420  cudaMallocManaged
                     0.28  1.911671         7  0.273095  0.159808  0.696846  cudaFree
                     0.11  0.721089         1  0.721089  0.721089  0.721089  cuDeviceTotalMem
                     0.10  0.700482         4  0.175120  0.124966  0.254924  cudaMalloc
                     0.04  0.301105        97  3.10e-03  7.63e-04  0.079499  cuDeviceGetAttribute
                     0.03  0.208157         1  0.208157  0.208157  0.208157  cudaGetDeviceProperties
                     0.01  0.035476         3  0.011825  3.57e-03  0.025072  cudaMemAdvise
                     0.00  0.026456         1  0.026456  0.026456  0.026456  cuDeviceGetName
                     0.00  0.019669         1  0.019669  0.019669  0.019669  cudaMemset
                     0.00  5.12e-03         3  1.71e-03  8.38e-04  3.05e-03  cuDeviceGetCount
                     0.00  4.46e-03         1  4.46e-03  4.46e-03  4.46e-03  cudaSetDevice
                     0.00  3.78e-03         1  3.78e-03  3.78e-03  3.78e-03  cuDeviceGetPCIBusId
                     0.00  2.40e-03         2  1.20e-03  7.90e-04  1.61e-03  cuDeviceGet
                     0.00  1.99e-03         1  1.99e-03  1.99e-03  1.99e-03  cudaGetDevice
                     0.00  1.06e-03         1  1.06e-03  1.06e-03  1.06e-03  cuDeviceGetUuid

==30358== Unified Memory profiling result:
Device "Tesla V100-SXM2-16GB (0)"
   Count  Avg Size  Min Size  Max Size  Total Size  Total Time  Name
     394  32.619KB  4.0000KB  992.00KB  12.55078MB    2.192672ms  Host To Device
      16         -         -         -           -    5.244480ms  Gpu page fault groups
Total CPU Page faults: 2293
