==20779== NVPROF is profiling process 20779, command: ./ip-128-115-246-7-executable/cfd_420 ../../data/cfd/missile.domn.0.2M
==20779== Profiling application: ./ip-128-115-246-7-executable/cfd_420 ../../data/cfd/missile.domn.0.2M
==20779== Profiling result:
            Type  Time(%)      Time     Calls       Avg       Min       Max  Name
                        %        ms                  ms        ms        ms
 GPU activities:    53.52  401.5357      6000  0.066922  0.061823  1.903759  cuda_compute_flux(int, int*, float*, float*, float*)
                    25.94  194.6158      2000  0.097307  0.089631  0.174590  cuda_compute_step_factor(int, float*, float*, float*)
                    16.55  124.1851      6000  0.020697  0.018943  0.022944  cuda_time_step(int, int, float*, float*, float*, float*)
                     3.80  28.53797      2000  0.014268  0.013312  0.017504  [CUDA memcpy DtoD]
                     0.18  1.366035         6  0.227672  1.47e-03  1.358291  [CUDA memcpy HtoD]
                     0.00  0.027616         3  9.20e-03  6.62e-03  0.014208  cuda_initialize_variables(int, float*)
                     0.00  2.82e-03         1  2.82e-03  2.82e-03  2.82e-03  [CUDA memset]
      API calls:    51.92  499.8493     14003  0.035695  5.31e-03  0.702415  cudaLaunchKernel
                    21.86  210.4179         5  42.08359  8.80e-03  210.3809  cudaMemcpyToSymbol
                    17.05  164.1481      2001  0.082033  0.012936  1.464487  cudaMemcpy
                     4.35  41.89713         2  20.94856  9.84e-03  41.88729  cudaThreadSynchronize
                     2.28  21.93237     28003  7.83e-04  7.01e-04  0.633519  cudaGetLastError
                     2.13  20.49547         2  10.24773  0.042396  20.45307  cudaMallocManaged
                     0.18  1.767361         7  0.252480  0.169580  0.405073  cudaFree
                     0.10  0.927247         5  0.185449  0.126950  0.310382  cudaMalloc
                     0.07  0.721201         1  0.721201  0.721201  0.721201  cuDeviceTotalMem
                     0.03  0.301017        97  3.10e-03  7.62e-04  0.079040  cuDeviceGetAttribute
                     0.02  0.209334         1  0.209334  0.209334  0.209334  cudaGetDeviceProperties
                     0.00  0.025977         2  0.012988  3.97e-03  0.022009  cudaMemAdvise
                     0.00  0.025474         1  0.025474  0.025474  0.025474  cuDeviceGetName
                     0.00  0.019066         1  0.019066  0.019066  0.019066  cudaMemset
                     0.00  4.48e-03         3  1.49e-03  8.78e-04  2.48e-03  cuDeviceGetCount
                     0.00  4.23e-03         1  4.23e-03  4.23e-03  4.23e-03  cudaSetDevice
                     0.00  3.67e-03         1  3.67e-03  3.67e-03  3.67e-03  cuDeviceGetPCIBusId
                     0.00  2.48e-03         2  1.24e-03  8.45e-04  1.63e-03  cuDeviceGet
                     0.00  1.97e-03         1  1.97e-03  1.97e-03  1.97e-03  cudaGetDevice
                     0.00  1.03e-03         1  1.03e-03  1.03e-03  1.03e-03  cuDeviceGetUuid

==20779== Unified Memory profiling result:
Device "Tesla V100-SXM2-16GB (0)"
   Count  Avg Size  Min Size  Max Size  Total Size  Total Time  Name
     118  30.814KB  4.0000KB  564.00KB  3.550781MB    0.632864ms  Host To Device
       6         -         -         -           -    1.877568ms  Gpu page fault groups
       5  182.40KB  64.000KB  400.00KB  912.0000KB           -  Remote mapping from device
Total CPU Page faults: 914
Total remote mappings to CPU: 5
