==17792== NVPROF is profiling process 17792, command: ./ip-128-115-246-7-executable/cfd_336 ../../data/cfd/fvcorr.domn.193K
==17792== Profiling application: ./ip-128-115-246-7-executable/cfd_336 ../../data/cfd/fvcorr.domn.193K
==17792== Profiling result:
            Type  Time(%)      Time     Calls       Avg       Min       Max  Name
                        %        ms                  ms        ms        ms
 GPU activities:    68.25  312.0353      6000  0.052005  0.048031  3.881521  cuda_compute_flux(int, int*, float*, float*, float*)
                    23.42  107.0823      6000  0.017847  0.016352  0.019968  cuda_time_step(int, int, float*, float*, float*, float*)
                     4.19  19.17733      2000  9.59e-03  9.02e-03  0.012576  [CUDA memcpy DtoD]
                     4.12  18.85155      2000  9.43e-03  8.26e-03  0.987581  cuda_compute_step_factor(int, float*, float*, float*)
                     0.01  0.024128         3  8.04e-03  5.92e-03  0.011776  cuda_initialize_variables(int, float*)
                     0.00  7.81e-03         5  1.56e-03  1.47e-03  1.86e-03  [CUDA memcpy HtoD]
                     0.00  2.85e-03         1  2.85e-03  2.85e-03  2.85e-03  [CUDA memset]
      API calls:    43.41  289.7355     14003  0.020690  5.45e-03  0.676600  cudaLaunchKernel
                    31.58  210.8077         5  42.16155  8.84e-03  210.7696  cudaMemcpyToSymbol
                    13.75  91.80933      2000  0.045904  9.06e-03  0.669702  cudaMemcpy
                     4.35  29.01870         2  14.50935  0.013650  29.00505  cudaThreadSynchronize
                     3.24  21.60677     28003  7.71e-04  7.24e-04  0.025525  cudaGetLastError
                     3.08  20.57432         3  6.858108  0.023797  20.49108  cudaMallocManaged
                     0.28  1.891408         7  0.270201  0.160718  0.734063  cudaFree
                     0.11  0.728395         4  0.182098  0.129703  0.267044  cudaMalloc
                     0.11  0.715612         1  0.715612  0.715612  0.715612  cuDeviceTotalMem
                     0.05  0.303844        97  3.13e-03  7.66e-04  0.079566  cuDeviceGetAttribute
                     0.03  0.208896         1  0.208896  0.208896  0.208896  cudaGetDeviceProperties
                     0.01  0.039856         3  0.013285  4.47e-03  0.029967  cudaMemAdvise
                     0.00  0.024205         1  0.024205  0.024205  0.024205  cuDeviceGetName
                     0.00  0.019319         1  0.019319  0.019319  0.019319  cudaMemset
                     0.00  4.75e-03         3  1.58e-03  8.45e-04  2.68e-03  cuDeviceGetCount
                     0.00  4.46e-03         1  4.46e-03  4.46e-03  4.46e-03  cudaSetDevice
                     0.00  3.82e-03         1  3.82e-03  3.82e-03  3.82e-03  cuDeviceGetPCIBusId
                     0.00  3.03e-03         2  1.52e-03  8.53e-04  2.18e-03  cuDeviceGet
                     0.00  2.22e-03         1  2.22e-03  2.22e-03  2.22e-03  cudaGetDevice
                     0.00  9.94e-04         1  9.94e-04  9.94e-04  9.94e-04  cuDeviceGetUuid

==17792== Unified Memory profiling result:
Device "Tesla V100-SXM2-16GB (0)"
   Count  Avg Size  Min Size  Max Size  Total Size  Total Time  Name
     334  38.479KB  4.0000KB  0.9766MB  12.55078MB    2.034944ms  Host To Device
      14         -         -         -           -    5.677632ms  Gpu page fault groups
Total CPU Page faults: 83
