==17507== NVPROF is profiling process 17507, command: ./ip-128-115-246-7-executable/cfd_332 ../../data/cfd/missile.domn.0.2M
==17507== Profiling application: ./ip-128-115-246-7-executable/cfd_332 ../../data/cfd/missile.domn.0.2M
==17507== Profiling result:
            Type  Time(%)      Time     Calls       Avg       Min       Max  Name
                        %        ms                  ms        ms        ms
 GPU activities:    69.93  410.9985      6000  0.068499  0.061280  5.184388  cuda_compute_flux(int, int*, float*, float*, float*)
                    20.78  122.1256      6000  0.020354  0.018848  0.022401  cuda_time_step(int, int, float*, float*, float*, float*)
                     4.92  28.93759      2000  0.014468  0.013536  0.017856  [CUDA memcpy DtoD]
                     4.36  25.65160      2000  0.012825  0.011136  0.969537  cuda_compute_step_factor(int, float*, float*, float*)
                     0.00  0.026560         3  8.85e-03  6.37e-03  0.012928  cuda_initialize_variables(int, float*)
                     0.00  7.84e-03         5  1.57e-03  1.47e-03  1.86e-03  [CUDA memcpy HtoD]
                     0.00  2.24e-03         1  2.24e-03  2.24e-03  2.24e-03  [CUDA memset]
      API calls:    43.01  345.1608     14003  0.024649  5.51e-03  0.692709  cudaLaunchKernel
                    26.54  212.9698         5  42.59395  9.13e-03  212.9318  cudaMemcpyToSymbol
                    20.51  164.5809      2000  0.082290  0.013117  0.724064  cudaMemcpy
                     4.09  32.86048         2  16.43024  0.012978  32.84750  cudaThreadSynchronize
                     2.76  22.14198     28003  7.90e-04  6.32e-04  0.014870  cudaGetLastError
                     2.56  20.56794         3  6.855980  0.026619  20.48315  cudaMallocManaged
                     0.28  2.207649         7  0.315378  0.176333  0.815136  cudaFree
                     0.09  0.721210         1  0.721210  0.721210  0.721210  cuDeviceTotalMem
                     0.09  0.693297         4  0.173324  0.133204  0.251631  cudaMalloc
                     0.04  0.301707        97  3.11e-03  7.62e-04  0.079180  cuDeviceGetAttribute
                     0.03  0.209521         1  0.209521  0.209521  0.209521  cudaGetDeviceProperties
                     0.00  0.031244         3  0.010414  3.31e-03  0.023807  cudaMemAdvise
                     0.00  0.023710         1  0.023710  0.023710  0.023710  cuDeviceGetName
                     0.00  0.020501         1  0.020501  0.020501  0.020501  cudaMemset
                     0.00  4.48e-03         1  4.48e-03  4.48e-03  4.48e-03  cudaSetDevice
                     0.00  4.35e-03         3  1.45e-03  8.19e-04  2.34e-03  cuDeviceGetCount
                     0.00  3.42e-03         1  3.42e-03  3.42e-03  3.42e-03  cuDeviceGetPCIBusId
                     0.00  2.24e-03         2  1.12e-03  8.37e-04  1.40e-03  cuDeviceGet
                     0.00  2.10e-03         1  2.10e-03  2.10e-03  2.10e-03  cudaGetDevice
                     0.00  9.87e-04         1  9.87e-04  9.87e-04  9.87e-04  cuDeviceGetUuid

==17507== Unified Memory profiling result:
Device "Tesla V100-SXM2-16GB (0)"
   Count  Avg Size  Min Size  Max Size  Total Size  Total Time  Name
     561  27.551KB  4.0000KB  564.00KB  15.09375MB    2.856352ms  Host To Device
      16         -         -         -           -    7.117664ms  Gpu page fault groups
Total CPU Page faults: 2752
