==30028== NVPROF is profiling process 30028, command: ./ip-128-115-246-7-executable/cfd_625 ../../data/cfd/fvcorr.domn.097K
==30028== Profiling application: ./ip-128-115-246-7-executable/cfd_625 ../../data/cfd/fvcorr.domn.097K
==30028== Profiling result:
            Type  Time(%)      Time     Calls       Avg       Min       Max  Name
                        %        ms                  ms        ms        ms
 GPU activities:    97.90  2.69e+03      6000  0.449146  0.428448  4.532799  cuda_compute_flux(int, int*, float*, float*, float*)
                     1.44  39.50065      6000  6.58e-03  5.95e-03  7.94e-03  cuda_time_step(int, int, float*, float*, float*, float*)
                     0.36  9.864830      2000  4.93e-03  4.51e-03  0.012928  [CUDA memcpy DtoD]
                     0.30  8.360541      2000  4.18e-03  3.55e-03  0.890431  cuda_compute_step_factor(int, float*, float*, float*)
                     0.00  0.016672         3  5.56e-03  3.20e-03  7.71e-03  cuda_initialize_variables(int, float*)
                     0.00  7.90e-03         5  1.58e-03  1.50e-03  1.86e-03  [CUDA memcpy HtoD]
                     0.00  2.02e-03         1  2.02e-03  2.02e-03  2.02e-03  [CUDA memset]
      API calls:    57.14  1.70e+03     14003  0.121150  5.34e-03  0.841682  cudaLaunchKernel
                    28.90  857.9957      2000  0.428997  0.013238  1.067926  cudaMemcpy
                     7.29  216.5646         5  43.31293  8.34e-03  216.5280  cudaMemcpyToSymbol
                     5.10  151.5021         2  75.75104  0.012632  151.4895  cudaThreadSynchronize
                     0.77  22.71477     28003  8.11e-04  6.15e-04  0.626414  cudaGetLastError
                     0.69  20.49552         3  6.831841  0.016298  20.44900  cudaMallocManaged
                     0.04  1.298870         7  0.185552  0.094102  0.457157  cudaFree
                     0.02  0.719882         1  0.719882  0.719882  0.719882  cuDeviceTotalMem
                     0.02  0.640300         4  0.160075  0.117066  0.260979  cudaMalloc
                     0.01  0.303899        97  3.13e-03  7.64e-04  0.080217  cuDeviceGetAttribute
                     0.01  0.208182         1  0.208182  0.208182  0.208182  cudaGetDeviceProperties
                     0.00  0.031137         3  0.010379  5.05e-03  0.019165  cudaMemAdvise
                     0.00  0.023344         1  0.023344  0.023344  0.023344  cuDeviceGetName
                     0.00  0.019674         1  0.019674  0.019674  0.019674  cudaMemset
                     0.00  4.32e-03         1  4.32e-03  4.32e-03  4.32e-03  cudaSetDevice
                     0.00  4.11e-03         3  1.37e-03  8.12e-04  2.10e-03  cuDeviceGetCount
                     0.00  3.20e-03         1  3.20e-03  3.20e-03  3.20e-03  cuDeviceGetPCIBusId
                     0.00  2.31e-03         2  1.15e-03  7.94e-04  1.52e-03  cuDeviceGet
                     0.00  2.10e-03         1  2.10e-03  2.10e-03  2.10e-03  cudaGetDevice
                     0.00  1.10e-03         1  1.10e-03  1.10e-03  1.10e-03  cuDeviceGetUuid

==30028== Unified Memory profiling result:
Device "Tesla V100-SXM2-16GB (0)"
   Count  Avg Size  Min Size  Max Size  Total Size  Total Time  Name
      56  33.928KB  4.0000KB  464.00KB  1.855469MB    0.315552ms  Host To Device
      30         -         -         -           -    5.986816ms  Gpu page fault groups
     746  6.1065KB  4.0000KB  84.000KB  4.449219MB           -  Remote mapping from device
Total CPU Page faults: 387
Total remote mappings to CPU: 746
