==22981== NVPROF is profiling process 22981, command: ./ip-128-115-246-7-executable/cfd_461 ../../data/cfd/fvcorr.domn.097K
==22981== Profiling application: ./ip-128-115-246-7-executable/cfd_461 ../../data/cfd/fvcorr.domn.097K
==22981== Profiling result:
            Type  Time(%)      Time     Calls       Avg       Min       Max  Name
                        %        ms                  ms        ms        ms
 GPU activities:    58.57  202.5209      6000  0.033753  0.029856  2.552783  cuda_compute_flux(int, int*, float*, float*, float*)
                    25.61  88.55942      2000  0.044279  0.039617  0.063616  cuda_compute_step_factor(int, float*, float*, float*)
                    12.71  43.93380      6000  7.32e-03  6.56e-03  8.87e-03  cuda_time_step(int, int, float*, float*, float*, float*)
                     3.11  10.73994      2000  5.37e-03  4.74e-03  0.017248  [CUDA memcpy DtoD]
                     0.00  0.016416         3  5.47e-03  3.14e-03  7.78e-03  cuda_initialize_variables(int, float*)
                     0.00  8.29e-03         5  1.66e-03  1.50e-03  1.89e-03  [CUDA memcpy HtoD]
                     0.00  2.43e-03         1  2.43e-03  2.43e-03  2.43e-03  [CUDA memset]
      API calls:    38.43  217.5175         5  43.50350  8.72e-03  217.4803  cudaMemcpyToSymbol
                    36.98  209.2902     14003  0.014946  5.45e-03  0.644800  cudaLaunchKernel
                    13.19  74.67358      2000  0.037336  0.013090  0.659689  cudaMemcpy
                     3.83  21.66427     28003  7.73e-04  7.24e-04  0.013001  cudaGetLastError
                     3.62  20.48687         3  6.828956  0.015543  20.44327  cudaMallocManaged
                     3.40  19.21695         2  9.608476  0.013610  19.20334  cudaThreadSynchronize
                     0.21  1.195905         7  0.170843  0.056261  0.420790  cudaFree
                     0.13  0.720987         1  0.720987  0.720987  0.720987  cuDeviceTotalMem
                     0.11  0.638548         4  0.159637  0.121621  0.255745  cudaMalloc
                     0.05  0.306078        97  3.15e-03  7.65e-04  0.081232  cuDeviceGetAttribute
                     0.04  0.211197         1  0.211197  0.211197  0.211197  cudaGetDeviceProperties
                     0.00  0.023679         1  0.023679  0.023679  0.023679  cuDeviceGetName
                     0.00  0.019686         2  9.84e-03  6.32e-03  0.013368  cudaMemAdvise
                     0.00  0.019029         1  0.019029  0.019029  0.019029  cudaMemset
                     0.00  4.56e-03         1  4.56e-03  4.56e-03  4.56e-03  cudaSetDevice
                     0.00  4.26e-03         3  1.42e-03  8.79e-04  2.22e-03  cuDeviceGetCount
                     0.00  3.78e-03         1  3.78e-03  3.78e-03  3.78e-03  cuDeviceGetPCIBusId
                     0.00  2.44e-03         2  1.22e-03  8.63e-04  1.58e-03  cuDeviceGet
                     0.00  1.99e-03         1  1.99e-03  1.99e-03  1.99e-03  cudaGetDevice
                     0.00  1.12e-03         1  1.12e-03  1.12e-03  1.12e-03  cuDeviceGetUuid

==22981== Unified Memory profiling result:
Device "Tesla V100-SXM2-16GB (0)"
   Count  Avg Size  Min Size  Max Size  Total Size  Total Time  Name
     106  57.320KB  4.0000KB  900.00KB  5.933594MB    0.886848ms  Host To Device
       8         -         -         -           -    2.510976ms  Gpu page fault groups
       4  95.000KB  4.0000KB  248.00KB  380.0000KB           -  Remote mapping from device
Total CPU Page faults: 49
Total remote mappings to CPU: 4
