==8102== NVPROF is profiling process 8102, command: ./ip-128-115-246-7-executable/cfd_066 ../../data/cfd/fvcorr.domn.193K
==8102== Profiling application: ./ip-128-115-246-7-executable/cfd_066 ../../data/cfd/fvcorr.domn.193K
==8102== Profiling result:
            Type  Time(%)      Time     Calls       Avg       Min       Max  Name
                        %        ms                  ms        ms        ms
 GPU activities:    67.72  306.4913      6000  0.051081  0.046559  4.477896  cuda_compute_flux(int, int*, float*, float*, float*)
                    24.19  109.5038      6000  0.018250  0.016320  0.020256  cuda_time_step(int, int, float*, float*, float*, float*)
                     4.21  19.05562      2000  9.53e-03  8.90e-03  0.012512  [CUDA memcpy DtoD]
                     3.85  17.43256      2000  8.72e-03  8.00e-03  0.011104  cuda_compute_step_factor(int, float*, float*, float*)
                     0.02  0.080703         6  0.013450  1.47e-03  0.072831  [CUDA memcpy HtoD]
                     0.01  0.024543         3  8.18e-03  6.14e-03  0.011935  cuda_initialize_variables(int, float*)
                     0.00  2.43e-03         1  2.43e-03  2.43e-03  2.43e-03  [CUDA memset]
      API calls:    43.02  287.5429     14003  0.020534  5.41e-03  0.619034  cudaLaunchKernel
                    31.99  213.8231         5  42.76461  8.27e-03  213.7858  cudaMemcpyToSymbol
                    13.72  91.72955      2001  0.045841  9.44e-03  0.669552  cudaMemcpy
                     4.31  28.82374         2  14.41187  0.010298  28.81344  cudaThreadSynchronize
                     3.32  22.18175     28003  7.92e-04  6.98e-04  0.633565  cudaGetLastError
                     3.07  20.48586         2  10.24293  0.040119  20.44574  cudaMallocManaged
                     0.26  1.708782         7  0.244111  0.029851  0.699201  cudaFree
                     0.11  0.748664         5  0.149732  9.60e-03  0.279991  cudaMalloc
                     0.11  0.721300         1  0.721300  0.721300  0.721300  cuDeviceTotalMem
                     0.05  0.302698        97  3.12e-03  7.68e-04  0.079045  cuDeviceGetAttribute
                     0.03  0.208651         1  0.208651  0.208651  0.208651  cudaGetDeviceProperties
                     0.00  0.023442         1  0.023442  0.023442  0.023442  cuDeviceGetName
                     0.00  0.019758         2  9.88e-03  3.83e-03  0.015928  cudaMemAdvise
                     0.00  0.017747         1  0.017747  0.017747  0.017747  cudaMemset
                     0.00  5.49e-03         3  1.83e-03  9.70e-04  3.33e-03  cuDeviceGetCount
                     0.00  4.75e-03         1  4.75e-03  4.75e-03  4.75e-03  cudaSetDevice
                     0.00  3.61e-03         1  3.61e-03  3.61e-03  3.61e-03  cuDeviceGetPCIBusId
                     0.00  2.70e-03         2  1.35e-03  8.42e-04  1.85e-03  cuDeviceGet
                     0.00  1.99e-03         1  1.99e-03  1.99e-03  1.99e-03  cudaGetDevice
                     0.00  1.07e-03         1  1.07e-03  1.07e-03  1.07e-03  cuDeviceGetUuid

==8102== Unified Memory profiling result:
Device "Tesla V100-SXM2-16GB (0)"
   Count  Avg Size  Min Size  Max Size  Total Size  Total Time  Name
     339  35.681KB  4.0000KB  992.00KB  11.81250MB    1.983744ms  Host To Device
      13         -         -         -           -    4.979840ms  Gpu page fault groups
Total CPU Page faults: 78
