==19282== NVPROF is profiling process 19282, command: ./ip-128-115-246-7-executable/cfd_363 ../../data/cfd/fvcorr.domn.193K
==19282== Profiling application: ./ip-128-115-246-7-executable/cfd_363 ../../data/cfd/fvcorr.domn.193K
==19282== Profiling result:
            Type  Time(%)      Time     Calls       Avg       Min       Max  Name
                        %        ms                  ms        ms        ms
 GPU activities:    68.15  311.0155      6000  0.051835  0.047840  4.160121  cuda_compute_flux(int, int*, float*, float*, float*)
                    23.52  107.3550      6000  0.017892  0.016512  0.019936  cuda_time_step(int, int, float*, float*, float*, float*)
                     4.20  19.17526      2000  9.59e-03  8.96e-03  0.013152  [CUDA memcpy DtoD]
                     4.12  18.81381      2000  9.41e-03  8.32e-03  0.910814  cuda_compute_step_factor(int, float*, float*, float*)
                     0.01  0.023328         3  7.78e-03  5.73e-03  0.011808  cuda_initialize_variables(int, float*)
                     0.00  7.90e-03         5  1.58e-03  1.50e-03  1.86e-03  [CUDA memcpy HtoD]
                     0.00  2.85e-03         1  2.85e-03  2.85e-03  2.85e-03  [CUDA memset]
      API calls:    43.42  290.3410     14003  0.020734  5.29e-03  0.663329  cudaLaunchKernel
                    31.62  211.4074         5  42.28148  8.99e-03  211.3698  cudaMemcpyToSymbol
                    13.74  91.88805      2000  0.045944  8.78e-03  0.675730  cudaMemcpy
                     4.34  28.98714         2  14.49357  0.012997  28.97414  cudaThreadSynchronize
                     3.22  21.55945     28003  7.69e-04  7.25e-04  0.014131  cudaGetLastError
                     3.07  20.55784         3  6.852612  0.021836  20.48303  cudaMallocManaged
                     0.28  1.858755         7  0.265536  0.159120  0.729068  cudaFree
                     0.11  0.717107         1  0.717107  0.717107  0.717107  cuDeviceTotalMem
                     0.11  0.707206         4  0.176801  0.126631  0.266643  cudaMalloc
                     0.04  0.298715        97  3.08e-03  7.62e-04  0.077699  cuDeviceGetAttribute
                     0.03  0.210163         1  0.210163  0.210163  0.210163  cudaGetDeviceProperties
                     0.00  0.031440         3  0.010480  3.91e-03  0.022323  cudaMemAdvise
                     0.00  0.022889         1  0.022889  0.022889  0.022889  cuDeviceGetName
                     0.00  0.020683         1  0.020683  0.020683  0.020683  cudaMemset
                     0.00  4.49e-03         1  4.49e-03  4.49e-03  4.49e-03  cudaSetDevice
                     0.00  4.07e-03         1  4.07e-03  4.07e-03  4.07e-03  cuDeviceGetPCIBusId
                     0.00  4.03e-03         3  1.34e-03  8.55e-04  1.94e-03  cuDeviceGetCount
                     0.00  2.28e-03         2  1.14e-03  8.29e-04  1.45e-03  cuDeviceGet
                     0.00  2.02e-03         1  2.02e-03  2.02e-03  2.02e-03  cudaGetDevice
                     0.00  1.07e-03         1  1.07e-03  1.07e-03  1.07e-03  cuDeviceGetUuid

==19282== Unified Memory profiling result:
Device "Tesla V100-SXM2-16GB (0)"
   Count  Avg Size  Min Size  Max Size  Total Size  Total Time  Name
     319  40.288KB  4.0000KB  992.00KB  12.55078MB    2.003648ms  Host To Device
      16         -         -         -           -    5.414912ms  Gpu page fault groups
Total CPU Page faults: 83
