==12255== NVPROF is profiling process 12255, command: ./ip-128-115-246-7-executable/cfd_204 ../../data/cfd/fvcorr.domn.193K
==12255== Profiling application: ./ip-128-115-246-7-executable/cfd_204 ../../data/cfd/fvcorr.domn.193K
==12255== Profiling result:
            Type  Time(%)      Time     Calls       Avg       Min       Max  Name
                        %        ms                  ms        ms        ms
 GPU activities:    97.40  5.27e+03      6000  0.878230  0.847772  1.677784  cuda_compute_flux(int, int*, float*, float*, float*)
                     1.89  102.3174      6000  0.017052  0.015999  0.019648  cuda_time_step(int, int, float*, float*, float*, float*)
                     0.35  19.07033      2000  9.54e-03  8.93e-03  0.012703  [CUDA memcpy DtoD]
                     0.35  18.72007      2000  9.36e-03  8.26e-03  1.075068  cuda_compute_step_factor(int, float*, float*, float*)
                     0.01  0.377183         6  0.062863  1.47e-03  0.369119  [CUDA memcpy HtoD]
                     0.00  0.023680         3  7.89e-03  5.09e-03  0.012736  cuda_initialize_variables(int, float*)
                     0.00  2.43e-03         1  2.43e-03  2.43e-03  2.43e-03  [CUDA memset]
      API calls:    59.69  3.36e+03     14003  0.239785  5.53e-03  1.674618  cudaLaunchKernel
                    29.00  1.63e+03      2001  0.815235  9.09e-03  1.662491  cudaMemcpy
                     6.66  374.7312         2  187.3656  8.67e-03  374.7225  cudaThreadSynchronize
                     3.81  214.0660         5  42.81321  8.66e-03  214.0286  cudaMemcpyToSymbol
                     0.40  22.53832     28003  8.04e-04  5.83e-04  0.630417  cudaGetLastError
                     0.37  20.54156         2  10.27078  0.062532  20.47902  cudaMallocManaged
                     0.03  1.785428         7  0.255061  0.120403  0.795035  cudaFree
                     0.02  0.844154         5  0.168830  0.135447  0.257763  cudaMalloc
                     0.01  0.720551         1  0.720551  0.720551  0.720551  cuDeviceTotalMem
                     0.01  0.303064        97  3.12e-03  7.66e-04  0.079355  cuDeviceGetAttribute
                     0.00  0.210062         1  0.210062  0.210062  0.210062  cudaGetDeviceProperties
                     0.00  0.036222         2  0.018111  6.73e-03  0.029491  cudaMemAdvise
                     0.00  0.024238         1  0.024238  0.024238  0.024238  cuDeviceGetName
                     0.00  0.017679         1  0.017679  0.017679  0.017679  cudaMemset
                     0.00  4.85e-03         1  4.85e-03  4.85e-03  4.85e-03  cudaSetDevice
                     0.00  4.75e-03         3  1.58e-03  8.58e-04  2.57e-03  cuDeviceGetCount
                     0.00  3.67e-03         1  3.67e-03  3.67e-03  3.67e-03  cuDeviceGetPCIBusId
                     0.00  2.61e-03         2  1.30e-03  8.37e-04  1.77e-03  cuDeviceGet
                     0.00  1.92e-03         1  1.92e-03  1.92e-03  1.92e-03  cudaGetDevice
                     0.00  1.07e-03         1  1.07e-03  1.07e-03  1.07e-03  cuDeviceGetUuid

==12255== Unified Memory profiling result:
Device "Tesla V100-SXM2-16GB (0)"
   Count  Avg Size  Min Size  Max Size  Total Size  Total Time  Name
      24  31.500KB  4.0000KB  156.00KB  756.0000KB    0.131488ms  Host To Device
       4         -         -         -           -    1.058368ms  Gpu page fault groups
      67  135.40KB  64.000KB  448.00KB  8.859375MB           -  Remote mapping from device
Total CPU Page faults: 247
Total remote mappings to CPU: 67
