==8159== NVPROF is profiling process 8159, command: ./ip-128-115-246-7-executable/cfd_100 ../../data/cfd/fvcorr.domn.097K
==8159== Profiling application: ./ip-128-115-246-7-executable/cfd_100 ../../data/cfd/fvcorr.domn.097K
==8159== Profiling result:
            Type  Time(%)      Time     Calls       Avg       Min       Max  Name
                        %        ms                  ms        ms        ms
 GPU activities:    73.26  194.3851      6000  0.032397  0.029376  0.036992  cuda_compute_flux(int, int*, float*, float*, float*)
                    18.88  50.08974      6000  8.35e-03  6.94e-03  0.010048  cuda_time_step(int, int, float*, float*, float*, float*)
                     4.17  11.07138      2000  5.54e-03  4.96e-03  0.015072  [CUDA memcpy DtoD]
                     3.43  9.097941      2000  4.55e-03  3.71e-03  0.767065  cuda_compute_step_factor(int, float*, float*, float*)
                     0.25  0.675353         7  0.096479  1.50e-03  0.521467  [CUDA memcpy HtoD]
                     0.01  0.017536         3  5.84e-03  3.49e-03  8.99e-03  cuda_initialize_variables(int, float*)
                     0.00  2.11e-03         1  2.11e-03  2.11e-03  2.11e-03  [CUDA memset]
      API calls:    44.79  217.1147         5  43.42294  8.09e-03  217.0783  cudaMemcpyToSymbol
                    27.59  133.7331     14003  9.55e-03  5.28e-03  0.618583  cudaLaunchKernel
                    14.97  72.57353      2002  0.036250  0.012958  0.585939  cudaMemcpy
                     4.66  22.59062     28003  8.06e-04  5.80e-04  0.609699  cudaGetLastError
                     4.22  20.47814         1  20.47814  20.47814  20.47814  cudaMallocManaged
                     3.12  15.13492         2  7.567461  9.71e-03  15.12521  cudaThreadSynchronize
                     0.20  0.947891         7  0.135413  0.015747  0.238108  cudaFree
                     0.18  0.858301         6  0.143050  8.92e-03  0.264029  cudaMalloc
                     0.15  0.711839         1  0.711839  0.711839  0.711839  cuDeviceTotalMem
                     0.06  0.301485        97  3.11e-03  7.66e-04  0.078984  cuDeviceGetAttribute
                     0.05  0.228303         1  0.228303  0.228303  0.228303  cudaGetDeviceProperties
                     0.00  0.023720         1  0.023720  0.023720  0.023720  cuDeviceGetName
                     0.00  0.021390         1  0.021390  0.021390  0.021390  cudaMemAdvise
                     0.00  0.017598         1  0.017598  0.017598  0.017598  cudaMemset
                     0.00  4.56e-03         3  1.52e-03  8.29e-04  2.43e-03  cuDeviceGetCount
                     0.00  4.17e-03         1  4.17e-03  4.17e-03  4.17e-03  cudaSetDevice
                     0.00  3.99e-03         1  3.99e-03  3.99e-03  3.99e-03  cuDeviceGetPCIBusId
                     0.00  2.37e-03         2  1.18e-03  8.45e-04  1.52e-03  cuDeviceGet
                     0.00  2.02e-03         1  2.02e-03  2.02e-03  2.02e-03  cudaGetDevice
                     0.00  1.02e-03         1  1.02e-03  1.02e-03  1.02e-03  cuDeviceGetUuid

==8159== Unified Memory profiling result:
Device "Tesla V100-SXM2-16GB (0)"
   Count  Avg Size  Min Size  Max Size  Total Size  Total Time  Name
      10  38.000KB  4.0000KB  180.00KB  380.0000KB    0.060192ms  Host To Device
       2         -         -         -           -    0.757664ms  Gpu page fault groups
Total CPU Page faults: 95
