==4341== NVPROF is profiling process 4341, command: ./ip-128-115-246-7-executable/cfd_001 ../../data/cfd/fvcorr.domn.097K
==4341== Profiling application: ./ip-128-115-246-7-executable/cfd_001 ../../data/cfd/fvcorr.domn.097K
==4341== Profiling result:
            Type  Time(%)      Time     Calls       Avg       Min       Max  Name
                        %        ms                  ms        ms        ms
 GPU activities:    75.21  195.1563      6000  0.032526  0.028991  2.375859  cuda_compute_flux(int, int*, float*, float*, float*)
                    17.31  44.91272      6000  7.49e-03  6.75e-03  9.31e-03  cuda_time_step(int, int, float*, float*, float*, float*)
                     4.22  10.94144      2000  5.47e-03  4.99e-03  0.013951  [CUDA memcpy DtoD]
                     3.18  8.248043      2000  4.12e-03  3.68e-03  5.38e-03  cuda_compute_step_factor(int, float*, float*, float*)
                     0.07  0.191066         7  0.027295  1.47e-03  0.145467  [CUDA memcpy HtoD]
                     0.01  0.016832         3  5.61e-03  2.98e-03  8.06e-03  cuda_initialize_variables(int, float*)
                     0.00  2.08e-03         1  2.08e-03  2.08e-03  2.08e-03  [CUDA memset]
      API calls:    45.15  215.5367         5  43.10735  8.26e-03  215.5006  cudaMemcpyToSymbol
                    27.24  130.0565     14003  9.29e-03  5.19e-03  0.089065  cudaLaunchKernel
                    14.88  71.03687      2002  0.035482  0.012688  0.664939  cudaMemcpy
                     4.70  22.41423     28003  8.00e-04  7.22e-04  0.612869  cudaGetLastError
                     4.28  20.43226         1  20.43226  20.43226  20.43226  cudaMallocManaged
                     3.09  14.76475         2  7.382374  9.73e-03  14.75502  cudaThreadSynchronize
                     0.22  1.068640         7  0.152662  0.028962  0.428183  cudaFree
                     0.17  0.793230         6  0.132205  0.013168  0.256319  cudaMalloc
                     0.15  0.720343         1  0.720343  0.720343  0.720343  cuDeviceTotalMem
                     0.06  0.302227        97  3.12e-03  7.64e-04  0.079572  cuDeviceGetAttribute
                     0.04  0.209023         1  0.209023  0.209023  0.209023  cudaGetDeviceProperties
                     0.01  0.024328         1  0.024328  0.024328  0.024328  cuDeviceGetName
                     0.00  0.017645         1  0.017645  0.017645  0.017645  cudaMemset
                     0.00  4.81e-03         3  1.60e-03  8.28e-04  2.66e-03  cuDeviceGetCount
                     0.00  4.71e-03         1  4.71e-03  4.71e-03  4.71e-03  cudaSetDevice
                     0.00  3.66e-03         1  3.66e-03  3.66e-03  3.66e-03  cuDeviceGetPCIBusId
                     0.00  2.22e-03         2  1.11e-03  8.71e-04  1.35e-03  cuDeviceGet
                     0.00  1.96e-03         1  1.96e-03  1.96e-03  1.96e-03  cudaGetDevice
                     0.00  1.11e-03         1  1.11e-03  1.11e-03  1.11e-03  cuDeviceGetUuid

==4341== Unified Memory profiling result:
Device "Tesla V100-SXM2-16GB (0)"
   Count  Avg Size  Min Size  Max Size  Total Size  Total Time  Name
     156  29.205KB  4.0000KB  792.00KB  4.449219MB    0.817632ms  Host To Device
       7         -         -         -           -    2.762048ms  Gpu page fault groups
Total CPU Page faults: 33
