==32320== NVPROF is profiling process 32320, command: ./ip-128-115-246-7-executable/cfd_666 ../../data/cfd/missile.domn.0.2M
==32320== Profiling application: ./ip-128-115-246-7-executable/cfd_666 ../../data/cfd/missile.domn.0.2M
==32320== Profiling result:
            Type  Time(%)      Time     Calls       Avg       Min       Max  Name
                        %        ms                  ms        ms        ms
 GPU activities:    69.93  411.6689      6000  0.068611  0.061792  5.033976  cuda_compute_flux(int, int*, float*, float*, float*)
                    20.76  122.1977      6000  0.020366  0.018784  0.022976  cuda_time_step(int, int, float*, float*, float*, float*)
                     4.91  28.89859      2000  0.014449  0.013536  0.017216  [CUDA memcpy DtoD]
                     4.40  25.87721      2000  0.012938  0.011136  1.134775  cuda_compute_step_factor(int, float*, float*, float*)
                     0.00  0.027104         3  9.03e-03  6.53e-03  0.013248  cuda_initialize_variables(int, float*)
                     0.00  7.84e-03         5  1.57e-03  1.47e-03  1.85e-03  [CUDA memcpy HtoD]
                     0.00  2.69e-03         1  2.69e-03  2.69e-03  2.69e-03  [CUDA memset]
      API calls:    43.09  346.0734     14003  0.024714  5.40e-03  0.633207  cudaLaunchKernel
                    26.52  213.0335         5  42.60669  8.56e-03  212.9960  cudaMemcpyToSymbol
                    20.49  164.6023      2000  0.082301  0.012809  0.695280  cudaMemcpy
                     4.09  32.81475         2  16.40737  0.013366  32.80138  cudaThreadSynchronize
                     2.71  21.79187     28003  7.78e-04  4.86e-04  0.042297  cudaGetLastError
                     2.56  20.60060         3  6.866866  0.026880  20.51377  cudaMallocManaged
                     0.28  2.213932         7  0.316276  0.176106  0.822347  cudaFree
                     0.09  0.718099         4  0.179524  0.130347  0.270985  cudaMalloc
                     0.09  0.713615         1  0.713615  0.713615  0.713615  cuDeviceTotalMem
                     0.04  0.305395        97  3.15e-03  7.65e-04  0.079997  cuDeviceGetAttribute
                     0.03  0.209569         1  0.209569  0.209569  0.209569  cudaGetDeviceProperties
                     0.00  0.037049         3  0.012349  3.13e-03  0.030079  cudaMemAdvise
                     0.00  0.024359         1  0.024359  0.024359  0.024359  cuDeviceGetName
                     0.00  0.020620         1  0.020620  0.020620  0.020620  cudaMemset
                     0.00  4.57e-03         3  1.52e-03  8.17e-04  2.49e-03  cuDeviceGetCount
                     0.00  4.42e-03         1  4.42e-03  4.42e-03  4.42e-03  cudaSetDevice
                     0.00  4.00e-03         1  4.00e-03  4.00e-03  4.00e-03  cuDeviceGetPCIBusId
                     0.00  2.32e-03         2  1.16e-03  8.16e-04  1.50e-03  cuDeviceGet
                     0.00  1.87e-03         1  1.87e-03  1.87e-03  1.87e-03  cudaGetDevice
                     0.00  1.09e-03         1  1.09e-03  1.09e-03  1.09e-03  cuDeviceGetUuid

==32320== Unified Memory profiling result:
Device "Tesla V100-SXM2-16GB (0)"
   Count  Avg Size  Min Size  Max Size  Total Size  Total Time  Name
     408  37.882KB  4.0000KB  872.00KB  15.09375MB    2.468640ms  Host To Device
      17         -         -         -           -    6.758272ms  Gpu page fault groups
Total CPU Page faults: 90
