==28830== NVPROF is profiling process 28830, command: ./ip-128-115-246-7-executable/cfd_603 ../../data/cfd/fvcorr.domn.193K
==28830== Profiling application: ./ip-128-115-246-7-executable/cfd_603 ../../data/cfd/fvcorr.domn.193K
==28830== Profiling result:
            Type  Time(%)      Time     Calls       Avg       Min       Max  Name
                        %        ms                  ms        ms        ms
 GPU activities:    67.84  311.4676      6000  0.051911  0.048191  3.281814  cuda_compute_flux(int, int*, float*, float*, float*)
                    23.80  109.2897      6000  0.018214  0.016736  0.019808  cuda_time_step(int, int, float*, float*, float*, float*)
                     4.19  19.22128      2000  9.61e-03  9.02e-03  0.012928  [CUDA memcpy DtoD]
                     4.08  18.74232      2000  9.37e-03  8.26e-03  0.907549  cuda_compute_step_factor(int, float*, float*, float*)
                     0.08  0.364127         6  0.060687  1.47e-03  0.355231  [CUDA memcpy HtoD]
                     0.01  0.024352         3  8.12e-03  5.54e-03  0.012576  cuda_initialize_variables(int, float*)
                     0.00  2.24e-03         1  2.24e-03  2.24e-03  2.24e-03  [CUDA memset]
      API calls:    43.48  290.8423     14003  0.020769  5.48e-03  0.648399  cudaLaunchKernel
                    31.36  209.7620         5  41.95241  8.29e-03  209.7237  cudaMemcpyToSymbol
                    13.74  91.91753      2001  0.045935  9.15e-03  0.681014  cudaMemcpy
                     4.37  29.19873         2  14.59936  9.54e-03  29.18919  cudaThreadSynchronize
                     3.40  22.71476     28003  8.11e-04  7.11e-04  0.628469  cudaGetLastError
                     3.06  20.47594         2  10.23797  0.037097  20.43884  cudaMallocManaged
                     0.27  1.777709         7  0.253958  0.120594  0.794515  cudaFree
                     0.13  0.855887         5  0.171177  0.129657  0.268897  cudaMalloc
                     0.11  0.713927         1  0.713927  0.713927  0.713927  cuDeviceTotalMem
                     0.05  0.302901        97  3.12e-03  7.57e-04  0.079998  cuDeviceGetAttribute
                     0.03  0.218662         1  0.218662  0.218662  0.218662  cudaGetDeviceProperties
                     0.00  0.024999         2  0.012499  6.22e-03  0.018779  cudaMemAdvise
                     0.00  0.023882         1  0.023882  0.023882  0.023882  cuDeviceGetName
                     0.00  0.016906         1  0.016906  0.016906  0.016906  cudaMemset
                     0.00  4.51e-03         3  1.50e-03  8.19e-04  2.47e-03  cuDeviceGetCount
                     0.00  4.27e-03         1  4.27e-03  4.27e-03  4.27e-03  cuDeviceGetPCIBusId
                     0.00  4.01e-03         1  4.01e-03  4.01e-03  4.01e-03  cudaSetDevice
                     0.00  2.34e-03         2  1.17e-03  8.45e-04  1.49e-03  cuDeviceGet
                     0.00  2.05e-03         1  2.05e-03  2.05e-03  2.05e-03  cudaGetDevice
                     0.00  1.02e-03         1  1.02e-03  1.02e-03  1.02e-03  cuDeviceGetUuid

==28830== Unified Memory profiling result:
Device "Tesla V100-SXM2-16GB (0)"
   Count  Avg Size  Min Size  Max Size  Total Size  Total Time  Name
     265  37.086KB  4.0000KB  996.00KB  9.597656MB    1.577568ms  Host To Device
      12         -         -         -           -    4.104224ms  Gpu page fault groups
Total CPU Page faults: 63
