==177647== NVPROF is profiling process 177647, command: ./lassen-executable/cfd_500 ../../data/cfd/fvcorr.domn.097K
==177647== Profiling application: ./lassen-executable/cfd_500 ../../data/cfd/fvcorr.domn.097K
==177647== Profiling result:
            Type  Time(%)      Time     Calls       Avg       Min       Max  Name
                        %        ms                  ms        ms        ms
 GPU activities:    66.60  195.5566      6000  0.032592  0.031007  0.036128  cuda_compute_flux(int, int*, float*, float*, float*)
                    19.77  58.03772      6000  9.67e-03  8.86e-03  0.011648  cuda_time_step(int, int, float*, float*, float*, float*)
                     7.38  21.67057      2000  0.010835  0.010496  0.376989  cuda_compute_step_factor(int, float*, float*, float*)
                     6.11  17.94724      2000  8.97e-03  8.86e-03  0.014368  [CUDA memcpy DtoD]
                     0.13  0.393948         7  0.056278  1.31e-03  0.323965  [CUDA memcpy HtoD]
                     0.01  0.016351         3  5.45e-03  5.22e-03  5.70e-03  cuda_initialize_variables(int, float*)
                     0.00  1.54e-03         1  1.54e-03  1.54e-03  1.54e-03  [CUDA memset]
      API calls:    51.73  328.5789         5  65.71577  0.012140  328.5288  cudaMemcpyToSymbol
                    27.19  172.7034     14003  0.012333  8.13e-03  0.100692  cudaLaunchKernel
                    11.86  75.30675      2002  0.037615  0.016601  0.412932  cudaMemcpy
                     3.20  20.30414         1  20.30414  20.30414  20.30414  cudaMallocManaged
                     2.56  16.25776         2  8.128881  0.012163  16.24560  cudaThreadSynchronize
                     1.10  7.013960     28003  2.50e-04  2.11e-04  3.20e-03  cudaGetLastError
                     0.81  5.123150       384  0.013341  2.29e-04  0.538567  cuDeviceGetAttribute
                     0.63  3.975251         4  0.993812  0.987440  0.999309  cuDeviceTotalMem
                     0.39  2.466542         6  0.411090  7.88e-03  0.644130  cudaMalloc
                     0.28  1.778523         7  0.254074  0.016099  0.370121  cudaFree
                     0.19  1.220531         1  1.220531  1.220531  1.220531  cudaGetDeviceProperties
                     0.07  0.424619         4  0.106154  0.103031  0.107883  cuDeviceGetName
                     0.00  0.019119         1  0.019119  0.019119  0.019119  cudaMemset
                     0.00  0.014068         1  0.014068  0.014068  0.014068  cudaMemAdvise
                     0.00  0.011936         4  2.98e-03  1.28e-03  7.22e-03  cuDeviceGetPCIBusId
                     0.00  0.010646         1  0.010646  0.010646  0.010646  cudaSetDevice
                     0.00  3.84e-03         8  4.79e-04  2.97e-04  1.19e-03  cuDeviceGet
                     0.00  1.57e-03         3  5.24e-04  4.24e-04  7.11e-04  cuDeviceGetCount
                     0.00  1.49e-03         1  1.49e-03  1.49e-03  1.49e-03  cudaGetDevice

==177647== Unified Memory profiling result:
Device "Tesla V100-SXM2-16GB (0)"
   Count  Avg Size  Min Size  Max Size  Total Size  Total Time  Name
       2         -         -         -           -    0.361536ms  Gpu page fault groups
       2  192.00KB  128.00KB  256.00KB  384.0000KB           -  Remote mapping from device
Total CPU Page faults: 1
Total remote mappings to CPU: 2
