==12065== NVPROF is profiling process 12065, command: ./lassen-executable/cfd_644 ../../data/cfd/missile.domn.0.2M
==12065== Profiling application: ./lassen-executable/cfd_644 ../../data/cfd/missile.domn.0.2M
==12065== Profiling result:
            Type  Time(%)      Time     Calls       Avg       Min       Max  Name
                        %        ms                  ms        ms        ms
 GPU activities:    66.74  404.5218      6000  0.067420  0.058143  3.629152  cuda_compute_flux(int, int*, float*, float*, float*)
                    22.37  135.5618      6000  0.022593  0.021024  0.025248  cuda_time_step(int, int, float*, float*, float*, float*)
                     6.03  36.56860      2000  0.018284  0.017472  0.020864  [CUDA memcpy DtoD]
                     4.85  29.39887      2000  0.014699  0.012928  0.671162  cuda_compute_step_factor(int, float*, float*, float*)
                     0.01  0.035775         3  0.011925  8.74e-03  0.013567  cuda_initialize_variables(int, float*)
                     0.00  6.85e-03         5  1.37e-03  1.28e-03  1.63e-03  [CUDA memcpy HtoD]
                     0.00  1.54e-03         1  1.54e-03  1.54e-03  1.54e-03  [CUDA memset]
      API calls:    39.71  376.5368     14003  0.026889  8.01e-03  0.134398  cudaLaunchKernel
                    34.68  328.8717         5  65.77434  0.012691  328.8188  cudaMemcpyToSymbol
                    17.52  166.1173      2000  0.083058  0.016611  0.092320  cudaMemcpy
                     3.58  33.90231         2  16.95116  0.014877  33.88743  cudaThreadSynchronize
                     2.14  20.32876         3  6.776253  0.037352  20.25134  cudaMallocManaged
                     0.78  7.370884     28003  2.63e-04  2.09e-04  0.083596  cudaGetLastError
                     0.54  5.124034       384  0.013343  2.34e-04  0.537313  cuDeviceGetAttribute
                     0.42  4.005953         4  1.001488  0.986858  1.023878  cuDeviceTotalMem
                     0.23  2.165890         4  0.541472  0.432169  0.724200  cudaMalloc
                     0.22  2.110701         7  0.301528  0.188007  0.395406  cudaFree
                     0.13  1.222435         1  1.222435  1.222435  1.222435  cudaGetDeviceProperties
                     0.04  0.424485         4  0.106121  0.102685  0.108214  cuDeviceGetName
                     0.00  0.023133         1  0.023133  0.023133  0.023133  cudaMemset
                     0.00  0.020971         3  6.99e-03  4.31e-03  0.011962  cudaMemAdvise
                     0.00  0.011467         4  2.87e-03  1.30e-03  6.56e-03  cuDeviceGetPCIBusId
                     0.00  0.010894         1  0.010894  0.010894  0.010894  cudaSetDevice
                     0.00  3.09e-03         8  3.86e-04  2.99e-04  5.78e-04  cuDeviceGet
                     0.00  1.63e-03         1  1.63e-03  1.63e-03  1.63e-03  cudaGetDevice
                     0.00  1.57e-03         3  5.22e-04  4.06e-04  6.21e-04  cuDeviceGetCount

==12065== Unified Memory profiling result:
Device "Tesla V100-SXM2-16GB (0)"
   Count  Avg Size  Min Size  Max Size  Total Size  Total Time  Name
     109  142.68KB  64.000KB  960.00KB  15.18750MB    0.548992ms  Host To Device
       4         -         -         -           -    4.207712ms  Gpu page fault groups
      97  150.43KB  64.000KB  576.00KB  14.25000MB           -  Remote mapping from device
       3  320.00KB  128.00KB  448.00KB  960.0000KB           -  Remote mapping to device
Total CPU Page faults: 90
Total remote mappings from CPU: 3
Total remote mappings to CPU: 97
