==141593== NVPROF is profiling process 141593, command: ./lassen-executable/cfd_044 ../../data/cfd/fvcorr.domn.193K
==141593== Profiling application: ./lassen-executable/cfd_044 ../../data/cfd/fvcorr.domn.193K
==141593== Profiling result:
            Type  Time(%)      Time     Calls       Avg       Min       Max  Name
                        %        ms                  ms        ms        ms
 GPU activities:    65.35  313.5920      6000  0.052265  0.049504  3.339491  cuda_compute_flux(int, int*, float*, float*, float*)
                    25.14  120.6170      6000  0.020102  0.018464  0.023488  cuda_time_step(int, int, float*, float*, float*, float*)
                     5.01  24.04769      2000  0.012023  0.011424  0.015104  [CUDA memcpy DtoD]
                     4.49  21.55239      2000  0.010776  0.010336  0.012480  cuda_compute_step_factor(int, float*, float*, float*)
                     0.01  0.027392         3  9.13e-03  6.94e-03  0.012832  cuda_initialize_variables(int, float*)
                     0.01  0.024256         6  4.04e-03  1.31e-03  0.017344  [CUDA memcpy HtoD]
                     0.00  1.50e-03         1  1.50e-03  1.50e-03  1.50e-03  [CUDA memset]
      API calls:    40.09  329.7107         5  65.94214  0.011802  329.6609  cudaMemcpyToSymbol
                    39.48  324.7105     14003  0.023188  8.04e-03  0.128478  cudaLaunchKernel
                    11.57  95.15861      2001  0.047555  0.010312  0.116553  cudaMemcpy
                     3.66  30.07752         2  15.03876  0.011804  30.06571  cudaThreadSynchronize
                     2.48  20.37453         2  10.18726  0.042857  20.33167  cudaMallocManaged
                     0.88  7.249818     28003  2.58e-04  2.10e-04  0.079104  cudaGetLastError
                     0.64  5.268722       384  0.013720  2.32e-04  0.658530  cuDeviceGetAttribute
                     0.48  3.980128         4  0.995032  0.987794  1.000586  cuDeviceTotalMem
                     0.27  2.204756         5  0.440951  8.85e-03  0.757611  cudaMalloc
                     0.23  1.927896         7  0.275413  0.023315  0.395337  cudaFree
                     0.15  1.229044         1  1.229044  1.229044  1.229044  cudaGetDeviceProperties
                     0.05  0.427415         4  0.106853  0.104148  0.108427  cuDeviceGetName
                     0.00  0.020491         1  0.020491  0.020491  0.020491  cudaMemset
                     0.00  0.014278         2  7.14e-03  4.47e-03  9.81e-03  cudaMemAdvise
                     0.00  0.012111         4  3.03e-03  1.34e-03  7.28e-03  cuDeviceGetPCIBusId
                     0.00  9.93e-03         1  9.93e-03  9.93e-03  9.93e-03  cudaSetDevice
                     0.00  3.41e-03         8  4.26e-04  2.78e-04  6.03e-04  cuDeviceGet
                     0.00  1.55e-03         3  5.16e-04  4.12e-04  6.64e-04  cuDeviceGetCount
                     0.00  1.52e-03         1  1.52e-03  1.52e-03  1.52e-03  cudaGetDevice

==141593== Unified Memory profiling result:
Device "Tesla V100-SXM2-16GB (0)"
   Count  Avg Size  Min Size  Max Size  Total Size  Total Time  Name
      95  128.00KB  64.000KB  576.00KB  11.87500MB    0.441920ms  Host To Device
       1         -         -         -           -    3.140256ms  Gpu page fault groups
      90  135.11KB  64.000KB  448.00KB  11.87500MB           -  Remote mapping from device
Total CPU Page faults: 79
Total remote mappings to CPU: 90
