==177146== NVPROF is profiling process 177146, command: ./lassen-executable/cfd_464 ../../data/cfd/fvcorr.domn.097K
==177146== Profiling application: ./lassen-executable/cfd_464 ../../data/cfd/fvcorr.domn.097K
==177146== Profiling result:
            Type  Time(%)      Time     Calls       Avg       Min       Max  Name
                        %        ms                  ms        ms        ms
 GPU activities:    68.64  194.0033      6000  0.032333  0.030240  0.811897  cuda_compute_flux(int, int*, float*, float*, float*)
                    20.30  57.36791      6000  9.56e-03  9.02e-03  0.011040  cuda_time_step(int, int, float*, float*, float*, float*)
                     6.38  18.02579      2000  9.01e-03  8.86e-03  0.014048  [CUDA memcpy DtoD]
                     4.68  13.22888      2000  6.61e-03  5.76e-03  1.336917  cuda_compute_step_factor(int, float*, float*, float*)
                     0.01  0.022336         3  7.44e-03  5.31e-03  9.66e-03  cuda_initialize_variables(int, float*)
                     0.00  6.85e-03         5  1.37e-03  1.28e-03  1.63e-03  [CUDA memcpy HtoD]
                     0.00  1.54e-03         1  1.54e-03  1.54e-03  1.54e-03  [CUDA memset]
      API calls:    52.74  330.2446         5  66.04892  0.012675  330.1927  cudaMemcpyToSymbol
                    26.13  163.6260     14003  0.011685  8.00e-03  0.100073  cudaLaunchKernel
                    11.91  74.56291      2000  0.037281  0.016518  0.045722  cudaMemcpy
                     3.25  20.34032         3  6.780107  9.82e-03  20.28956  cudaMallocManaged
                     2.49  15.57905         2  7.789523  0.013518  15.56553  cudaThreadSynchronize
                     1.13  7.093951     28003  2.53e-04  2.09e-04  0.079690  cudaGetLastError
                     0.82  5.140515       384  0.013386  2.36e-04  0.544293  cuDeviceGetAttribute
                     0.64  4.010862         4  1.002715  0.993983  1.021372  cuDeviceTotalMem
                     0.31  1.927380         4  0.481845  0.426550  0.627197  cudaMalloc
                     0.30  1.901890         7  0.271698  0.053565  0.354546  cudaFree
                     0.20  1.221554         1  1.221554  1.221554  1.221554  cudaGetDeviceProperties
                     0.07  0.432205         4  0.108051  0.104981  0.113794  cuDeviceGetName
                     0.00  0.024313         3  8.10e-03  4.22e-03  0.012383  cudaMemAdvise
                     0.00  0.023532         1  0.023532  0.023532  0.023532  cudaMemset
                     0.00  0.011240         4  2.81e-03  1.33e-03  6.23e-03  cuDeviceGetPCIBusId
                     0.00  0.010742         1  0.010742  0.010742  0.010742  cudaSetDevice
                     0.00  3.15e-03         8  3.94e-04  2.97e-04  5.32e-04  cuDeviceGet
                     0.00  1.50e-03         1  1.50e-03  1.50e-03  1.50e-03  cudaGetDevice
                     0.00  1.49e-03         3  4.96e-04  4.24e-04  6.21e-04  cuDeviceGetCount

==177146== Unified Memory profiling result:
Device "Tesla V100-SXM2-16GB (0)"
   Count  Avg Size  Min Size  Max Size  Total Size  Total Time  Name
      46  141.91KB  64.000KB  960.00KB  6.375000MB    0.233792ms  Host To Device
       6         -         -         -           -    2.070944ms  Gpu page fault groups
      49  101.88KB  64.000KB  256.00KB  4.875000MB           -  Remote mapping from device
       6  266.67KB  64.000KB  512.00KB  1.562500MB           -  Remote mapping to device
Total CPU Page faults: 47
Total remote mappings from CPU: 6
Total remote mappings to CPU: 49
