==164203== NVPROF is profiling process 164203, command: ./lassen-executable/cfd_323 ../../data/cfd/fvcorr.domn.097K
==164203== Profiling application: ./lassen-executable/cfd_323 ../../data/cfd/fvcorr.domn.097K
==164203== Profiling result:
            Type  Time(%)      Time     Calls       Avg       Min       Max  Name
                        %        ms                  ms        ms        ms
 GPU activities:    78.20  318.8651      6000  0.053144  0.050912  0.737434  cuda_compute_flux(int, int*, float*, float*, float*)
                    14.25  58.10151      6000  9.68e-03  8.99e-03  0.011296  cuda_time_step(int, int, float*, float*, float*, float*)
                     4.42  18.02447      2000  9.01e-03  8.90e-03  0.013824  [CUDA memcpy DtoD]
                     3.13  12.75680      2000  6.38e-03  6.11e-03  0.335005  cuda_compute_step_factor(int, float*, float*, float*)
                     0.01  0.022592         3  7.53e-03  5.63e-03  9.73e-03  cuda_initialize_variables(int, float*)
                     0.00  6.82e-03         5  1.36e-03  1.28e-03  1.63e-03  [CUDA memcpy HtoD]
                     0.00  1.54e-03         1  1.54e-03  1.54e-03  1.54e-03  [CUDA memset]
      API calls:    43.92  329.8571         5  65.97141  0.012542  329.8046  cudaMemcpyToSymbol
                    32.19  241.7983     14003  0.017267  8.03e-03  0.101602  cudaLaunchKernel
                    15.19  114.0976      2000  0.057048  0.016656  0.065137  cudaMemcpy
                     3.03  22.78568         2  11.39284  0.015255  22.77043  cudaThreadSynchronize
                     2.72  20.39219         3  6.797397  9.72e-03  20.34082  cudaMallocManaged
                     0.96  7.191095     28003  2.56e-04  2.09e-04  0.115865  cudaGetLastError
                     0.68  5.123589       384  0.013342  2.33e-04  0.534389  cuDeviceGetAttribute
                     0.53  3.972583         4  0.993145  0.987144  0.998090  cuDeviceTotalMem
                     0.29  2.171277         7  0.310182  0.100235  0.420939  cudaFree
                     0.26  1.971944         4  0.492986  0.427385  0.652208  cudaMalloc
                     0.16  1.222087         1  1.222087  1.222087  1.222087  cudaGetDeviceProperties
                     0.06  0.423545         4  0.105886  0.103250  0.107634  cuDeviceGetName
                     0.00  0.027022         3  9.01e-03  4.62e-03  0.014279  cudaMemAdvise
                     0.00  0.024503         1  0.024503  0.024503  0.024503  cudaMemset
                     0.00  9.97e-03         4  2.49e-03  1.31e-03  5.59e-03  cuDeviceGetPCIBusId
                     0.00  9.78e-03         1  9.78e-03  9.78e-03  9.78e-03  cudaSetDevice
                     0.00  3.17e-03         8  3.95e-04  2.98e-04  6.29e-04  cuDeviceGet
                     0.00  1.59e-03         3  5.31e-04  4.65e-04  6.40e-04  cuDeviceGetCount
                     0.00  1.48e-03         1  1.48e-03  1.48e-03  1.48e-03  cudaGetDevice

==164203== Unified Memory profiling result:
Device "Tesla V100-SXM2-16GB (0)"
   Count  Avg Size  Min Size  Max Size  Total Size  Total Time  Name
      12  133.33KB  64.000KB  448.00KB  1.562500MB    0.055040ms  Host To Device
       7         -         -         -           -    1.004608ms  Gpu page fault groups
       4  1.2031MB  320.00KB  2.0000MB  4.812500MB           -  Remote mapping to device
Total CPU Page faults: 29
Total remote mappings from CPU: 4
