==145727== NVPROF is profiling process 145727, command: ./lassen-executable/cfd_106 ../../data/cfd/fvcorr.domn.193K
==145727== Profiling application: ./lassen-executable/cfd_106 ../../data/cfd/fvcorr.domn.193K
==145727== Profiling result:
            Type  Time(%)      Time     Calls       Avg       Min       Max  Name
                        %        ms                  ms        ms        ms
 GPU activities:    65.65  322.7870      6000  0.053797  0.050048  2.880103  cuda_compute_flux(int, int*, float*, float*, float*)
                    24.82  122.0090      6000  0.020334  0.018720  0.022240  cuda_time_step(int, int, float*, float*, float*, float*)
                     4.85  23.86034      2000  0.011930  0.011200  0.016288  [CUDA memcpy DtoD]
                     4.63  22.76051      2000  0.011380  0.010432  0.660379  cuda_compute_step_factor(int, float*, float*, float*)
                     0.04  0.211775         6  0.035295  1.31e-03  0.204895  [CUDA memcpy HtoD]
                     0.01  0.029408         3  9.80e-03  7.74e-03  0.013248  cuda_initialize_variables(int, float*)
                     0.00  1.63e-03         1  1.63e-03  1.63e-03  1.63e-03  [CUDA memset]
      API calls:    39.97  333.1533     14003  0.023791  8.09e-03  0.108524  cudaLaunchKernel
                    39.46  328.8955         5  65.77911  0.012126  328.8441  cudaMemcpyToSymbol
                    11.75  97.89815      2001  0.048924  0.010436  0.318272  cudaMemcpy
                     3.62  30.12989         2  15.06495  0.011603  30.11829  cudaThreadSynchronize
                     2.44  20.36460         2  10.18230  0.040828  20.32377  cudaMallocManaged
                     0.88  7.359470     28003  2.62e-04  2.13e-04  0.118518  cudaGetLastError
                     0.62  5.131101       384  0.013362  2.33e-04  0.535708  cuDeviceGetAttribute
                     0.48  3.969317         4  0.992329  0.986427  0.994663  cuDeviceTotalMem
                     0.31  2.621892         5  0.524378  0.436548  0.679882  cudaMalloc
                     0.26  2.200369         7  0.314338  0.168992  0.428531  cudaFree
                     0.15  1.229099         1  1.229099  1.229099  1.229099  cudaGetDeviceProperties
                     0.05  0.425872         4  0.106468  0.103910  0.108241  cuDeviceGetName
                     0.00  0.021195         1  0.021195  0.021195  0.021195  cudaMemset
                     0.00  0.011307         4  2.83e-03  1.32e-03  6.36e-03  cuDeviceGetPCIBusId
                     0.00  0.010252         1  0.010252  0.010252  0.010252  cudaSetDevice
                     0.00  9.06e-03         1  9.06e-03  9.06e-03  9.06e-03  cudaMemAdvise
                     0.00  3.16e-03         8  3.95e-04  2.79e-04  5.39e-04  cuDeviceGet
                     0.00  1.78e-03         3  5.93e-04  4.22e-04  8.95e-04  cuDeviceGetCount
                     0.00  1.60e-03         1  1.60e-03  1.60e-03  1.60e-03  cudaGetDevice

==145727== Unified Memory profiling result:
Device "Tesla V100-SXM2-16GB (0)"
   Count  Avg Size  Min Size  Max Size  Total Size  Total Time  Name
      51  198.27KB  64.000KB  960.00KB  9.875000MB    0.300384ms  Host To Device
      15         -         -         -           -    3.434880ms  Gpu page fault groups
      31  293.16KB  64.000KB  1.0000MB  8.875000MB           -  Remote mapping to device
Total CPU Page faults: 63
Total remote mappings from CPU: 31
