==143050== NVPROF is profiling process 143050, command: ./lassen-executable/cfd_055 ../../data/cfd/missile.domn.0.2M
==143050== Profiling application: ./lassen-executable/cfd_055 ../../data/cfd/missile.domn.0.2M
==143050== Profiling result:
            Type  Time(%)      Time     Calls       Avg       Min       Max  Name
                        %        ms                  ms        ms        ms
 GPU activities:    87.28  1.42e+03      6000  0.236273  0.232926  3.336067  cuda_compute_flux(int, int*, float*, float*, float*)
                     8.60  139.6875      6000  0.023281  0.021824  0.027424  cuda_time_step(int, int, float*, float*, float*, float*)
                     2.31  37.54047      2000  0.018770  0.017632  0.020544  [CUDA memcpy DtoD]
                     1.80  29.30096      2000  0.014650  0.013184  0.016415  cuda_compute_step_factor(int, float*, float*, float*)
                     0.00  0.035264         3  0.011754  8.86e-03  0.013792  cuda_initialize_variables(int, float*)
                     0.00  0.026559         6  4.43e-03  1.28e-03  0.019743  [CUDA memcpy HtoD]
                     0.00  1.54e-03         1  1.54e-03  1.54e-03  1.54e-03  [CUDA memset]
      API calls:    51.68  1.02e+03     14003  0.072616  8.05e-03  0.238690  cudaLaunchKernel
                    24.68  485.6108      2001  0.242684  0.016603  0.263793  cudaMemcpy
                    16.78  330.1262         5  66.02525  0.012291  330.0754  cudaMemcpyToSymbol
                     4.67  91.80651         2  45.90326  0.012056  91.79446  cudaThreadSynchronize
                     1.03  20.35304         2  10.17652  0.042342  20.31069  cudaMallocManaged
                     0.37  7.341843     28003  2.62e-04  2.09e-04  0.100277  cudaGetLastError
                     0.26  5.113104       384  0.013315  2.32e-04  0.534483  cuDeviceGetAttribute
                     0.20  3.977219         4  0.994304  0.987442  1.000561  cuDeviceTotalMem
                     0.13  2.584381         7  0.369197  0.025870  0.851308  cudaFree
                     0.11  2.232266         5  0.446453  8.89e-03  0.687812  cudaMalloc
                     0.06  1.219064         1  1.219064  1.219064  1.219064  cudaGetDeviceProperties
                     0.02  0.423966         4  0.105991  0.103478  0.108108  cuDeviceGetName
                     0.00  0.020139         1  0.020139  0.020139  0.020139  cudaMemset
                     0.00  0.019407         2  9.70e-03  4.31e-03  0.015097  cudaMemAdvise
                     0.00  0.010945         1  0.010945  0.010945  0.010945  cudaSetDevice
                     0.00  0.010840         4  2.71e-03  1.26e-03  6.57e-03  cuDeviceGetPCIBusId
                     0.00  3.05e-03         8  3.81e-04  2.58e-04  5.93e-04  cuDeviceGet
                     0.00  1.53e-03         3  5.10e-04  4.34e-04  6.34e-04  cuDeviceGetCount
                     0.00  1.47e-03         1  1.47e-03  1.47e-03  1.47e-03  cudaGetDevice

==143050== Unified Memory profiling result:
Device "Tesla V100-SXM2-16GB (0)"
   Count  Avg Size  Min Size  Max Size  Total Size  Total Time  Name
      21         -         -         -           -    3.232384ms  Gpu page fault groups
     137  106.51KB  64.000KB  384.00KB  14.25000MB           -  Remote mapping from device
Total CPU Page faults: 8
Total remote mappings to CPU: 137
