==11967== NVPROF is profiling process 11967, command: ./lassen-executable/cfd_644 ../../data/cfd/fvcorr.domn.097K
==11967== Profiling application: ./lassen-executable/cfd_644 ../../data/cfd/fvcorr.domn.097K
==11967== Profiling result:
            Type  Time(%)      Time     Calls       Avg       Min       Max  Name
                        %        ms                  ms        ms        ms
 GPU activities:    68.78  194.8675      6000  0.032477  0.030496  1.670066  cuda_compute_flux(int, int*, float*, float*, float*)
                    20.44  57.91771      6000  9.65e-03  8.93e-03  0.011871  cuda_time_step(int, int, float*, float*, float*, float*)
                     6.36  18.03005      2000  9.02e-03  8.90e-03  0.014080  [CUDA memcpy DtoD]
                     4.41  12.49404      2000  6.25e-03  5.82e-03  0.465404  cuda_compute_step_factor(int, float*, float*, float*)
                     0.01  0.022720         3  7.57e-03  5.28e-03  9.86e-03  cuda_initialize_variables(int, float*)
                     0.00  6.85e-03         5  1.37e-03  1.28e-03  1.63e-03  [CUDA memcpy HtoD]
                     0.00  1.54e-03         1  1.54e-03  1.54e-03  1.54e-03  [CUDA memset]
      API calls:    52.62  329.3596         5  65.87193  0.012267  329.3089  cudaMemcpyToSymbol
                    26.16  163.7692     14003  0.011695  7.96e-03  0.079245  cudaLaunchKernel
                    11.94  74.72702      2000  0.037363  0.016510  0.043756  cudaMemcpy
                     3.26  20.37737         3  6.792456  9.99e-03  20.32676  cudaMallocManaged
                     2.50  15.64026         2  7.820127  0.014324  15.62593  cudaThreadSynchronize
                     1.14  7.108040     28003  2.53e-04  2.09e-04  0.094458  cudaGetLastError
                     0.82  5.120623       384  0.013334  2.33e-04  0.535663  cuDeviceGetAttribute
                     0.70  4.394320         4  1.098580  0.986829  1.416705  cuDeviceTotalMem
                     0.31  1.919409         4  0.479852  0.431150  0.608749  cudaMalloc
                     0.29  1.820290         7  0.260041  0.052076  0.355595  cudaFree
                     0.20  1.228566         1  1.228566  1.228566  1.228566  cudaGetDeviceProperties
                     0.07  0.426923         4  0.106730  0.104684  0.108334  cuDeviceGetName
                     0.00  0.023979         3  7.99e-03  4.16e-03  0.011988  cudaMemAdvise
                     0.00  0.023900         1  0.023900  0.023900  0.023900  cudaMemset
                     0.00  0.010559         4  2.64e-03  1.31e-03  5.92e-03  cuDeviceGetPCIBusId
                     0.00  0.010448         1  0.010448  0.010448  0.010448  cudaSetDevice
                     0.00  3.26e-03         8  4.08e-04  2.69e-04  6.04e-04  cuDeviceGet
                     0.00  1.63e-03         3  5.42e-04  4.29e-04  6.43e-04  cuDeviceGetCount
                     0.00  1.42e-03         1  1.42e-03  1.42e-03  1.42e-03  cudaGetDevice

==11967== Unified Memory profiling result:
Device "Tesla V100-SXM2-16GB (0)"
   Count  Avg Size  Min Size  Max Size  Total Size  Total Time  Name
      48  136.00KB  64.000KB  960.00KB  6.375000MB    0.221856ms  Host To Device
       3         -         -         -           -    2.098240ms  Gpu page fault groups
      59  105.22KB  64.000KB  320.00KB  6.062500MB           -  Remote mapping from device
       3  128.00KB  64.000KB  192.00KB  384.0000KB           -  Remote mapping to device
Total CPU Page faults: 47
Total remote mappings from CPU: 3
Total remote mappings to CPU: 59
