==12605== NVPROF is profiling process 12605, command: ./lassen-executable/cfd_651 ../../data/cfd/fvcorr.domn.097K
==12605== Profiling application: ./lassen-executable/cfd_651 ../../data/cfd/fvcorr.domn.097K
==12605== Profiling result:
            Type  Time(%)      Time     Calls       Avg       Min       Max  Name
                        %        ms                  ms        ms        ms
 GPU activities:    72.32  238.8197      6000  0.039803  0.037888  1.756434  cuda_compute_flux(int, int*, float*, float*, float*)
                    17.77  58.66143      6000  9.78e-03  8.93e-03  0.011392  cuda_time_step(int, int, float*, float*, float*, float*)
                     5.66  18.70368      2000  9.35e-03  8.83e-03  0.013568  [CUDA memcpy DtoD]
                     4.24  13.98865      2000  6.99e-03  6.37e-03  0.549340  cuda_compute_step_factor(int, float*, float*, float*)
                     0.01  0.022783         3  7.59e-03  5.37e-03  0.010016  cuda_initialize_variables(int, float*)
                     0.00  7.01e-03         5  1.40e-03  1.28e-03  1.79e-03  [CUDA memcpy HtoD]
                     0.00  1.54e-03         1  1.54e-03  1.54e-03  1.54e-03  [CUDA memset]
      API calls:    49.01  329.1857         5  65.83715  0.012306  329.1348  cudaMemcpyToSymbol
                    28.75  193.1426     14003  0.013792  8.08e-03  0.105136  cudaLaunchKernel
                    13.19  88.61248      2000  0.044306  0.016499  0.054095  cudaMemcpy
                     3.03  20.37416         3  6.791388  9.45e-03  20.32374  cudaMallocManaged
                     2.72  18.24402         2  9.122010  0.013546  18.23047  cudaThreadSynchronize
                     1.07  7.168860     28003  2.56e-04  2.12e-04  0.088121  cudaGetLastError
                     0.76  5.129775       384  0.013358  2.27e-04  0.540236  cuDeviceGetAttribute
                     0.63  4.261645         4  1.065411  0.988198  1.232431  cuDeviceTotalMem
                     0.29  1.937362         4  0.484340  0.429896  0.631791  cudaMalloc
                     0.28  1.887100         7  0.269585  0.055306  0.364866  cudaFree
                     0.18  1.220361         1  1.220361  1.220361  1.220361  cudaGetDeviceProperties
                     0.07  0.455531         4  0.113882  0.102982  0.136825  cuDeviceGetName
                     0.00  0.023661         1  0.023661  0.023661  0.023661  cudaMemset
                     0.00  0.020925         2  0.010462  8.88e-03  0.012048  cudaMemAdvise
                     0.00  0.011976         1  0.011976  0.011976  0.011976  cudaSetDevice
                     0.00  0.011027         4  2.76e-03  1.37e-03  6.18e-03  cuDeviceGetPCIBusId
                     0.00  4.37e-03         8  5.46e-04  3.05e-04  8.41e-04  cuDeviceGet
                     0.00  1.79e-03         3  5.96e-04  4.18e-04  7.08e-04  cuDeviceGetCount
                     0.00  1.48e-03         1  1.48e-03  1.48e-03  1.48e-03  cudaGetDevice

==12605== Unified Memory profiling result:
Device "Tesla V100-SXM2-16GB (0)"
   Count  Avg Size  Min Size  Max Size  Total Size  Total Time  Name
      30  164.27KB  64.000KB  896.00KB  4.812500MB    0.152480ms  Host To Device
      14         -         -         -           -    2.256512ms  Gpu page fault groups
      12  133.33KB  64.000KB  384.00KB  1.562500MB           -  Remote mapping from device
       2  160.00KB  128.00KB  192.00KB  320.0000KB           -  Remote mapping to device
Total CPU Page faults: 38
Total remote mappings from CPU: 2
Total remote mappings to CPU: 12
