==17099== NVPROF is profiling process 17099, command: ./bfs_133 ../../../data/bfs/graph4096.txt
==17099== Profiling application: ./bfs_133 ../../../data/bfs/graph4096.txt
==17099== Profiling result:
            Type  Time(%)      Time     Calls       Avg       Min       Max  Name
                        %        ms                  ms        ms        ms
 GPU activities:    50.90  0.701597         8  0.087699  1.38e-03  0.467647  Kernel2(bool*, bool*, bool*, bool*, int)
                    49.10  0.676766         8  0.084595  5.09e-03  0.418015  Kernel(Node*, int*, bool*, bool*, bool*, int*, int)
      API calls:    96.36  265.2745         7  37.89635  3.79e-03  265.2240  cudaMallocManaged
                     1.68  4.633249         4  1.158312  1.138293  1.201715  cuDeviceTotalMem
                     1.23  3.376864       388  8.70e-03  1.07e-04  0.360750  cuDeviceGetAttribute
                     0.50  1.364427         8  0.170553  5.92e-03  0.474967  cudaDeviceSynchronize
                     0.10  0.280067         4  0.070016  0.067558  0.072422  cuDeviceGetName
                     0.08  0.207437        16  0.012964  5.63e-03  0.044652  cudaLaunchKernel
                     0.03  0.082604         6  0.013767  9.54e-03  0.030219  cudaFree
                     0.02  0.056805         7  8.11e-03  4.51e-04  0.051634  cudaMemAdvise
                     0.00  8.89e-03         4  2.22e-03  1.17e-03  4.89e-03  cuDeviceGetPCIBusId
                     0.00  2.30e-03         8  2.87e-04  1.53e-04  5.52e-04  cuDeviceGet
                     0.00  1.25e-03         3  4.18e-04  1.32e-04  7.15e-04  cuDeviceGetCount
                     0.00  8.44e-04         4  2.11e-04  1.87e-04  2.71e-04  cuDeviceGetUuid

==17099== Unified Memory profiling result:
Device "Tesla V100-PCIE-32GB (0)"
   Count  Avg Size  Min Size  Max Size  Total Size  Total Time  Name
      29  14.620KB  4.0000KB  120.00KB  424.0000KB    0.101120ms  Host To Device
      16  12.000KB  4.0000KB  32.000KB  192.0000KB    0.036096ms  Device To Host
      38         -         -         -           -    1.281920ms  Gpu page fault groups
       1         -         -         -           -    0.417502ms  Page throttles
      17  4.0000KB  4.0000KB  4.0000KB  68.00000KB           -  Memory thrashes
       1  4.0000KB  4.0000KB  4.0000KB  4.000000KB           -  Remote mapping from device
Total CPU Page faults: 15
Total CPU thrashes: 17
Total CPU throttles: 1
Total remote mappings to CPU: 1
