==14531== NVPROF is profiling process 14531, command: ./bfs_065 ../../../data/bfs/graph1MW_6.txt
==14531== Profiling application: ./bfs_065 ../../../data/bfs/graph1MW_6.txt
==14531== Profiling result:
            Type  Time(%)      Time     Calls       Avg       Min       Max  Name
                        %        ms                  ms        ms        ms
 GPU activities:    96.12  11.98156        12  0.998463  7.23e-03  3.331179  Kernel(Node*, int*, bool*, bool*, bool*, int*, int)
                     3.88  0.483100        12  0.040258  5.73e-03  0.115168  Kernel2(bool*, bool*, bool*, bool*, int)
      API calls:    91.71  265.5580         7  37.93685  8.96e-03  265.1443  cudaMallocManaged
                     4.30  12.45144        12  1.037619  0.082794  3.341506  cudaDeviceSynchronize
                     1.61  4.660079         4  1.165019  1.143405  1.220666  cuDeviceTotalMem
                     1.16  3.355427       388  8.65e-03  1.08e-04  0.370710  cuDeviceGetAttribute
                     0.94  2.711603         6  0.451933  0.011381  1.576771  cudaFree
                     0.15  0.429900        24  0.017912  5.72e-03  0.157510  cudaLaunchKernel
                     0.10  0.296297         4  0.074074  0.067405  0.081489  cuDeviceGetName
                     0.03  0.088828         7  0.012689  5.45e-04  0.077714  cudaMemAdvise
                     0.00  8.97e-03         4  2.24e-03  1.20e-03  5.12e-03  cuDeviceGetPCIBusId
                     0.00  2.10e-03         8  2.62e-04  1.52e-04  5.55e-04  cuDeviceGet
                     0.00  1.18e-03         3  3.92e-04  1.56e-04  6.66e-04  cuDeviceGetCount
                     0.00  8.28e-04         4  2.07e-04  1.80e-04  2.77e-04  cuDeviceGetUuid

==14531== Unified Memory profiling result:
Device "Tesla V100-PCIE-32GB (0)"
   Count  Avg Size  Min Size  Max Size  Total Size  Total Time  Name
    1152  33.541KB  4.0000KB  760.00KB  37.73438MB    6.282112ms  Host To Device
      48  89.916KB  4.0000KB  0.9961MB  4.214844MB    0.410048ms  Device To Host
      63         -         -         -           -   11.678752ms  Gpu page fault groups
       1         -         -         -           -    0.377792ms  Page throttles
      17  4.0000KB  4.0000KB  4.0000KB  68.00000KB           -  Memory thrashes
Total CPU Page faults: 147
Total CPU thrashes: 17
Total CPU throttles: 1
