==16985== NVPROF is profiling process 16985, command: ./bfs_132 ../../../data/bfs/graph4096.txt
==16985== Profiling application: ./bfs_132 ../../../data/bfs/graph4096.txt
==16985== Profiling result:
            Type  Time(%)      Time     Calls       Avg       Min       Max  Name
                        %        ms                  ms        ms        ms
 GPU activities:    54.02  0.714750         8  0.089343  2.14e-03  0.474814  Kernel(Node*, int*, bool*, bool*, bool*, int*, int)
                    45.98  0.608350         8  0.076043  1.34e-03  0.457278  Kernel2(bool*, bool*, bool*, bool*, int)
      API calls:    96.02  266.1402         7  38.02003  5.70e-03  266.0565  cudaMallocManaged
                     1.68  4.659989         4  1.164997  1.142703  1.210547  cuDeviceTotalMem
                     1.55  4.282431       388  0.011037  1.10e-04  1.180821  cuDeviceGetAttribute
                     0.47  1.312149         8  0.164018  5.81e-03  0.469616  cudaDeviceSynchronize
                     0.11  0.292034         4  0.073008  0.067609  0.080450  cuDeviceGetName
                     0.08  0.229771         6  0.038295  0.026564  0.085274  cudaFree
                     0.07  0.205986        16  0.012874  6.13e-03  0.046058  cudaLaunchKernel
                     0.01  0.040882         7  5.84e-03  4.64e-04  0.033962  cudaMemAdvise
                     0.00  8.54e-03         4  2.13e-03  1.16e-03  4.89e-03  cuDeviceGetPCIBusId
                     0.00  2.12e-03         8  2.64e-04  1.35e-04  5.51e-04  cuDeviceGet
                     0.00  1.14e-03         3  3.78e-04  1.29e-04  6.65e-04  cuDeviceGetCount
                     0.00  9.34e-04         4  2.33e-04  1.91e-04  2.99e-04  cuDeviceGetUuid

==16985== Unified Memory profiling result:
Device "Tesla V100-PCIE-32GB (0)"
   Count  Avg Size  Min Size  Max Size  Total Size  Total Time  Name
      30  14.267KB  4.0000KB  120.00KB  428.0000KB    0.102592ms  Host To Device
      16  12.000KB  4.0000KB  32.000KB  192.0000KB    0.042208ms  Device To Host
      41         -         -         -           -    1.272608ms  Gpu page fault groups
       1         -         -         -           -    0.410613ms  Page throttles
      17  4.0000KB  4.0000KB  4.0000KB  68.00000KB           -  Memory thrashes
Total CPU Page faults: 15
Total CPU thrashes: 17
Total CPU throttles: 1
