==11356== NVPROF is profiling process 11356, command: ./bfs_021 ../../../data/bfs/graph1MW_6.txt
==11356== Profiling application: ./bfs_021 ../../../data/bfs/graph1MW_6.txt
==11356== Profiling result:
            Type  Time(%)      Time     Calls       Avg       Min       Max  Name
                        %        ms                  ms        ms        ms
 GPU activities:    96.10  11.75945        12  0.979954  7.23e-03  3.375277  Kernel(Node*, int*, bool*, bool*, bool*, int*, int)
                     3.90  0.477148        12  0.039762  5.86e-03  0.117504  Kernel2(bool*, bool*, bool*, bool*, int)
      API calls:    91.28  261.2964         7  37.32806  8.48e-03  260.8936  cudaMallocManaged
                     4.27  12.22309        12  1.018591  0.067261  3.384653  cudaDeviceSynchronize
                     1.61  4.601096         4  1.150274  1.127520  1.199665  cuDeviceTotalMem
                     1.16  3.324827       388  8.57e-03  1.09e-04  0.344805  cuDeviceGetAttribute
                     1.04  2.970630         6  0.495105  0.011859  1.884256  cudaFree
                     0.40  1.148575         7  0.164082  5.63e-04  1.139105  cudaMemAdvise
                     0.14  0.404936        24  0.016872  5.55e-03  0.145062  cudaLaunchKernel
                     0.10  0.281498         4  0.070374  0.067454  0.072400  cuDeviceGetName
                     0.00  8.82e-03         4  2.21e-03  1.13e-03  5.03e-03  cuDeviceGetPCIBusId
                     0.00  2.43e-03         8  3.04e-04  1.57e-04  6.64e-04  cuDeviceGet
                     0.00  1.12e-03         3  3.74e-04  1.20e-04  6.43e-04  cuDeviceGetCount
                     0.00  7.74e-04         4  1.93e-04  1.80e-04  2.22e-04  cuDeviceGetUuid

==11356== Unified Memory profiling result:
Device "Tesla V100-PCIE-32GB (0)"
   Count  Avg Size  Min Size  Max Size  Total Size  Total Time  Name
    1163  33.224KB  4.0000KB  760.00KB  37.73438MB    6.221664ms  Host To Device
      48  89.916KB  4.0000KB  0.9961MB  4.214844MB    0.410880ms  Device To Host
      68         -         -         -           -   11.837760ms  Gpu page fault groups
       1         -         -         -           -    0.397727ms  Page throttles
      17  4.0000KB  4.0000KB  4.0000KB  68.00000KB           -  Memory thrashes
Total CPU Page faults: 147
Total CPU thrashes: 17
Total CPU throttles: 1
