==10406== NVPROF is profiling process 10406, command: ./bfs_004 ../../../data/bfs/graph65536.txt
==10406== Profiling application: ./bfs_004 ../../../data/bfs/graph65536.txt
==10406== Profiling result:
            Type  Time(%)      Time     Calls       Avg       Min       Max  Name
                        %        ms                  ms        ms        ms
 GPU activities:    61.36  1.980250        10  0.198025  2.27e-03  0.806621  Kernel(Node*, int*, bool*, bool*, bool*, int*, int)
                    38.64  1.246845        10  0.124684  1.54e-03  0.646974  Kernel2(bool*, bool*, bool*, bool*, int)
      API calls:    95.41  266.7604         7  38.10863  4.80e-03  266.6857  cudaMallocManaged
                     1.63  4.551663         4  1.137915  1.129368  1.148803  cuDeviceTotalMem
                     1.52  4.238164       388  0.010923  1.07e-04  1.193635  cuDeviceGetAttribute
                     1.15  3.215132        10  0.321513  5.84e-03  0.885123  cudaDeviceSynchronize
                     0.10  0.285390         4  0.071347  0.068025  0.074514  cuDeviceGetName
                     0.10  0.284072         6  0.047345  0.017355  0.100688  cudaFree
                     0.09  0.243189        20  0.012159  5.52e-03  0.042845  cudaLaunchKernel
                     0.00  9.92e-03         6  1.65e-03  4.40e-04  7.31e-03  cudaMemAdvise
                     0.00  9.60e-03         4  2.40e-03  1.24e-03  4.80e-03  cuDeviceGetPCIBusId
                     0.00  2.14e-03         8  2.67e-04  1.55e-04  4.73e-04  cuDeviceGet
                     0.00  1.28e-03         3  4.26e-04  2.00e-04  6.96e-04  cuDeviceGetCount
                     0.00  8.33e-04         4  2.08e-04  1.81e-04  2.83e-04  cuDeviceGetUuid

==10406== Unified Memory profiling result:
Device "Tesla V100-PCIE-32GB (0)"
   Count  Avg Size  Min Size  Max Size  Total Size  Total Time  Name
     170  27.976KB  4.0000KB  524.00KB  4.644531MB    0.858912ms  Host To Device
      25  80.159KB  4.0000KB  384.00KB  1.957031MB    0.208064ms  Device To Host
      31         -         -         -           -    3.121152ms  Gpu page fault groups
       1         -         -         -           -    0.553281ms  Page throttles
      17  4.0000KB  4.0000KB  4.0000KB  68.00000KB           -  Memory thrashes
Total CPU Page faults: 26
Total CPU thrashes: 17
Total CPU throttles: 1
