==15008== NVPROF is profiling process 15008, command: ./bfs_103 ../../../data/bfs/graph1MW_6.txt
==15008== Profiling application: ./bfs_103 ../../../data/bfs/graph1MW_6.txt
==15008== Profiling result:
            Type  Time(%)      Time     Calls       Avg       Min       Max  Name
                        %        ms                  ms        ms        ms
 GPU activities:    96.24  11.84671        12  0.987225  7.52e-03  3.169515  Kernel(Node*, int*, bool*, bool*, bool*, int*, int)
                     3.76  0.462302        12  0.038525  5.89e-03  0.084512  Kernel2(bool*, bool*, bool*, bool*, int)
      API calls:    91.72  265.2180         7  37.88829  7.65e-03  264.7841  cudaMallocManaged
                     4.25  12.28799        12  1.023999  0.085286  3.180486  cudaDeviceSynchronize
                     1.62  4.678640         4  1.169660  1.144454  1.238608  cuDeviceTotalMem
                     1.17  3.380392       388  8.71e-03  1.07e-04  0.366513  cuDeviceGetAttribute
                     0.98  2.847540         6  0.474590  0.011186  1.674344  cudaFree
                     0.15  0.430119        24  0.017921  5.69e-03  0.170021  cudaLaunchKernel
                     0.10  0.282544         4  0.070636  0.067627  0.073210  cuDeviceGetName
                     0.00  0.012811         6  2.13e-03  5.33e-04  9.00e-03  cudaMemAdvise
                     0.00  8.94e-03         4  2.24e-03  1.17e-03  4.85e-03  cuDeviceGetPCIBusId
                     0.00  2.39e-03         8  2.98e-04  1.50e-04  6.45e-04  cuDeviceGet
                     0.00  1.22e-03         3  4.06e-04  1.38e-04  6.93e-04  cuDeviceGetCount
                     0.00  7.54e-04         4  1.88e-04  1.66e-04  2.29e-04  cuDeviceGetUuid

==15008== Unified Memory profiling result:
Device "Tesla V100-PCIE-32GB (0)"
   Count  Avg Size  Min Size  Max Size  Total Size  Total Time  Name
    1093  35.352KB  4.0000KB  760.00KB  37.73438MB    5.976416ms  Host To Device
      48  89.916KB  4.0000KB  0.9961MB  4.214844MB    0.413344ms  Device To Host
      63         -         -         -           -   11.542304ms  Gpu page fault groups
       1         -         -         -           -    0.365545ms  Page throttles
      17  4.0000KB  4.0000KB  4.0000KB  68.00000KB           -  Memory thrashes
Total CPU Page faults: 147
Total CPU thrashes: 17
Total CPU throttles: 1
