==5458== NVPROF is profiling process 5458, command: ./cfd_0300 ../../../data/cfd/fvcorr.domn.097K
==5458== Profiling application: ./cfd_0300 ../../../data/cfd/fvcorr.domn.097K
==5458== Profiling result:
            Type  Time(%)      Time     Calls       Avg       Min       Max  Name
                        %        ms                  ms        ms        ms
 GPU activities:    62.32  236.6468      6000  0.039441  0.034592  2.139317  cuda_compute_flux(int, int*, float*, float*, float*)
                    19.77  75.05358      2000  0.037526  0.036832  0.053024  cuda_compute_step_factor(int, float*, float*, float*)
                    14.43  54.80488      6000  9.13e-03  7.84e-03  0.011680  cuda_time_step(int, int, float*, float*, float*, float*)
                     3.15  11.96846      2000  5.98e-03  5.76e-03  0.011520  [CUDA memcpy DtoD]
                     0.32  1.224761         3  0.408253  0.258079  0.578045  cuda_initialize_variables(int, float*)
                     0.00  7.36e-03         5  1.47e-03  1.38e-03  1.76e-03  [CUDA memcpy HtoD]
                     0.00  4.06e-03         1  4.06e-03  4.06e-03  4.06e-03  [CUDA memset]
      API calls:    44.52  329.0510      2000  0.164525  0.023704  2.265082  cudaMemcpy
                    39.92  295.0715         5  59.01430  5.82e-03  295.0383  cudaMemcpyToSymbol
                    10.67  78.86156     14003  5.63e-03  4.49e-03  0.571705  cudaLaunchKernel
                     2.78  20.56496         7  2.937851  0.011242  20.44210  cudaMallocManaged
                     0.61  4.521400         4  1.130350  1.123199  1.139858  cuDeviceTotalMem
                     0.53  3.898416     28003  1.39e-04  8.50e-05  0.441449  cudaGetLastError
                     0.47  3.472082       388  8.95e-03  1.10e-04  0.376933  cuDeviceGetAttribute
                     0.18  1.325533         1  1.325533  1.325533  1.325533  cudaMemset
                     0.14  1.040878        10  0.104087  4.17e-04  0.372573  cudaFree
                     0.12  0.892683         1  0.892683  0.892683  0.892683  cudaGetDeviceProperties
                     0.04  0.282353         4  0.070588  0.068013  0.073822  cuDeviceGetName
                     0.02  0.162919         2  0.081459  4.75e-03  0.158169  cudaThreadSynchronize
                     0.00  0.021880         1  0.021880  0.021880  0.021880  cudaMemAdvise
                     0.00  8.92e-03         4  2.23e-03  1.19e-03  4.94e-03  cuDeviceGetPCIBusId
                     0.00  7.01e-03         1  7.01e-03  7.01e-03  7.01e-03  cudaSetDevice
                     0.00  2.48e-03         8  3.09e-04  1.69e-04  6.51e-04  cuDeviceGet
                     0.00  1.84e-03         1  1.84e-03  1.84e-03  1.84e-03  cudaGetDevice
                     0.00  1.36e-03         3  4.52e-04  1.29e-04  7.96e-04  cuDeviceGetCount
                     0.00  8.83e-04         4  2.20e-04  1.77e-04  2.80e-04  cuDeviceGetUuid

==5458== Unified Memory profiling result:
Device "Tesla V100-PCIE-32GB (0)"
   Count  Avg Size  Min Size  Max Size  Total Size  Total Time  Name
     134  46.447KB  4.0000KB  908.00KB  6.078125MB    0.839072ms  Host To Device
      24         -         -         -           -    3.472480ms  Gpu page fault groups
       4  95.000KB  60.000KB  192.00KB  380.0000KB           -  Remote mapping from device
Total CPU Page faults: 49
Total remote mappings to CPU: 4
