==43686== NVPROF is profiling process 43686, command: ./cfd_1512 ../../../data/cfd/missile.domn.0.2M
==43686== Profiling application: ./cfd_1512 ../../../data/cfd/missile.domn.0.2M
==43686== Profiling result:
            Type  Time(%)      Time     Calls       Avg       Min       Max  Name
                        %        ms                  ms        ms        ms
 GPU activities:    70.55  478.2860      6000  0.079714  0.068640  4.423976  cuda_compute_flux(int, int*, float*, float*, float*)
                    20.56  139.3718      6000  0.023228  0.021248  0.026528  cuda_time_step(int, int, float*, float*, float*, float*)
                     4.55  30.84810      2000  0.015424  0.014464  0.039424  [CUDA memcpy DtoD]
                     4.00  27.09834      2000  0.013549  0.011488  0.720508  cuda_compute_step_factor(int, float*, float*, float*)
                     0.34  2.300051         3  0.766683  0.621660  0.913307  cuda_initialize_variables(int, float*)
                     0.00  7.78e-03         5  1.56e-03  1.38e-03  2.05e-03  [CUDA memcpy HtoD]
                     0.00  2.08e-03         1  2.08e-03  2.08e-03  2.08e-03  [CUDA memset]
      API calls:    60.78  631.3832      2000  0.315691  0.044499  5.319314  cudaMemcpy
                    28.30  293.9951         5  58.79902  6.24e-03  293.9612  cudaMemcpyToSymbol
                     7.20  74.77041     14003  5.34e-03  4.16e-03  0.462750  cudaLaunchKernel
                     2.00  20.81788         7  2.973983  0.014683  20.45532  cudaMallocManaged
                     0.44  4.608165         4  1.152041  1.138033  1.189371  cuDeviceTotalMem
                     0.38  3.930419     28003  1.40e-04  8.60e-05  0.457472  cudaGetLastError
                     0.32  3.317123       388  8.55e-03  1.06e-04  0.345890  cuDeviceGetAttribute
                     0.25  2.633773         1  2.633773  2.633773  2.633773  cudaMemset
                     0.17  1.810054        10  0.181005  4.02e-04  0.832320  cudaFree
                     0.08  0.836389         1  0.836389  0.836389  0.836389  cudaGetDeviceProperties
                     0.03  0.310154         2  0.155077  0.011800  0.298354  cudaThreadSynchronize
                     0.03  0.278754         4  0.069688  0.067533  0.073591  cuDeviceGetName
                     0.00  0.022715         3  7.57e-03  2.53e-03  0.016755  cudaMemAdvise
                     0.00  9.07e-03         4  2.27e-03  1.20e-03  4.97e-03  cuDeviceGetPCIBusId
                     0.00  7.60e-03         1  7.60e-03  7.60e-03  7.60e-03  cudaSetDevice
                     0.00  2.31e-03         8  2.88e-04  1.54e-04  7.10e-04  cuDeviceGet
                     0.00  2.02e-03         1  2.02e-03  2.02e-03  2.02e-03  cudaGetDevice
                     0.00  1.25e-03         3  4.16e-04  1.37e-04  7.16e-04  cuDeviceGetCount
                     0.00  8.09e-04         4  2.02e-04  1.74e-04  2.73e-04  cuDeviceGetUuid

==43686== Unified Memory profiling result:
Device "Tesla V100-PCIE-32GB (0)"
   Count  Avg Size  Min Size  Max Size  Total Size  Total Time  Name
     437  35.368KB  4.0000KB  904.00KB  15.09375MB    2.416960ms  Host To Device
      45         -         -         -           -    8.200320ms  Gpu page fault groups
Total CPU Page faults: 979
