==10255== NVPROF is profiling process 10255, command: ./cfd_0355 ../../../data/cfd/missile.domn.0.2M
==10255== Profiling application: ./cfd_0355 ../../../data/cfd/missile.domn.0.2M
==10255== Profiling result:
            Type  Time(%)      Time     Calls       Avg       Min       Max  Name
                        %        ms                  ms        ms        ms
 GPU activities:    57.58  479.0687      6000  0.079844  0.068159  4.713956  cuda_compute_flux(int, int*, float*, float*, float*)
                    20.20  168.0604      2000  0.084030  0.081440  0.101567  cuda_compute_step_factor(int, float*, float*, float*)
                    18.25  151.8675      6000  0.025311  0.023392  0.034463  cuda_time_step(int, int, float*, float*, float*, float*)
                     3.69  30.73471      2000  0.015367  0.014432  0.021151  [CUDA memcpy DtoD]
                     0.27  2.232915         3  0.744305  0.652156  0.877691  cuda_initialize_variables(int, float*)
                     0.00  7.39e-03         5  1.48e-03  1.38e-03  1.79e-03  [CUDA memcpy HtoD]
                     0.00  2.08e-03         1  2.08e-03  2.08e-03  2.08e-03  [CUDA memset]
      API calls:    65.66  781.6945      2000  0.390847  0.044266  4.990582  cudaMemcpy
                    24.78  294.9488         5  58.98975  6.45e-03  294.8930  cudaMemcpyToSymbol
                     6.30  75.03608     14003  5.36e-03  4.34e-03  0.436433  cudaLaunchKernel
                     1.77  21.04035         7  3.005763  0.013881  20.44280  cudaMallocManaged
                     0.38  4.540882         4  1.135220  1.126848  1.142934  cuDeviceTotalMem
                     0.32  3.815489     28003  1.36e-04  8.40e-05  0.435203  cudaGetLastError
                     0.29  3.420077       388  8.81e-03  1.09e-04  0.381797  cuDeviceGetAttribute
                     0.21  2.451040         1  2.451040  2.451040  2.451040  cudaMemset
                     0.16  1.886342        10  0.188634  4.44e-04  0.887740  cudaFree
                     0.07  0.879587         1  0.879587  0.879587  0.879587  cudaGetDeviceProperties
                     0.03  0.386559         2  0.193279  0.015532  0.371027  cudaThreadSynchronize
                     0.02  0.291684         4  0.072921  0.068735  0.074980  cuDeviceGetName
                     0.00  0.020084         3  6.69e-03  1.65e-03  0.016079  cudaMemAdvise
                     0.00  9.84e-03         4  2.46e-03  1.22e-03  5.13e-03  cuDeviceGetPCIBusId
                     0.00  8.00e-03         1  8.00e-03  8.00e-03  8.00e-03  cudaSetDevice
                     0.00  2.58e-03         8  3.22e-04  1.60e-04  5.73e-04  cuDeviceGet
                     0.00  2.12e-03         1  2.12e-03  2.12e-03  2.12e-03  cudaGetDevice
                     0.00  1.37e-03         3  4.57e-04  2.51e-04  7.00e-04  cuDeviceGetCount
                     0.00  8.50e-04         4  2.12e-04  1.76e-04  2.63e-04  cuDeviceGetUuid

==10255== Unified Memory profiling result:
Device "Tesla V100-PCIE-32GB (0)"
   Count  Avg Size  Min Size  Max Size  Total Size  Total Time  Name
     439  33.129KB  4.0000KB  900.00KB  14.20313MB    2.362720ms  Host To Device
      41         -         -         -           -    8.054144ms  Gpu page fault groups
       5  182.40KB  64.000KB  400.00KB  912.0000KB           -  Remote mapping from device
Total CPU Page faults: 90
Total remote mappings to CPU: 5
