==6796== NVPROF is profiling process 6796, command: ./cfd_0313 ../../../data/cfd/missile.domn.0.2M
==6796== Profiling application: ./cfd_0313 ../../../data/cfd/missile.domn.0.2M
==6796== Profiling result:
            Type  Time(%)      Time     Calls       Avg       Min       Max  Name
                        %        ms                  ms        ms        ms
 GPU activities:    93.95  5.52e+03      6000  0.919170  0.907067  2.365746  cuda_compute_flux(int, int*, float*, float*, float*)
                     2.90  170.5301      2000  0.085265  0.081599  0.116607  cuda_compute_step_factor(int, float*, float*, float*)
                     2.58  151.4964      6000  0.025249  0.023584  0.034432  cuda_time_step(int, int, float*, float*, float*, float*)
                     0.53  30.91819      2000  0.015459  0.014528  0.021824  [CUDA memcpy DtoD]
                     0.04  2.365777         3  0.788592  0.628060  1.020858  cuda_initialize_variables(int, float*)
                     0.00  7.39e-03         5  1.48e-03  1.38e-03  1.79e-03  [CUDA memcpy HtoD]
                     0.00  2.11e-03         1  2.11e-03  2.11e-03  2.11e-03  [CUDA memset]
      API calls:    93.27  5.81e+03      2000  2.907194  0.064261  4.462385  cudaMemcpy
                     4.73  295.0907         5  59.01814  5.87e-03  295.0578  cudaMemcpyToSymbol
                     1.30  81.32209     14003  5.81e-03  4.38e-03  0.489949  cudaLaunchKernel
                     0.33  20.81899         7  2.974140  0.016170  20.42851  cudaMallocManaged
                     0.08  5.271395       388  0.013586  1.10e-04  2.221624  cuDeviceGetAttribute
                     0.07  4.648576         4  1.162144  1.138467  1.188720  cuDeviceTotalMem
                     0.06  3.526321     28003  1.25e-04  8.60e-05  0.011183  cudaGetLastError
                     0.05  2.902290         2  1.451145  8.71e-03  2.893576  cudaThreadSynchronize
                     0.04  2.602567         1  2.602567  2.602567  2.602567  cudaMemset
                     0.03  2.161279        10  0.216127  4.20e-04  1.121513  cudaFree
                     0.01  0.822807         1  0.822807  0.822807  0.822807  cudaGetDeviceProperties
                     0.00  0.299708         4  0.074927  0.067392  0.089249  cuDeviceGetName
                     0.00  0.022749         3  7.58e-03  1.79e-03  0.016185  cudaMemAdvise
                     0.00  0.010626         4  2.66e-03  1.24e-03  4.88e-03  cuDeviceGetPCIBusId
                     0.00  7.99e-03         1  7.99e-03  7.99e-03  7.99e-03  cudaSetDevice
                     0.00  2.50e-03         8  3.12e-04  1.60e-04  6.79e-04  cuDeviceGet
                     0.00  2.18e-03         1  2.18e-03  2.18e-03  2.18e-03  cudaGetDevice
                     0.00  1.35e-03         3  4.48e-04  1.22e-04  7.27e-04  cuDeviceGetCount
                     0.00  7.96e-04         4  1.99e-04  1.80e-04  2.39e-04  cuDeviceGetUuid

==6796== Unified Memory profiling result:
Device "Tesla V100-PCIE-32GB (0)"
   Count  Avg Size  Min Size  Max Size  Total Size  Total Time  Name
     107  33.981KB  4.0000KB  836.00KB  3.550781MB    0.610816ms  Host To Device
      35         -         -         -           -    4.457920ms  Gpu page fault groups
      80  147.75KB  64.000KB  512.00KB  11.54297MB           -  Remote mapping from device
Total CPU Page faults: 979
Total remote mappings to CPU: 80
