==13992== NVPROF is profiling process 13992, command: ./cfd_0444 ../../../data/cfd/missile.domn.0.2M
==13992== Profiling application: ./cfd_0444 ../../../data/cfd/missile.domn.0.2M
==13992== Profiling result:
            Type  Time(%)      Time     Calls       Avg       Min       Max  Name
                        %        ms                  ms        ms        ms
 GPU activities:    95.35  7.27e+03      6000  1.212471  1.205976  10.99472  cuda_compute_flux(int, int*, float*, float*, float*)
                     2.23  170.3593      2000  0.085179  0.081663  1.304920  cuda_compute_step_factor(int, float*, float*, float*)
                     1.98  151.3278      6000  0.025221  0.023264  0.035423  cuda_time_step(int, int, float*, float*, float*, float*)
                     0.41  30.95076      2000  0.015475  0.014464  0.022304  [CUDA memcpy DtoD]
                     0.03  2.234803         3  0.744934  0.585532  0.895515  cuda_initialize_variables(int, float*)
                     0.00  7.39e-03         5  1.48e-03  1.38e-03  1.79e-03  [CUDA memcpy HtoD]
                     0.00  2.14e-03         1  2.14e-03  2.14e-03  2.14e-03  [CUDA memset]
      API calls:    94.78  7.58e+03      2000  3.787684  0.069063  14.77617  cudaMemcpy
                     3.69  295.1199         5  59.02398  6.03e-03  295.0865  cudaMemcpyToSymbol
                     1.01  80.37432     14003  5.74e-03  4.22e-03  0.440740  cudaLaunchKernel
                     0.26  20.82775         7  2.975392  0.014318  20.47253  cudaMallocManaged
                     0.06  4.581774         4  1.145443  1.139844  1.152361  cuDeviceTotalMem
                     0.05  3.936716     28003  1.40e-04  8.50e-05  0.442396  cudaGetLastError
                     0.05  3.777708         2  1.888854  8.01e-03  3.769699  cudaThreadSynchronize
                     0.04  3.387956       388  8.73e-03  1.07e-04  0.358577  cuDeviceGetAttribute
                     0.03  2.521165         1  2.521165  2.521165  2.521165  cudaMemset
                     0.02  1.912784        10  0.191278  4.44e-04  0.884017  cudaFree
                     0.01  0.834458         1  0.834458  0.834458  0.834458  cudaGetDeviceProperties
                     0.00  0.278945         4  0.069736  0.067667  0.073364  cuDeviceGetName
                     0.00  0.020865         3  6.96e-03  1.65e-03  0.016811  cudaMemAdvise
                     0.00  8.90e-03         4  2.22e-03  1.18e-03  4.97e-03  cuDeviceGetPCIBusId
                     0.00  7.03e-03         1  7.03e-03  7.03e-03  7.03e-03  cudaSetDevice
                     0.00  2.53e-03         8  3.16e-04  1.42e-04  6.80e-04  cuDeviceGet
                     0.00  1.84e-03         1  1.84e-03  1.84e-03  1.84e-03  cudaGetDevice
                     0.00  1.36e-03         3  4.53e-04  1.27e-04  7.00e-04  cuDeviceGetCount
                     0.00  8.33e-04         4  2.08e-04  1.77e-04  2.80e-04  cuDeviceGetUuid

==13992== Unified Memory profiling result:
Device "Tesla V100-PCIE-32GB (0)"
   Count  Avg Size  Min Size  Max Size  Total Size  Total Time  Name
      88         -         -         -           -   16.321408ms  Gpu page fault groups
    2793  5.5332KB  4.0000KB  64.000KB  15.09375MB           -  Remote mapping from device
Total CPU Page faults: 9
Total remote mappings to CPU: 2793
