==4855== NVPROF is profiling process 4855, command: ./cfd_0251 ../../../data/cfd/missile.domn.0.2M
==4855== Profiling application: ./cfd_0251 ../../../data/cfd/missile.domn.0.2M
==4855== Profiling result:
            Type  Time(%)      Time     Calls       Avg       Min       Max  Name
                        %        ms                  ms        ms        ms
 GPU activities:    70.52  478.0801      6000  0.079680  0.068415  4.414215  cuda_compute_flux(int, int*, float*, float*, float*)
                    20.56  139.3992      6000  0.023233  0.021280  0.026848  cuda_time_step(int, int, float*, float*, float*, float*)
                     4.56  30.92408      2000  0.015462  0.014464  0.022176  [CUDA memcpy DtoD]
                     4.00  27.10909      2000  0.013554  0.011552  0.734140  cuda_compute_step_factor(int, float*, float*, float*)
                     0.36  2.420018         3  0.806672  0.652860  1.003387  cuda_initialize_variables(int, float*)
                     0.00  7.81e-03         5  1.56e-03  1.38e-03  1.92e-03  [CUDA memcpy HtoD]
                     0.00  2.08e-03         1  2.08e-03  2.08e-03  2.08e-03  [CUDA memset]
      API calls:    60.28  629.0386      2000  0.314519  0.075291  5.334087  cudaMemcpy
                    28.62  298.6970         5  59.73941  6.41e-03  298.6638  cudaMemcpyToSymbol
                     7.30  76.21135     14003  5.44e-03  4.24e-03  0.144442  cudaLaunchKernel
                     2.01  20.93035         7  2.990049  0.013725  20.56614  cudaMallocManaged
                     0.45  4.729591     28003  1.68e-04  8.60e-05  0.559163  cudaGetLastError
                     0.44  4.614274         4  1.153568  1.138082  1.169819  cuDeviceTotalMem
                     0.33  3.394213       388  8.75e-03  1.09e-04  0.371003  cuDeviceGetAttribute
                     0.26  2.719540         1  2.719540  2.719540  2.719540  cudaMemset
                     0.17  1.757932        10  0.175793  4.45e-04  0.746684  cudaFree
                     0.08  0.833259         1  0.833259  0.833259  0.833259  cudaGetDeviceProperties
                     0.03  0.311250         2  0.155625  0.016002  0.295248  cudaThreadSynchronize
                     0.03  0.287592         4  0.071898  0.067425  0.081680  cuDeviceGetName
                     0.00  0.051491         3  0.017163  1.87e-03  0.046515  cudaMemAdvise
                     0.00  9.34e-03         4  2.34e-03  1.21e-03  5.29e-03  cuDeviceGetPCIBusId
                     0.00  7.60e-03         1  7.60e-03  7.60e-03  7.60e-03  cudaSetDevice
                     0.00  2.36e-03         8  2.95e-04  1.74e-04  7.13e-04  cuDeviceGet
                     0.00  1.88e-03         1  1.88e-03  1.88e-03  1.88e-03  cudaGetDevice
                     0.00  1.28e-03         3  4.28e-04  1.35e-04  7.54e-04  cuDeviceGetCount
                     0.00  8.32e-04         4  2.08e-04  1.83e-04  2.51e-04  cuDeviceGetUuid

==4855== Unified Memory profiling result:
Device "Tesla V100-PCIE-32GB (0)"
   Count  Avg Size  Min Size  Max Size  Total Size  Total Time  Name
     414  37.333KB  4.0000KB  936.00KB  15.09375MB    2.338592ms  Host To Device
      45         -         -         -           -    8.680736ms  Gpu page fault groups
Total CPU Page faults: 2752
