==42812== NVPROF is profiling process 42812, command: ./cfd_1501 ../../../data/cfd/missile.domn.0.2M
==42812== Profiling application: ./cfd_1501 ../../../data/cfd/missile.domn.0.2M
==42812== Profiling result:
            Type  Time(%)      Time     Calls       Avg       Min       Max  Name
                        %        ms                  ms        ms        ms
 GPU activities:    70.53  478.7321      6000  0.079788  0.068608  4.416710  cuda_compute_flux(int, int*, float*, float*, float*)
                    20.60  139.8121      6000  0.023302  0.021344  0.026624  cuda_time_step(int, int, float*, float*, float*, float*)
                     4.55  30.87662      2000  0.015438  0.014624  0.022528  [CUDA memcpy DtoD]
                     4.00  27.13556      2000  0.013567  0.011392  0.715228  cuda_compute_step_factor(int, float*, float*, float*)
                     0.33  2.241939         3  0.747313  0.660284  0.900923  cuda_initialize_variables(int, float*)
                     0.00  7.36e-03         5  1.47e-03  1.38e-03  1.79e-03  [CUDA memcpy HtoD]
                     0.00  2.05e-03         1  2.05e-03  2.05e-03  2.05e-03  [CUDA memset]
      API calls:    59.71  622.8736      2000  0.311436  0.044438  5.304210  cudaMemcpy
                    28.65  298.8744         5  59.77489  6.01e-03  298.8411  cudaMemcpyToSymbol
                     7.73  80.69270     14003  5.76e-03  4.78e-03  0.457824  cudaLaunchKernel
                     2.00  20.91417         7  2.987738  0.013558  20.55605  cudaMallocManaged
                     0.49  5.094305       388  0.013129  1.11e-04  1.176512  cuDeviceGetAttribute
                     0.45  4.654205         4  1.163551  1.138315  1.190458  cuDeviceTotalMem
                     0.43  4.458208     28003  1.59e-04  8.60e-05  0.425766  cudaGetLastError
                     0.24  2.545161         1  2.545161  2.545161  2.545161  cudaMemset
                     0.16  1.646342        10  0.164634  4.01e-04  0.736198  cudaFree
                     0.08  0.825021         1  0.825021  0.825021  0.825021  cudaGetDeviceProperties
                     0.03  0.326634         4  0.081658  0.067741  0.104291  cuDeviceGetName
                     0.03  0.302644         2  0.151322  6.85e-03  0.295794  cudaThreadSynchronize
                     0.00  0.019421         2  9.71e-03  2.58e-03  0.016844  cudaMemAdvise
                     0.00  9.16e-03         4  2.29e-03  1.14e-03  5.12e-03  cuDeviceGetPCIBusId
                     0.00  7.61e-03         1  7.61e-03  7.61e-03  7.61e-03  cudaSetDevice
                     0.00  2.68e-03         8  3.34e-04  1.45e-04  6.62e-04  cuDeviceGet
                     0.00  1.81e-03         1  1.81e-03  1.81e-03  1.81e-03  cudaGetDevice
                     0.00  1.31e-03         3  4.37e-04  1.15e-04  7.27e-04  cuDeviceGetCount
                     0.00  8.91e-04         4  2.22e-04  1.80e-04  2.80e-04  cuDeviceGetUuid

==42812== Unified Memory profiling result:
Device "Tesla V100-PCIE-32GB (0)"
   Count  Avg Size  Min Size  Max Size  Total Size  Total Time  Name
     429  36.027KB  4.0000KB  932.00KB  15.09375MB    2.384608ms  Host To Device
      45         -         -         -           -    8.092832ms  Gpu page fault groups
Total CPU Page faults: 2752
