==6416== NVPROF is profiling process 6416, command: ./cfd_0310 ../../../data/cfd/missile.domn.0.2M
==6416== Profiling application: ./cfd_0310 ../../../data/cfd/missile.domn.0.2M
==6416== Profiling result:
            Type  Time(%)      Time     Calls       Avg       Min       Max  Name
                        %        ms                  ms        ms        ms
 GPU activities:    57.40  478.4286      6000  0.079738  0.068352  4.583397  cuda_compute_flux(int, int*, float*, float*, float*)
                    20.36  169.7493      2000  0.084874  0.081567  0.117759  cuda_compute_step_factor(int, float*, float*, float*)
                    18.24  152.0144      6000  0.025335  0.023456  0.035200  cuda_time_step(int, int, float*, float*, float*, float*)
                     3.70  30.85999      2000  0.015429  0.014496  0.024480  [CUDA memcpy DtoD]
                     0.30  2.482482         3  0.827494  0.736123  0.937755  cuda_initialize_variables(int, float*)
                     0.00  7.49e-03         5  1.50e-03  1.38e-03  1.92e-03  [CUDA memcpy HtoD]
                     0.00  2.05e-03         1  2.05e-03  2.05e-03  2.05e-03  [CUDA memset]
      API calls:    65.04  780.8172      2000  0.390408  0.033964  4.851146  cudaMemcpy
                    25.06  300.8696         5  60.17393  5.73e-03  300.8364  cudaMemcpyToSymbol
                     6.62  79.51768     14003  5.68e-03  4.51e-03  0.419594  cudaLaunchKernel
                     1.75  20.96529         7  2.995042  0.018877  20.51006  cudaMallocManaged
                     0.38  4.575515         4  1.143878  1.136890  1.150841  cuDeviceTotalMem
                     0.36  4.274816     28003  1.52e-04  8.60e-05  0.426737  cudaGetLastError
                     0.28  3.350471       388  8.64e-03  1.21e-04  0.350933  cuDeviceGetAttribute
                     0.23  2.730146         1  2.730146  2.730146  2.730146  cudaMemset
                     0.15  1.810347        10  0.181034  5.01e-04  0.786051  cudaFree
                     0.07  0.833786         1  0.833786  0.833786  0.833786  cudaGetDeviceProperties
                     0.03  0.390849         2  0.195424  0.011888  0.378961  cudaThreadSynchronize
                     0.02  0.286550         4  0.071637  0.067581  0.081020  cuDeviceGetName
                     0.00  0.042469         2  0.021234  8.12e-03  0.034346  cudaMemAdvise
                     0.00  8.83e-03         4  2.21e-03  1.11e-03  5.07e-03  cuDeviceGetPCIBusId
                     0.00  7.40e-03         1  7.40e-03  7.40e-03  7.40e-03  cudaSetDevice
                     0.00  2.42e-03         8  3.03e-04  1.31e-04  7.10e-04  cuDeviceGet
                     0.00  1.77e-03         1  1.77e-03  1.77e-03  1.77e-03  cudaGetDevice
                     0.00  1.27e-03         3  4.22e-04  1.12e-04  6.96e-04  cuDeviceGetCount
                     0.00  8.17e-04         4  2.04e-04  1.58e-04  2.62e-04  cuDeviceGetUuid

==6416== Unified Memory profiling result:
Device "Tesla V100-PCIE-32GB (0)"
   Count  Avg Size  Min Size  Max Size  Total Size  Total Time  Name
     362  40.177KB  4.0000KB  892.00KB  14.20313MB    2.174848ms  Host To Device
      41         -         -         -           -    7.753888ms  Gpu page fault groups
       5  182.40KB  64.000KB  400.00KB  912.0000KB           -  Remote mapping from device
Total CPU Page faults: 979
Total remote mappings to CPU: 5
