==41275== NVPROF is profiling process 41275, command: ./cfd_1443 ../../../data/cfd/missile.domn.0.2M
==41275== Profiling application: ./cfd_1443 ../../../data/cfd/missile.domn.0.2M
==41275== Profiling result:
            Type  Time(%)      Time     Calls       Avg       Min       Max  Name
                        %        ms                  ms        ms        ms
 GPU activities:    95.37  7.33e+03      6000  1.220950  1.206200  3.880070  cuda_compute_flux(int, int*, float*, float*, float*)
                     2.23  171.1053      2000  0.085552  0.081695  1.405622  cuda_compute_step_factor(int, float*, float*, float*)
                     1.97  151.4535      6000  0.025242  0.023263  0.034847  cuda_time_step(int, int, float*, float*, float*, float*)
                     0.40  31.01978      2000  0.015509  0.014624  0.022559  [CUDA memcpy DtoD]
                     0.03  2.341617         3  0.780539  0.665787  1.000730  cuda_initialize_variables(int, float*)
                     0.00  7.39e-03         5  1.48e-03  1.38e-03  1.79e-03  [CUDA memcpy HtoD]
                     0.00  2.05e-03         1  2.05e-03  2.05e-03  2.05e-03  [CUDA memset]
      API calls:    94.71  7.62e+03      2000  3.812119  0.064745  7.872173  cudaMemcpy
                     3.74  300.9775         5  60.19549  5.99e-03  300.9437  cudaMemcpyToSymbol
                     1.01  80.96977     14003  5.78e-03  4.38e-03  0.425572  cudaLaunchKernel
                     0.26  20.90274         7  2.986106  0.014119  20.50897  cudaMallocManaged
                     0.07  5.412561         4  1.353140  1.140008  1.979826  cuDeviceTotalMem
                     0.06  4.538491     28003  1.62e-04  8.50e-05  0.479050  cudaGetLastError
                     0.05  3.791855         2  1.895927  7.63e-03  3.784230  cudaThreadSynchronize
                     0.04  3.380869       388  8.71e-03  1.10e-04  0.363331  cuDeviceGetAttribute
                     0.03  2.606975         1  2.606975  2.606975  2.606975  cudaMemset
                     0.02  1.929713        10  0.192971  4.48e-04  0.919164  cudaFree
                     0.01  0.837592         1  0.837592  0.837592  0.837592  cudaGetDeviceProperties
                     0.00  0.292472         4  0.073118  0.068978  0.083711  cuDeviceGetName
                     0.00  0.040316         3  0.013438  2.28e-03  0.034726  cudaMemAdvise
                     0.00  9.43e-03         4  2.36e-03  1.11e-03  5.49e-03  cuDeviceGetPCIBusId
                     0.00  7.61e-03         1  7.61e-03  7.61e-03  7.61e-03  cudaSetDevice
                     0.00  2.55e-03         8  3.18e-04  1.53e-04  7.57e-04  cuDeviceGet
                     0.00  2.23e-03         1  2.23e-03  2.23e-03  2.23e-03  cudaGetDevice
                     0.00  1.21e-03         3  4.03e-04  1.24e-04  6.71e-04  cuDeviceGetCount
                     0.00  8.58e-04         4  2.14e-04  1.99e-04  2.33e-04  cuDeviceGetUuid

==41275== Unified Memory profiling result:
Device "Tesla V100-PCIE-32GB (0)"
   Count  Avg Size  Min Size  Max Size  Total Size  Total Time  Name
      73         -         -         -           -    9.345280ms  Gpu page fault groups
     689  22.432KB  4.0000KB  512.00KB  15.09375MB           -  Remote mapping from device
Total CPU Page faults: 68
Total remote mappings to CPU: 689
