==9223== NVPROF is profiling process 9223, command: ./cfd_0343 ../../../data/cfd/missile.domn.0.2M
==9223== Profiling application: ./cfd_0343 ../../../data/cfd/missile.domn.0.2M
==9223== Profiling result:
            Type  Time(%)      Time     Calls       Avg       Min       Max  Name
                        %        ms                  ms        ms        ms
 GPU activities:    95.42  7.41e+03      6000  1.235402  1.205977  4.081543  cuda_compute_flux(int, int*, float*, float*, float*)
                     2.20  170.8143      2000  0.085407  0.081600  0.107424  cuda_compute_step_factor(int, float*, float*, float*)
                     1.96  151.9288      6000  0.025321  0.023392  0.036224  cuda_time_step(int, int, float*, float*, float*, float*)
                     0.40  31.08349      2000  0.015541  0.014720  0.023872  [CUDA memcpy DtoD]
                     0.03  2.243954         3  0.747984  0.650204  0.889050  cuda_initialize_variables(int, float*)
                     0.00  7.58e-03         5  1.52e-03  1.38e-03  1.76e-03  [CUDA memcpy HtoD]
                     0.00  4.42e-03         1  4.42e-03  4.42e-03  4.42e-03  [CUDA memset]
      API calls:    94.80  7.71e+03      2000  3.855856  0.065579  6.660648  cudaMemcpy
                     3.67  298.3519         5  59.67038  5.78e-03  298.3187  cudaMemcpyToSymbol
                     0.99  80.66530     14003  5.76e-03  4.32e-03  0.431692  cudaLaunchKernel
                     0.26  20.90019         7  2.985740  0.018761  20.49873  cudaMallocManaged
                     0.07  5.428895         4  1.357223  1.138481  2.002663  cuDeviceTotalMem
                     0.05  4.301025     28003  1.53e-04  8.40e-05  0.471184  cudaGetLastError
                     0.05  4.058738         2  2.029369  7.34e-03  4.051403  cudaThreadSynchronize
                     0.04  3.388232       388  8.73e-03  1.08e-04  0.361037  cuDeviceGetAttribute
                     0.03  2.563074        10  0.256307  4.70e-04  1.351706  cudaFree
                     0.03  2.495790         1  2.495790  2.495790  2.495790  cudaMemset
                     0.01  0.826800         1  0.826800  0.826800  0.826800  cudaGetDeviceProperties
                     0.00  0.327830         4  0.081957  0.067692  0.104979  cuDeviceGetName
                     0.00  0.054276         3  0.018092  6.52e-03  0.034367  cudaMemAdvise
                     0.00  9.15e-03         4  2.29e-03  1.18e-03  5.16e-03  cuDeviceGetPCIBusId
                     0.00  7.18e-03         1  7.18e-03  7.18e-03  7.18e-03  cudaSetDevice
                     0.00  2.45e-03         8  3.06e-04  1.61e-04  7.97e-04  cuDeviceGet
                     0.00  1.81e-03         1  1.81e-03  1.81e-03  1.81e-03  cudaGetDevice
                     0.00  1.30e-03         3  4.34e-04  1.29e-04  7.26e-04  cuDeviceGetCount
                     0.00  8.50e-04         4  2.12e-04  1.93e-04  2.22e-04  cuDeviceGetUuid

==9223== Unified Memory profiling result:
Device "Tesla V100-PCIE-32GB (0)"
   Count  Avg Size  Min Size  Max Size  Total Size  Total Time  Name
      62         -         -         -           -    7.965536ms  Gpu page fault groups
     626  24.690KB  4.0000KB  512.00KB  15.09375MB           -  Remote mapping from device
Total CPU Page faults: 72
Total remote mappings to CPU: 626
