==42534== NVPROF is profiling process 42534, command: ./cfd_1455 ../../../data/cfd/fvcorr.domn.193K
==42534== Profiling application: ./cfd_1455 ../../../data/cfd/fvcorr.domn.193K
==42534== Profiling result:
            Type  Time(%)      Time     Calls       Avg       Min       Max  Name
                        %        ms                  ms        ms        ms
 GPU activities:    55.75  360.2762      6000  0.060046  0.056863  3.820875  cuda_compute_flux(int, int*, float*, float*, float*)
                    21.81  140.9518      2000  0.070475  0.067840  0.877276  cuda_compute_step_factor(int, float*, float*, float*)
                    18.87  121.9119      6000  0.020318  0.018144  0.023328  cuda_time_step(int, int, float*, float*, float*, float*)
                     3.26  21.09244      2000  0.010546  9.86e-03  0.013728  [CUDA memcpy DtoD]
                     0.30  1.958869         3  0.652956  0.568957  0.798331  cuda_initialize_variables(int, float*)
                     0.00  7.42e-03         5  1.48e-03  1.41e-03  1.79e-03  [CUDA memcpy HtoD]
                     0.00  2.05e-03         1  2.05e-03  2.05e-03  2.05e-03  [CUDA memset]
      API calls:    52.26  592.9636      2000  0.296481  0.030240  4.853897  cudaMemcpy
                    26.26  298.0125         5  59.60250  6.13e-03  297.9786  cudaMemcpyToSymbol
                    11.37  128.9945        10  12.89945  4.18e-04  127.4940  cudaFree
                     6.85  77.68418     14003  5.55e-03  4.52e-03  0.498737  cudaLaunchKernel
                     1.86  21.10091         7  3.014415  6.47e-03  20.52344  cudaMallocManaged
                     0.40  4.568597         4  1.142149  1.125065  1.181381  cuDeviceTotalMem
                     0.38  4.352043       388  0.011216  1.10e-04  1.165754  cuDeviceGetAttribute
                     0.30  3.379747     28003  1.20e-04  8.40e-05  0.011417  cudaGetLastError
                     0.19  2.172631         1  2.172631  2.172631  2.172631  cudaMemset
                     0.07  0.828943         1  0.828943  0.828943  0.828943  cudaGetDeviceProperties
                     0.03  0.301037         2  0.150518  0.015064  0.285973  cudaThreadSynchronize
                     0.03  0.284784         4  0.071196  0.069106  0.073229  cuDeviceGetName
                     0.00  0.048490         3  0.016163  4.51e-03  0.034440  cudaMemAdvise
                     0.00  9.28e-03         4  2.32e-03  1.17e-03  5.36e-03  cuDeviceGetPCIBusId
                     0.00  7.21e-03         1  7.21e-03  7.21e-03  7.21e-03  cudaSetDevice
                     0.00  2.17e-03         8  2.70e-04  1.61e-04  7.33e-04  cuDeviceGet
                     0.00  1.99e-03         1  1.99e-03  1.99e-03  1.99e-03  cudaGetDevice
                     0.00  1.42e-03         3  4.74e-04  1.37e-04  7.59e-04  cuDeviceGetCount
                     0.00  8.26e-04         4  2.06e-04  1.84e-04  2.47e-04  cuDeviceGetUuid

==42534== Unified Memory profiling result:
Device "Tesla V100-PCIE-32GB (0)"
   Count  Avg Size  Min Size  Max Size  Total Size  Total Time  Name
     412  29.358KB  4.0000KB  0.9961MB  11.81250MB    1.998880ms  Host To Device
      43         -         -         -           -    7.323424ms  Gpu page fault groups
      59  12.814KB  4.0000KB  92.000KB  756.0000KB           -  Remote mapping from device
Total CPU Page faults: 79
Total remote mappings to CPU: 59
