==33222== NVPROF is profiling process 33222, command: ./cfd_1300 ../../../data/cfd/fvcorr.domn.193K
==33222== Profiling application: ./cfd_1300 ../../../data/cfd/fvcorr.domn.193K
==33222== Profiling result:
            Type  Time(%)      Time     Calls       Avg       Min       Max  Name
                        %        ms                  ms        ms        ms
 GPU activities:    56.28  362.4937      6000  0.060415  0.057344  4.115562  cuda_compute_flux(int, int*, float*, float*, float*)
                    21.46  138.2013      2000  0.069100  0.067904  0.098655  cuda_compute_step_factor(int, float*, float*, float*)
                    18.66  120.2101      6000  0.020035  0.017791  0.022592  cuda_time_step(int, int, float*, float*, float*, float*)
                     3.26  21.02433      2000  0.010512  9.73e-03  0.013024  [CUDA memcpy DtoD]
                     0.33  2.103157         3  0.701052  0.585021  0.889851  cuda_initialize_variables(int, float*)
                     0.00  7.42e-03         5  1.48e-03  1.41e-03  1.79e-03  [CUDA memcpy HtoD]
                     0.00  2.08e-03         1  2.08e-03  2.08e-03  2.08e-03  [CUDA memset]
      API calls:    58.89  592.8014      2000  0.296400  0.063486  4.356978  cudaMemcpy
                    29.42  296.1655         5  59.23310  6.38e-03  296.1306  cudaMemcpyToSymbol
                     7.73  77.80589     14003  5.56e-03  4.26e-03  0.451223  cudaLaunchKernel
                     2.09  21.05919         7  3.008455  6.61e-03  20.68410  cudaMallocManaged
                     0.46  4.651601     28003  1.66e-04  1.00e-04  0.424924  cudaGetLastError
                     0.45  4.526841         4  1.131710  1.122424  1.140031  cuDeviceTotalMem
                     0.43  4.306423       388  0.011099  1.30e-04  1.185727  cuDeviceGetAttribute
                     0.23  2.296286         1  2.296286  2.296286  2.296286  cudaMemset
                     0.15  1.470074        10  0.147007  4.34e-04  0.585629  cudaFree
                     0.08  0.849116         1  0.849116  0.849116  0.849116  cudaGetDeviceProperties
                     0.03  0.289027         2  0.144513  7.54e-03  0.281488  cudaThreadSynchronize
                     0.03  0.281919         4  0.070479  0.067455  0.073712  cuDeviceGetName
                     0.00  0.016859         1  0.016859  0.016859  0.016859  cudaMemAdvise
                     0.00  9.38e-03         4  2.34e-03  1.22e-03  5.28e-03  cuDeviceGetPCIBusId
                     0.00  7.41e-03         1  7.41e-03  7.41e-03  7.41e-03  cudaSetDevice
                     0.00  2.20e-03         8  2.75e-04  1.52e-04  7.03e-04  cuDeviceGet
                     0.00  2.04e-03         1  2.04e-03  2.04e-03  2.04e-03  cudaGetDevice
                     0.00  1.20e-03         3  4.01e-04  1.34e-04  7.17e-04  cuDeviceGetCount
                     0.00  9.99e-04         4  2.49e-04  2.34e-04  2.67e-04  cuDeviceGetUuid

==33222== Unified Memory profiling result:
Device "Tesla V100-PCIE-32GB (0)"
   Count  Avg Size  Min Size  Max Size  Total Size  Total Time  Name
     352  34.363KB  4.0000KB  0.9844MB  11.81250MB    1.949280ms  Host To Device
      37         -         -         -           -    6.798240ms  Gpu page fault groups
       5  151.20KB  64.000KB  256.00KB  756.0000KB           -  Remote mapping from device
Total CPU Page faults: 83
Total remote mappings to CPU: 5
