==27871== NVPROF is profiling process 27871, command: ./cfd_1150 ../../../data/cfd/fvcorr.domn.097K
==27871== Profiling application: ./cfd_1150 ../../../data/cfd/fvcorr.domn.097K
==27871== Profiling result:
            Type  Time(%)      Time     Calls       Avg       Min       Max  Name
                        %        ms                  ms        ms        ms
 GPU activities:    73.61  215.5941      6000  0.035932  0.033120  1.953110  cuda_compute_flux(int, int*, float*, float*, float*)
                    18.73  54.86599      6000  9.14e-03  7.81e-03  0.011616  cuda_time_step(int, int, float*, float*, float*, float*)
                     4.10  12.01070      2000  6.01e-03  5.79e-03  0.012864  [CUDA memcpy DtoD]
                     3.14  9.190565      2000  4.60e-03  4.22e-03  0.237535  cuda_compute_step_factor(int, float*, float*, float*)
                     0.41  1.201402         3  0.400467  0.314335  0.498333  cuda_initialize_variables(int, float*)
                     0.00  7.36e-03         5  1.47e-03  1.38e-03  1.76e-03  [CUDA memcpy HtoD]
                     0.00  1.69e-03         1  1.69e-03  1.69e-03  1.69e-03  [CUDA memset]
      API calls:    45.26  295.5766         5  59.11533  6.30e-03  295.5429  cudaMemcpyToSymbol
                    38.26  249.8669      2000  0.124933  0.027215  2.261599  cudaMemcpy
                    10.98  71.67631     14003  5.12e-03  4.32e-03  0.441169  cudaLaunchKernel
                     3.17  20.69509         7  2.956442  0.012541  20.53743  cudaMallocManaged
                     0.69  4.527676         4  1.131919  1.122954  1.141167  cuDeviceTotalMem
                     0.54  3.525272     28003  1.25e-04  8.60e-05  0.486303  cudaGetLastError
                     0.51  3.361886       388  8.66e-03  1.11e-04  0.378862  cuDeviceGetAttribute
                     0.20  1.328862         1  1.328862  1.328862  1.328862  cudaMemset
                     0.17  1.109019        10  0.110901  4.45e-04  0.385906  cudaFree
                     0.13  0.880102         1  0.880102  0.880102  0.880102  cudaGetDeviceProperties
                     0.04  0.281456         4  0.070364  0.067629  0.076089  cuDeviceGetName
                     0.02  0.119287         2  0.059643  4.58e-03  0.114707  cudaThreadSynchronize
                     0.01  0.045696         2  0.022848  0.015576  0.030120  cudaMemAdvise
                     0.00  8.72e-03         4  2.18e-03  1.23e-03  4.72e-03  cuDeviceGetPCIBusId
                     0.00  6.70e-03         1  6.70e-03  6.70e-03  6.70e-03  cudaSetDevice
                     0.00  2.42e-03         8  3.02e-04  1.50e-04  5.43e-04  cuDeviceGet
                     0.00  1.89e-03         1  1.89e-03  1.89e-03  1.89e-03  cudaGetDevice
                     0.00  1.30e-03         3  4.34e-04  1.24e-04  7.29e-04  cuDeviceGetCount
                     0.00  8.32e-04         4  2.08e-04  1.78e-04  2.60e-04  cuDeviceGetUuid

==27871== Unified Memory profiling result:
Device "Tesla V100-PCIE-32GB (0)"
   Count  Avg Size  Min Size  Max Size  Total Size  Total Time  Name
     106  60.905KB  4.0000KB  844.00KB  6.304688MB    0.818688ms  Host To Device
      27         -         -         -           -    3.537696ms  Gpu page fault groups
Total CPU Page faults: 140
