==28103== NVPROF is profiling process 28103, command: ./cfd_1152 ../../../data/cfd/fvcorr.domn.097K
==28103== Profiling application: ./cfd_1152 ../../../data/cfd/fvcorr.domn.097K
==28103== Profiling result:
            Type  Time(%)      Time     Calls       Avg       Min       Max  Name
                        %        ms                  ms        ms        ms
 GPU activities:    73.54  215.5975      6000  0.035932  0.033184  1.961206  cuda_compute_flux(int, int*, float*, float*, float*)
                    18.75  54.97921      6000  9.16e-03  7.74e-03  0.012287  cuda_time_step(int, int, float*, float*, float*, float*)
                     4.12  12.08983      2000  6.04e-03  5.76e-03  0.013024  [CUDA memcpy DtoD]
                     3.18  9.309937      2000  4.65e-03  4.26e-03  0.345375  cuda_compute_step_factor(int, float*, float*, float*)
                     0.41  1.204762         3  0.401587  0.348798  0.497470  cuda_initialize_variables(int, float*)
                     0.00  7.39e-03         5  1.48e-03  1.38e-03  1.82e-03  [CUDA memcpy HtoD]
                     0.00  1.66e-03         1  1.66e-03  1.66e-03  1.66e-03  [CUDA memset]
      API calls:    45.11  297.2338         5  59.44676  6.11e-03  297.2000  cudaMemcpyToSymbol
                    37.81  249.1296      2000  0.124564  0.025140  2.389303  cudaMemcpy
                    11.71  77.15491     14003  5.51e-03  4.30e-03  0.528574  cudaLaunchKernel
                     3.13  20.62864         7  2.946949  0.013284  20.47642  cudaMallocManaged
                     0.69  4.542496         4  1.135624  1.125770  1.153524  cuDeviceTotalMem
                     0.51  3.388533       388  8.73e-03  1.09e-04  0.363478  cuDeviceGetAttribute
                     0.48  3.168100     28003  1.13e-04  8.50e-05  0.014620  cudaGetLastError
                     0.20  1.315882         1  1.315882  1.315882  1.315882  cudaMemset
                     0.16  1.056167        10  0.105616  4.30e-04  0.364578  cudaFree
                     0.13  0.831011         1  0.831011  0.831011  0.831011  cudaGetDeviceProperties
                     0.04  0.280422         4  0.070105  0.067690  0.072754  cuDeviceGetName
                     0.02  0.122271         2  0.061135  4.44e-03  0.117829  cudaThreadSynchronize
                     0.00  0.032803         3  0.010934  3.72e-03  0.014873  cudaMemAdvise
                     0.00  8.89e-03         4  2.22e-03  1.19e-03  4.78e-03  cuDeviceGetPCIBusId
                     0.00  6.80e-03         1  6.80e-03  6.80e-03  6.80e-03  cudaSetDevice
                     0.00  2.80e-03         8  3.49e-04  1.58e-04  8.09e-04  cuDeviceGet
                     0.00  1.81e-03         1  1.81e-03  1.81e-03  1.81e-03  cudaGetDevice
                     0.00  1.39e-03         3  4.63e-04  1.42e-04  7.67e-04  cuDeviceGetCount
                     0.00  7.89e-04         4  1.97e-04  1.62e-04  2.44e-04  cuDeviceGetUuid

==28103== Unified Memory profiling result:
Device "Tesla V100-PCIE-32GB (0)"
   Count  Avg Size  Min Size  Max Size  Total Size  Total Time  Name
     170  37.976KB  4.0000KB  852.00KB  6.304688MB    0.989280ms  Host To Device
      24         -         -         -           -    3.944704ms  Gpu page fault groups
Total CPU Page faults: 140
