==25594== NVPROF is profiling process 25594, command: ./cfd_1120 ../../../data/cfd/fvcorr.domn.193K
==25594== Profiling application: ./cfd_1120 ../../../data/cfd/fvcorr.domn.193K
==25594== Profiling result:
            Type  Time(%)      Time     Calls       Avg       Min       Max  Name
                        %        ms                  ms        ms        ms
 GPU activities:    68.80  360.9439      6000  0.060157  0.057119  4.080586  cuda_compute_flux(int, int*, float*, float*, float*)
                    22.98  120.5503      6000  0.020091  0.018144  0.022304  cuda_time_step(int, int, float*, float*, float*, float*)
                     4.05  21.24065      2000  0.010620  9.92e-03  0.014080  [CUDA memcpy DtoD]
                     3.79  19.85718      2000  9.93e-03  8.86e-03  0.618397  cuda_compute_step_factor(int, float*, float*, float*)
                     0.38  2.015349         3  0.671783  0.587997  0.822299  cuda_initialize_variables(int, float*)
                     0.00  7.33e-03         5  1.47e-03  1.38e-03  1.76e-03  [CUDA memcpy HtoD]
                     0.00  2.37e-03         1  2.37e-03  2.37e-03  2.37e-03  [CUDA memset]
      API calls:    53.66  474.3554      2000  0.237177  0.035230  4.853743  cudaMemcpy
                    33.23  293.7828         5  58.75655  6.09e-03  293.7491  cudaMemcpyToSymbol
                     8.84  78.15780     14003  5.58e-03  4.26e-03  0.482467  cudaLaunchKernel
                     2.36  20.84580         7  2.977972  7.68e-03  20.46108  cudaMallocManaged
                     0.52  4.598065         4  1.149516  1.140380  1.156989  cuDeviceTotalMem
                     0.40  3.557924     28003  1.27e-04  8.80e-05  0.011252  cudaGetLastError
                     0.38  3.356584       388  8.65e-03  1.09e-04  0.357674  cuDeviceGetAttribute
                     0.26  2.258729         1  2.258729  2.258729  2.258729  cudaMemset
                     0.19  1.656353        10  0.165635  4.38e-04  0.697223  cudaFree
                     0.09  0.829989         1  0.829989  0.829989  0.829989  cudaGetDeviceProperties
                     0.03  0.291936         4  0.072984  0.067491  0.084994  cuDeviceGetName
                     0.03  0.231920         2  0.115960  7.67e-03  0.224252  cudaThreadSynchronize
                     0.00  0.020514         2  0.010257  6.02e-03  0.014492  cudaMemAdvise
                     0.00  9.06e-03         4  2.26e-03  1.15e-03  5.01e-03  cuDeviceGetPCIBusId
                     0.00  7.29e-03         1  7.29e-03  7.29e-03  7.29e-03  cudaSetDevice
                     0.00  2.39e-03         8  2.99e-04  1.57e-04  7.19e-04  cuDeviceGet
                     0.00  1.85e-03         1  1.85e-03  1.85e-03  1.85e-03  cudaGetDevice
                     0.00  1.18e-03         3  3.94e-04  1.24e-04  7.39e-04  cuDeviceGetCount
                     0.00  8.25e-04         4  2.06e-04  1.81e-04  2.63e-04  cuDeviceGetUuid

==25594== Unified Memory profiling result:
Device "Tesla V100-PCIE-32GB (0)"
   Count  Avg Size  Min Size  Max Size  Total Size  Total Time  Name
     349  36.825KB  4.0000KB  992.00KB  12.55078MB    2.001312ms  Host To Device
      35         -         -         -           -    6.912928ms  Gpu page fault groups
Total CPU Page faults: 267
