==27828== NVPROF is profiling process 27828, command: ./cfd_1145 ../../../data/cfd/missile.domn.0.2M
==27828== Profiling application: ./cfd_1145 ../../../data/cfd/missile.domn.0.2M
==27828== Profiling result:
            Type  Time(%)      Time     Calls       Avg       Min       Max  Name
                        %        ms                  ms        ms        ms
 GPU activities:    90.58  1.92e+03      6000  0.319849  0.311294  5.506817  cuda_compute_flux(int, int*, float*, float*, float*)
                     6.58  139.4728      6000  0.023245  0.021088  0.026400  cuda_time_step(int, int, float*, float*, float*, float*)
                     1.46  30.87900      2000  0.015439  0.014464  0.021664  [CUDA memcpy DtoD]
                     1.28  27.04374      2000  0.013521  0.011648  0.622268  cuda_compute_step_factor(int, float*, float*, float*)
                     0.10  2.167763         3  0.722587  0.654076  0.803643  cuda_initialize_variables(int, float*)
                     0.00  7.62e-03         5  1.52e-03  1.41e-03  1.79e-03  [CUDA memcpy HtoD]
                     0.00  2.34e-03         1  2.34e-03  2.34e-03  2.34e-03  [CUDA memset]
      API calls:    83.32  2.07e+03      2000  1.033943  0.061901  6.814020  cudaMemcpy
                    11.94  296.3209         5  59.26417  6.61e-03  296.2863  cudaMemcpyToSymbol
                     3.14  77.91762     14003  5.56e-03  4.35e-03  0.438692  cudaLaunchKernel
                     0.84  20.87994         7  2.982848  0.015115  20.50560  cudaMallocManaged
                     0.18  4.580024         4  1.145006  1.140639  1.149260  cuDeviceTotalMem
                     0.17  4.310180     28003  1.53e-04  8.60e-05  0.434111  cudaGetLastError
                     0.14  3.380390       388  8.71e-03  1.09e-04  0.360408  cuDeviceGetAttribute
                     0.10  2.501694         1  2.501694  2.501694  2.501694  cudaMemset
                     0.07  1.823365        10  0.182336  4.03e-04  0.776102  cudaFree
                     0.04  1.019261         2  0.509630  7.87e-03  1.011395  cudaThreadSynchronize
                     0.03  0.838167         1  0.838167  0.838167  0.838167  cudaGetDeviceProperties
                     0.01  0.282101         4  0.070525  0.067835  0.072766  cuDeviceGetName
                     0.00  0.023131         3  7.71e-03  2.55e-03  0.014729  cudaMemAdvise
                     0.00  8.55e-03         4  2.14e-03  1.19e-03  4.74e-03  cuDeviceGetPCIBusId
                     0.00  7.32e-03         1  7.32e-03  7.32e-03  7.32e-03  cudaSetDevice
                     0.00  2.27e-03         8  2.83e-04  1.61e-04  6.30e-04  cuDeviceGet
                     0.00  1.83e-03         1  1.83e-03  1.83e-03  1.83e-03  cudaGetDevice
                     0.00  1.41e-03         3  4.68e-04  1.37e-04  7.99e-04  cuDeviceGetCount
                     0.00  8.35e-04         4  2.08e-04  1.74e-04  2.96e-04  cuDeviceGetUuid

==27828== Unified Memory profiling result:
Device "Tesla V100-PCIE-32GB (0)"
   Count  Avg Size  Min Size  Max Size  Total Size  Total Time  Name
     294  40.203KB  4.0000KB  968.00KB  11.54297MB    1.756704ms  Host To Device
      67         -         -         -           -    9.060736ms  Gpu page fault groups
     556  6.5391KB  4.0000KB  56.000KB  3.550781MB           -  Remote mapping from device
Total CPU Page faults: 295
Total remote mappings to CPU: 556
